{
	"systeminfo": "AVX = 1 | AVX2 = 1 | AVX512 = 0 | FMA = 1 | NEON = 0 | ARM_FMA = 0 | METAL = 0 | F16C = 1 | FP16_VA = 0 | WASM_SIMD = 0 | BLAS = 0 | SSE3 = 1 | SSSE3 = 1 | VSX = 0 | CUDA = 0 | COREML = 0 | OPENVINO = 0 | ",
	"model": {
		"type": "large",
		"multilingual": true,
		"vocab": 51865,
		"audio": {
			"ctx": 1500,
			"state": 1280,
			"head": 20,
			"layer": 32
		},
		"text": {
			"ctx": 448,
			"state": 1280,
			"head": 20,
			"layer": 32
		},
		"mels": 80,
		"ftype": 1
	},
	"params": {
		"model": "/usr/share/Whisper.cpp-model-large/large.bin",
		"language": "es",
		"translate": false
	},
	"result": {
		"language": "es"
	},
	"transcription": [
		{
			"timestamps": {
				"from": "00:00:00,000",
				"to": "00:00:04,090"
			},
			"offsets": {
				"from": 0,
				"to": 4090
			},
			"text": " KDE Express 21, si no me equivoco,"
		},
		{
			"timestamps": {
				"from": "00:00:04,090",
				"to": "00:00:05,050"
			},
			"offsets": {
				"from": 4090,
				"to": 5050
			},
			"text": " voy en coche así que no lo"
		},
		{
			"timestamps": {
				"from": "00:00:05,050",
				"to": "00:00:05,840"
			},
			"offsets": {
				"from": 5050,
				"to": 5840
			},
			"text": " tengo apuntado."
		},
		{
			"timestamps": {
				"from": "00:00:05,840",
				"to": "00:00:10,200"
			},
			"offsets": {
				"from": 5840,
				"to": 10200
			},
			"text": " Quería contarte un par de"
		},
		{
			"timestamps": {
				"from": "00:00:10,200",
				"to": "00:00:13,520"
			},
			"offsets": {
				"from": 10200,
				"to": 13520
			},
			"text": " cosas cortas de las que se"
		},
		{
			"timestamps": {
				"from": "00:00:13,520",
				"to": "00:00:15,680"
			},
			"offsets": {
				"from": 13520,
				"to": 15680
			},
			"text": " pueden utilizar ya y de las que"
		},
		{
			"timestamps": {
				"from": "00:00:15,680",
				"to": "00:00:16,320"
			},
			"offsets": {
				"from": 15680,
				"to": 16320
			},
			"text": " vienen a futuro."
		},
		{
			"timestamps": {
				"from": "00:00:16,320",
				"to": "00:00:20,090"
			},
			"offsets": {
				"from": 16320,
				"to": 20090
			},
			"text": " De las que pueden utilizar ya"
		},
		{
			"timestamps": {
				"from": "00:00:20,090",
				"to": "00:00:23,440"
			},
			"offsets": {
				"from": 20090,
				"to": 23440
			},
			"text": " es, en KDE tenemos unos repositorios"
		},
		{
			"timestamps": {
				"from": "00:00:23,440",
				"to": "00:00:24,800"
			},
			"offsets": {
				"from": 23440,
				"to": 24800
			},
			"text": " para F-Droid que tienen"
		},
		{
			"timestamps": {
				"from": "00:00:24,800",
				"to": "00:00:26,130"
			},
			"offsets": {
				"from": 24800,
				"to": 26130
			},
			"text": " aplicaciones extras de las que"
		},
		{
			"timestamps": {
				"from": "00:00:26,130",
				"to": "00:00:27,410"
			},
			"offsets": {
				"from": 26130,
				"to": 27410
			},
			"text": " hay en el repositorio oficial"
		},
		{
			"timestamps": {
				"from": "00:00:27,410",
				"to": "00:00:28,920"
			},
			"offsets": {
				"from": 27410,
				"to": 28920
			},
			"text": " de F-Droid. Yo lo uso"
		},
		{
			"timestamps": {
				"from": "00:00:28,920",
				"to": "00:00:31,800"
			},
			"offsets": {
				"from": 28920,
				"to": 31800
			},
			"text": " mucho por ejemplo para NeoChat"
		},
		{
			"timestamps": {
				"from": "00:00:31,800",
				"to": "00:00:34,560"
			},
			"offsets": {
				"from": 31800,
				"to": 34560
			},
			"text": " y para Itinerary creo que es y"
		},
		{
			"timestamps": {
				"from": "00:00:34,560",
				"to": "00:00:36,400"
			},
			"offsets": {
				"from": 34560,
				"to": 36400
			},
			"text": " pues con eso consigue la aplicación"
		},
		{
			"timestamps": {
				"from": "00:00:36,400",
				"to": "00:00:37,540"
			},
			"offsets": {
				"from": 36400,
				"to": 37540
			},
			"text": " en APK directamente, no te la"
		},
		{
			"timestamps": {
				"from": "00:00:37,540",
				"to": "00:00:38,780"
			},
			"offsets": {
				"from": 37540,
				"to": 38780
			},
			"text": " tienes que estar bajando, pero"
		},
		{
			"timestamps": {
				"from": "00:00:38,780",
				"to": "00:00:40,160"
			},
			"offsets": {
				"from": 38780,
				"to": 40160
			},
			"text": " eso hasta ahora tenía una pega"
		},
		{
			"timestamps": {
				"from": "00:00:40,160",
				"to": "00:00:40,600"
			},
			"offsets": {
				"from": 40160,
				"to": 40600
			},
			"text": " que"
		},
		{
			"timestamps": {
				"from": "00:00:40,600",
				"to": "00:00:41,950"
			},
			"offsets": {
				"from": 40600,
				"to": 41950
			},
			"text": " es que ese repositorio a pesar"
		},
		{
			"timestamps": {
				"from": "00:00:41,950",
				"to": "00:00:43,420"
			},
			"offsets": {
				"from": 41950,
				"to": 43420
			},
			"text": " de ser un repositorio estable,"
		},
		{
			"timestamps": {
				"from": "00:00:43,420",
				"to": "00:00:45,400"
			},
			"offsets": {
				"from": 43420,
				"to": 45400
			},
			"text": " porque hay un repositorio con"
		},
		{
			"timestamps": {
				"from": "00:00:45,400",
				"to": "00:00:46,600"
			},
			"offsets": {
				"from": 45400,
				"to": 46600
			},
			"text": " todos los"
		},
		{
			"timestamps": {
				"from": "00:00:46,600",
				"to": "00:00:48,380"
			},
			"offsets": {
				"from": 46600,
				"to": 48380
			},
			"text": " builds de la rama master, o sea"
		},
		{
			"timestamps": {
				"from": "00:00:48,380",
				"to": "00:00:49,690"
			},
			"offsets": {
				"from": 48380,
				"to": 49690
			},
			"text": " el código que se está"
		},
		{
			"timestamps": {
				"from": "00:00:49,690",
				"to": "00:00:51,920"
			},
			"offsets": {
				"from": 49690,
				"to": 51920
			},
			"text": " desarrollando, hay un repositorio"
		},
		{
			"timestamps": {
				"from": "00:00:51,920",
				"to": "00:00:52,080"
			},
			"offsets": {
				"from": 51920,
				"to": 52080
			},
			"text": " que"
		},
		{
			"timestamps": {
				"from": "00:00:52,080",
				"to": "00:00:53,440"
			},
			"offsets": {
				"from": 52080,
				"to": 53440
			},
			"text": " todas las noches se compila y"
		},
		{
			"timestamps": {
				"from": "00:00:53,440",
				"to": "00:00:54,860"
			},
			"offsets": {
				"from": 53440,
				"to": 54860
			},
			"text": " tú tienes pues la versión de"
		},
		{
			"timestamps": {
				"from": "00:00:54,860",
				"to": "00:00:56,440"
			},
			"offsets": {
				"from": 54860,
				"to": 56440
			},
			"text": " pruebas, pero el repositorio"
		},
		{
			"timestamps": {
				"from": "00:00:56,440",
				"to": "00:00:56,840"
			},
			"offsets": {
				"from": 56440,
				"to": 56840
			},
			"text": " estable"
		},
		{
			"timestamps": {
				"from": "00:00:56,840",
				"to": "00:00:58,390"
			},
			"offsets": {
				"from": 56840,
				"to": 58390
			},
			"text": " solo tiene las versiones que"
		},
		{
			"timestamps": {
				"from": "00:00:58,390",
				"to": "00:00:59,940"
			},
			"offsets": {
				"from": 58390,
				"to": 59940
			},
			"text": " están marcadas con el punto"
		},
		{
			"timestamps": {
				"from": "00:00:59,940",
				"to": "00:01:01,720"
			},
			"offsets": {
				"from": 59940,
				"to": 61720
			},
			"text": " algo, pero tenía una pega que"
		},
		{
			"timestamps": {
				"from": "00:01:01,720",
				"to": "00:01:01,960"
			},
			"offsets": {
				"from": 61720,
				"to": 61960
			},
			"text": " a mí me"
		},
		{
			"timestamps": {
				"from": "00:01:01,960",
				"to": "00:01:03,450"
			},
			"offsets": {
				"from": 61960,
				"to": 63450
			},
			"text": " volvía loco, que es que"
		},
		{
			"timestamps": {
				"from": "00:01:03,450",
				"to": "00:01:04,860"
			},
			"offsets": {
				"from": 63450,
				"to": 64860
			},
			"text": " también se compilaba todas las"
		},
		{
			"timestamps": {
				"from": "00:01:04,860",
				"to": "00:01:06,920"
			},
			"offsets": {
				"from": 64860,
				"to": 66920
			},
			"text": " noches. Todos los días tú tenías"
		},
		{
			"timestamps": {
				"from": "00:01:06,920",
				"to": "00:01:07,640"
			},
			"offsets": {
				"from": 66920,
				"to": 67640
			},
			"text": " dos"
		},
		{
			"timestamps": {
				"from": "00:01:07,640",
				"to": "00:01:09,190"
			},
			"offsets": {
				"from": 67640,
				"to": 69190
			},
			"text": " actualizaciones, bueno yo"
		},
		{
			"timestamps": {
				"from": "00:01:09,190",
				"to": "00:01:10,670"
			},
			"offsets": {
				"from": 69190,
				"to": 70670
			},
			"text": " porque tengo esas dos aplicaciones"
		},
		{
			"timestamps": {
				"from": "00:01:10,670",
				"to": "00:01:12,360"
			},
			"offsets": {
				"from": 70670,
				"to": 72360
			},
			"text": " instaladas fuera del repositorio"
		},
		{
			"timestamps": {
				"from": "00:01:12,360",
				"to": "00:01:13,960"
			},
			"offsets": {
				"from": 72360,
				"to": 73960
			},
			"text": " oficial, pero toda aplicación"
		},
		{
			"timestamps": {
				"from": "00:01:13,960",
				"to": "00:01:15,330"
			},
			"offsets": {
				"from": 73960,
				"to": 75330
			},
			"text": " que venga de ese repositorio"
		},
		{
			"timestamps": {
				"from": "00:01:15,330",
				"to": "00:01:16,720"
			},
			"offsets": {
				"from": 75330,
				"to": 76720
			},
			"text": " todas las noches te aparecía"
		},
		{
			"timestamps": {
				"from": "00:01:16,720",
				"to": "00:01:17,120"
			},
			"offsets": {
				"from": 76720,
				"to": 77120
			},
			"text": " en F-Droid"
		},
		{
			"timestamps": {
				"from": "00:01:17,120",
				"to": "00:01:18,270"
			},
			"offsets": {
				"from": 77120,
				"to": 78270
			},
			"text": " como que había una nueva"
		},
		{
			"timestamps": {
				"from": "00:01:18,270",
				"to": "00:01:19,740"
			},
			"offsets": {
				"from": 78270,
				"to": 79740
			},
			"text": " versión y si no querías tener"
		},
		{
			"timestamps": {
				"from": "00:01:19,740",
				"to": "00:01:21,280"
			},
			"offsets": {
				"from": 79740,
				"to": 81280
			},
			"text": " la notificación pues tenías"
		},
		{
			"timestamps": {
				"from": "00:01:21,280",
				"to": "00:01:21,800"
			},
			"offsets": {
				"from": 81280,
				"to": 81800
			},
			"text": " que decirle que"
		},
		{
			"timestamps": {
				"from": "00:01:21,800",
				"to": "00:01:23,360"
			},
			"offsets": {
				"from": 81800,
				"to": 83360
			},
			"text": " esa aplicación no te avisara y"
		},
		{
			"timestamps": {
				"from": "00:01:23,360",
				"to": "00:01:24,800"
			},
			"offsets": {
				"from": 83360,
				"to": 84800
			},
			"text": " tú de vez en cuando meterte y"
		},
		{
			"timestamps": {
				"from": "00:01:24,800",
				"to": "00:01:26,240"
			},
			"offsets": {
				"from": 84800,
				"to": 86240
			},
			"text": " actualizar a mano o estabas"
		},
		{
			"timestamps": {
				"from": "00:01:26,240",
				"to": "00:01:26,800"
			},
			"offsets": {
				"from": 86240,
				"to": 86800
			},
			"text": " instalando"
		},
		{
			"timestamps": {
				"from": "00:01:26,800",
				"to": "00:01:28,670"
			},
			"offsets": {
				"from": 86800,
				"to": 88670
			},
			"text": " todos los días la misma aplicación"
		},
		{
			"timestamps": {
				"from": "00:01:28,670",
				"to": "00:01:30,160"
			},
			"offsets": {
				"from": 88670,
				"to": 90160
			},
			"text": " porque era exactamente la misma"
		},
		{
			"timestamps": {
				"from": "00:01:30,160",
				"to": "00:01:31,560"
			},
			"offsets": {
				"from": 90160,
				"to": 91560
			},
			"text": " que se había compilado de"
		},
		{
			"timestamps": {
				"from": "00:01:31,560",
				"to": "00:01:33,000"
			},
			"offsets": {
				"from": 91560,
				"to": 93000
			},
			"text": " nuevo hasta el día que cambiaba"
		},
		{
			"timestamps": {
				"from": "00:01:33,000",
				"to": "00:01:34,330"
			},
			"offsets": {
				"from": 93000,
				"to": 94330
			},
			"text": " algo el código y entonces esa"
		},
		{
			"timestamps": {
				"from": "00:01:34,330",
				"to": "00:01:35,920"
			},
			"offsets": {
				"from": 94330,
				"to": 95920
			},
			"text": " sí era nueva, pero tú no veías"
		},
		{
			"timestamps": {
				"from": "00:01:35,920",
				"to": "00:01:36,040"
			},
			"offsets": {
				"from": 95920,
				"to": 96040
			},
			"text": " la"
		},
		{
			"timestamps": {
				"from": "00:01:36,040",
				"to": "00:01:37,350"
			},
			"offsets": {
				"from": 96040,
				"to": 97350
			},
			"text": " diferencia y por suerte a"
		},
		{
			"timestamps": {
				"from": "00:01:37,350",
				"to": "00:01:38,680"
			},
			"offsets": {
				"from": 97350,
				"to": 98680
			},
			"text": " partir de hoy que estáis"
		},
		{
			"timestamps": {
				"from": "00:01:38,680",
				"to": "00:01:40,630"
			},
			"offsets": {
				"from": 98680,
				"to": 100630
			},
			"text": " escuchando esto, eso ya no pasa,"
		},
		{
			"timestamps": {
				"from": "00:01:40,630",
				"to": "00:01:41,760"
			},
			"offsets": {
				"from": 100630,
				"to": 101760
			},
			"text": " porque han cambiado"
		},
		{
			"timestamps": {
				"from": "00:01:41,760",
				"to": "00:01:43,570"
			},
			"offsets": {
				"from": 101760,
				"to": 103570
			},
			"text": " la infraestructura en la que se"
		},
		{
			"timestamps": {
				"from": "00:01:43,570",
				"to": "00:01:45,450"
			},
			"offsets": {
				"from": 103570,
				"to": 105450
			},
			"text": " compilan, han pasado de Fabricator"
		},
		{
			"timestamps": {
				"from": "00:01:45,450",
				"to": "00:01:47,230"
			},
			"offsets": {
				"from": 105450,
				"to": 107230
			},
			"text": " o no sé qué, cómo se llama,"
		},
		{
			"timestamps": {
				"from": "00:01:47,230",
				"to": "00:01:47,500"
			},
			"offsets": {
				"from": 107230,
				"to": 107500
			},
			"text": " lo que"
		},
		{
			"timestamps": {
				"from": "00:01:47,500",
				"to": "00:01:48,690"
			},
			"offsets": {
				"from": 107500,
				"to": 108690
			},
			"text": " compilaba antes y ahora lo"
		},
		{
			"timestamps": {
				"from": "00:01:48,690",
				"to": "00:01:50,090"
			},
			"offsets": {
				"from": 108690,
				"to": 110090
			},
			"text": " hacen con GitLab, que es donde"
		},
		{
			"timestamps": {
				"from": "00:01:50,090",
				"to": "00:01:52,040"
			},
			"offsets": {
				"from": 110090,
				"to": 112040
			},
			"text": " se está centralizando la infraestructura"
		},
		{
			"timestamps": {
				"from": "00:01:52,040",
				"to": "00:01:54,440"
			},
			"offsets": {
				"from": 112040,
				"to": 114440
			},
			"text": " de KDE Internacional. Entonces"
		},
		{
			"timestamps": {
				"from": "00:01:54,440",
				"to": "00:01:56,800"
			},
			"offsets": {
				"from": 114440,
				"to": 116800
			},
			"text": " ahora este segundo repositorio"
		},
		{
			"timestamps": {
				"from": "00:01:56,800",
				"to": "00:01:58,560"
			},
			"offsets": {
				"from": 116800,
				"to": 118560
			},
			"text": " extra que no es el de F-Droid"
		},
		{
			"timestamps": {
				"from": "00:01:58,560",
				"to": "00:01:58,960"
			},
			"offsets": {
				"from": 118560,
				"to": 118960
			},
			"text": " oficial"
		},
		{
			"timestamps": {
				"from": "00:01:58,960",
				"to": "00:02:00,550"
			},
			"offsets": {
				"from": 118960,
				"to": 120550
			},
			"text": " y que tiene aplicaciones que no"
		},
		{
			"timestamps": {
				"from": "00:02:00,550",
				"to": "00:02:02,140"
			},
			"offsets": {
				"from": 120550,
				"to": 122140
			},
			"text": " están en el oficial, ya sólo"
		},
		{
			"timestamps": {
				"from": "00:02:02,140",
				"to": "00:02:03,640"
			},
			"offsets": {
				"from": 122140,
				"to": 123640
			},
			"text": " te va a dar actualizaciones"
		},
		{
			"timestamps": {
				"from": "00:02:03,640",
				"to": "00:02:04,040"
			},
			"offsets": {
				"from": 123640,
				"to": 124040
			},
			"text": " cuando"
		},
		{
			"timestamps": {
				"from": "00:02:04,040",
				"to": "00:02:05,720"
			},
			"offsets": {
				"from": 124040,
				"to": 125720
			},
			"text": " realmente se haya hecho una"
		},
		{
			"timestamps": {
				"from": "00:02:05,720",
				"to": "00:02:07,770"
			},
			"offsets": {
				"from": 125720,
				"to": 127770
			},
			"text": " versión nueva de la aplicación"
		},
		{
			"timestamps": {
				"from": "00:02:07,770",
				"to": "00:02:09,840"
			},
			"offsets": {
				"from": 127770,
				"to": 129840
			},
			"text": " y eso a mí la verdad es que me"
		},
		{
			"timestamps": {
				"from": "00:02:09,840",
				"to": "00:02:10,080"
			},
			"offsets": {
				"from": 129840,
				"to": 130080
			},
			"text": " viene"
		},
		{
			"timestamps": {
				"from": "00:02:10,080",
				"to": "00:02:11,970"
			},
			"offsets": {
				"from": 130080,
				"to": 131970
			},
			"text": " muy bien porque machaco menos"
		},
		{
			"timestamps": {
				"from": "00:02:11,970",
				"to": "00:02:14,040"
			},
			"offsets": {
				"from": 131970,
				"to": 134040
			},
			"text": " la memoria interna del teléfono,"
		},
		{
			"timestamps": {
				"from": "00:02:14,040",
				"to": "00:02:15,560"
			},
			"offsets": {
				"from": 134040,
				"to": 135560
			},
			"text": " el TOC que tengo de que no me"
		},
		{
			"timestamps": {
				"from": "00:02:15,560",
				"to": "00:02:15,800"
			},
			"offsets": {
				"from": 135560,
				"to": 135800
			},
			"text": " gusta"
		},
		{
			"timestamps": {
				"from": "00:02:15,800",
				"to": "00:02:17,640"
			},
			"offsets": {
				"from": 135800,
				"to": 137640
			},
			"text": " ver notificaciones me lo va a"
		},
		{
			"timestamps": {
				"from": "00:02:17,640",
				"to": "00:02:19,470"
			},
			"offsets": {
				"from": 137640,
				"to": 139470
			},
			"text": " arreglar y de paso voy a saber"
		},
		{
			"timestamps": {
				"from": "00:02:19,470",
				"to": "00:02:22,040"
			},
			"offsets": {
				"from": 139470,
				"to": 142040
			},
			"text": " realmente cuándo se ha actualizado"
		},
		{
			"timestamps": {
				"from": "00:02:22,040",
				"to": "00:02:22,160"
			},
			"offsets": {
				"from": 142040,
				"to": 142160
			},
			"text": " la"
		},
		{
			"timestamps": {
				"from": "00:02:22,160",
				"to": "00:02:23,300"
			},
			"offsets": {
				"from": 142160,
				"to": 143300
			},
			"text": " aplicación y cuándo hay"
		},
		{
			"timestamps": {
				"from": "00:02:23,300",
				"to": "00:02:24,720"
			},
			"offsets": {
				"from": 143300,
				"to": 144720
			},
			"text": " alguna novedad, así que esa es"
		},
		{
			"timestamps": {
				"from": "00:02:24,720",
				"to": "00:02:26,120"
			},
			"offsets": {
				"from": 144720,
				"to": 146120
			},
			"text": " una de las cosas que ya podéis"
		},
		{
			"timestamps": {
				"from": "00:02:26,120",
				"to": "00:02:27,280"
			},
			"offsets": {
				"from": 146120,
				"to": 147280
			},
			"text": " disfrutar y de"
		},
		{
			"timestamps": {
				"from": "00:02:27,280",
				"to": "00:02:29,660"
			},
			"offsets": {
				"from": 147280,
				"to": 149660
			},
			"text": " paso por si no lo sabíais para"
		},
		{
			"timestamps": {
				"from": "00:02:29,660",
				"to": "00:02:31,790"
			},
			"offsets": {
				"from": 149660,
				"to": 151790
			},
			"text": " que tengáis en cuenta que hay"
		},
		{
			"timestamps": {
				"from": "00:02:31,790",
				"to": "00:02:34,080"
			},
			"offsets": {
				"from": 151790,
				"to": 154080
			},
			"text": " un repositorio de KDE que pondré"
		},
		{
			"timestamps": {
				"from": "00:02:34,080",
				"to": "00:02:35,890"
			},
			"offsets": {
				"from": 154080,
				"to": 155890
			},
			"text": " las notas del programa cómo"
		},
		{
			"timestamps": {
				"from": "00:02:35,890",
				"to": "00:02:37,330"
			},
			"offsets": {
				"from": 155890,
				"to": 157330
			},
			"text": " llegar para poder tener instaladas"
		},
		{
			"timestamps": {
				"from": "00:02:37,330",
				"to": "00:02:39,040"
			},
			"offsets": {
				"from": 157330,
				"to": 159040
			},
			"text": " aplicaciones de KDE fuera del"
		},
		{
			"timestamps": {
				"from": "00:02:39,040",
				"to": "00:02:41,000"
			},
			"offsets": {
				"from": 159040,
				"to": 161000
			},
			"text": " repositorio oficial. Eso era lo"
		},
		{
			"timestamps": {
				"from": "00:02:41,000",
				"to": "00:02:42,600"
			},
			"offsets": {
				"from": 161000,
				"to": 162600
			},
			"text": " que es para hoy, luego antes de"
		},
		{
			"timestamps": {
				"from": "00:02:42,600",
				"to": "00:02:43,840"
			},
			"offsets": {
				"from": 162600,
				"to": 163840
			},
			"text": " lo que es para el futuro"
		},
		{
			"timestamps": {
				"from": "00:02:43,840",
				"to": "00:02:44,520"
			},
			"offsets": {
				"from": 163840,
				"to": 164520
			},
			"text": " quería"
		},
		{
			"timestamps": {
				"from": "00:02:44,520",
				"to": "00:02:46,750"
			},
			"offsets": {
				"from": 164520,
				"to": 166750
			},
			"text": " desde aquí mandar un abrazo"
		},
		{
			"timestamps": {
				"from": "00:02:46,750",
				"to": "00:02:48,980"
			},
			"offsets": {
				"from": 166750,
				"to": 168980
			},
			"text": " muy fuerte a Juan Febles que si"
		},
		{
			"timestamps": {
				"from": "00:02:48,980",
				"to": "00:02:51,080"
			},
			"offsets": {
				"from": 168980,
				"to": 171080
			},
			"text": " no estáis en Mastodon lo mismo"
		},
		{
			"timestamps": {
				"from": "00:02:51,080",
				"to": "00:02:51,240"
			},
			"offsets": {
				"from": 171080,
				"to": 171240
			},
			"text": " no"
		},
		{
			"timestamps": {
				"from": "00:02:51,240",
				"to": "00:02:53,670"
			},
			"offsets": {
				"from": 171240,
				"to": 173670
			},
			"text": " había enterado de que súbitamente"
		},
		{
			"timestamps": {
				"from": "00:02:53,670",
				"to": "00:02:55,560"
			},
			"offsets": {
				"from": 173670,
				"to": 175560
			},
			"text": " nos ha anunciado de que tiene"
		},
		{
			"timestamps": {
				"from": "00:02:55,560",
				"to": "00:02:58,170"
			},
			"offsets": {
				"from": 175560,
				"to": 178170
			},
			"text": " que parar el proyecto Linux"
		},
		{
			"timestamps": {
				"from": "00:02:58,170",
				"to": "00:02:58,560"
			},
			"offsets": {
				"from": 178170,
				"to": 178560
			},
			"text": " Express"
		},
		{
			"timestamps": {
				"from": "00:02:58,560",
				"to": "00:03:00,410"
			},
			"offsets": {
				"from": 178560,
				"to": 180410
			},
			"text": " y Podcast Linux por motivos"
		},
		{
			"timestamps": {
				"from": "00:03:00,410",
				"to": "00:03:02,460"
			},
			"offsets": {
				"from": 180410,
				"to": 182460
			},
			"text": " personales, sean los que sean"
		},
		{
			"timestamps": {
				"from": "00:03:02,460",
				"to": "00:03:04,560"
			},
			"offsets": {
				"from": 182460,
				"to": 184560
			},
			"text": " esperamos todos que le vaya muy"
		},
		{
			"timestamps": {
				"from": "00:03:04,560",
				"to": "00:03:04,800"
			},
			"offsets": {
				"from": 184560,
				"to": 184800
			},
			"text": " bien a"
		},
		{
			"timestamps": {
				"from": "00:03:04,800",
				"to": "00:03:06,460"
			},
			"offsets": {
				"from": 184800,
				"to": 186460
			},
			"text": " Juan porque se merece lo mejor,"
		},
		{
			"timestamps": {
				"from": "00:03:06,460",
				"to": "00:03:07,910"
			},
			"offsets": {
				"from": 186460,
				"to": 187910
			},
			"text": " porque en calidad humana no"
		},
		{
			"timestamps": {
				"from": "00:03:07,910",
				"to": "00:03:09,680"
			},
			"offsets": {
				"from": 187910,
				"to": 189680
			},
			"text": " sólo era de los mejores Podcasts"
		},
		{
			"timestamps": {
				"from": "00:03:09,680",
				"to": "00:03:09,860"
			},
			"offsets": {
				"from": 189680,
				"to": 189860
			},
			"text": " de"
		},
		{
			"timestamps": {
				"from": "00:03:09,860",
				"to": "00:03:11,690"
			},
			"offsets": {
				"from": 189860,
				"to": 191690
			},
			"text": " Linux de habla hispana sino que"
		},
		{
			"timestamps": {
				"from": "00:03:11,690",
				"to": "00:03:13,470"
			},
			"offsets": {
				"from": 191690,
				"to": 193470
			},
			"text": " era de las mejores personas en"
		},
		{
			"timestamps": {
				"from": "00:03:13,470",
				"to": "00:03:15,580"
			},
			"offsets": {
				"from": 193470,
				"to": 195580
			},
			"text": " la comunidad de Linux de habla"
		},
		{
			"timestamps": {
				"from": "00:03:15,580",
				"to": "00:03:15,960"
			},
			"offsets": {
				"from": 195580,
				"to": 195960
			},
			"text": " hispana,"
		},
		{
			"timestamps": {
				"from": "00:03:15,960",
				"to": "00:03:17,870"
			},
			"offsets": {
				"from": 195960,
				"to": 197870
			},
			"text": " así que sea lo que sea esperamos"
		},
		{
			"timestamps": {
				"from": "00:03:17,870",
				"to": "00:03:19,800"
			},
			"offsets": {
				"from": 197870,
				"to": 199800
			},
			"text": " que se solucione, estoy seguro"
		},
		{
			"timestamps": {
				"from": "00:03:19,800",
				"to": "00:03:21,520"
			},
			"offsets": {
				"from": 199800,
				"to": 201520
			},
			"text": " que todos tus oyentes Juan"
		},
		{
			"timestamps": {
				"from": "00:03:21,520",
				"to": "00:03:22,580"
			},
			"offsets": {
				"from": 201520,
				"to": 202580
			},
			"text": " esperan"
		},
		{
			"timestamps": {
				"from": "00:03:22,580",
				"to": "00:03:23,950"
			},
			"offsets": {
				"from": 202580,
				"to": 203950
			},
			"text": " que en el futuro dado que la"
		},
		{
			"timestamps": {
				"from": "00:03:23,950",
				"to": "00:03:25,870"
			},
			"offsets": {
				"from": 203950,
				"to": 205870
			},
			"text": " vida es muy larga pueda retomarlo."
		},
		{
			"timestamps": {
				"from": "00:03:25,870",
				"to": "00:03:27,680"
			},
			"offsets": {
				"from": 205870,
				"to": 207680
			},
			"text": " Y ya volviendo a KDE quería"
		},
		{
			"timestamps": {
				"from": "00:03:27,680",
				"to": "00:03:30,600"
			},
			"offsets": {
				"from": 207680,
				"to": 210600
			},
			"text": " contaros que últimamente llevo"
		},
		{
			"timestamps": {
				"from": "00:03:30,600",
				"to": "00:03:33,220"
			},
			"offsets": {
				"from": 210600,
				"to": 213220
			},
			"text": " viendo varias noticias sobre"
		},
		{
			"timestamps": {
				"from": "00:03:33,220",
				"to": "00:03:35,840"
			},
			"offsets": {
				"from": 213220,
				"to": 215840
			},
			"text": " que Plasma 6 se pasa a Wayland por"
		},
		{
			"timestamps": {
				"from": "00:03:35,840",
				"to": "00:03:37,500"
			},
			"offsets": {
				"from": 215840,
				"to": 217500
			},
			"text": " defecto y según el artículo"
		},
		{
			"timestamps": {
				"from": "00:03:37,500",
				"to": "00:03:38,990"
			},
			"offsets": {
				"from": 217500,
				"to": 218990
			},
			"text": " la verdad es que he visto por"
		},
		{
			"timestamps": {
				"from": "00:03:38,990",
				"to": "00:03:40,880"
			},
			"offsets": {
				"from": 218990,
				"to": 220880
			},
			"text": " lo menos 12, todo no me ha dado"
		},
		{
			"timestamps": {
				"from": "00:03:40,880",
				"to": "00:03:40,960"
			},
			"offsets": {
				"from": 220880,
				"to": 220960
			},
			"text": " tiempo"
		},
		{
			"timestamps": {
				"from": "00:03:40,960",
				"to": "00:03:42,270"
			},
			"offsets": {
				"from": 220960,
				"to": 222270
			},
			"text": " a leérmelo entero porque ya ha"
		},
		{
			"timestamps": {
				"from": "00:03:42,270",
				"to": "00:03:43,380"
			},
			"offsets": {
				"from": 222270,
				"to": 223380
			},
			"text": " habido un momento que me he"
		},
		{
			"timestamps": {
				"from": "00:03:43,380",
				"to": "00:03:44,700"
			},
			"offsets": {
				"from": 223380,
				"to": 224700
			},
			"text": " saturado, había algunos que"
		},
		{
			"timestamps": {
				"from": "00:03:44,700",
				"to": "00:03:45,360"
			},
			"offsets": {
				"from": 224700,
				"to": 225360
			},
			"text": " estaban bien"
		},
		{
			"timestamps": {
				"from": "00:03:45,360",
				"to": "00:03:46,800"
			},
			"offsets": {
				"from": 225360,
				"to": 226800
			},
			"text": " y otros que estaban regular,"
		},
		{
			"timestamps": {
				"from": "00:03:46,800",
				"to": "00:03:48,520"
			},
			"offsets": {
				"from": 226800,
				"to": 228520
			},
			"text": " entonces os quiero hacer un resumen"
		},
		{
			"timestamps": {
				"from": "00:03:48,520",
				"to": "00:03:50,120"
			},
			"offsets": {
				"from": 228520,
				"to": 230120
			},
			"text": " por si habéis caído en alguno"
		},
		{
			"timestamps": {
				"from": "00:03:50,120",
				"to": "00:03:52,150"
			},
			"offsets": {
				"from": 230120,
				"to": 232150
			},
			"text": " de los que está regular. Plasma"
		},
		{
			"timestamps": {
				"from": "00:03:52,150",
				"to": "00:03:53,550"
			},
			"offsets": {
				"from": 232150,
				"to": 233550
			},
			"text": " 6 ha decidido ser Wayland por"
		},
		{
			"timestamps": {
				"from": "00:03:53,550",
				"to": "00:03:55,160"
			},
			"offsets": {
				"from": 233550,
				"to": 235160
			},
			"text": " defecto pero eso es lo que no"
		},
		{
			"timestamps": {
				"from": "00:03:55,160",
				"to": "00:03:55,840"
			},
			"offsets": {
				"from": 235160,
				"to": 235840
			},
			"text": " significa"
		},
		{
			"timestamps": {
				"from": "00:03:55,840",
				"to": "00:03:57,920"
			},
			"offsets": {
				"from": 235840,
				"to": 237920
			},
			"text": " es que si tú tienes un ordenador"
		},
		{
			"timestamps": {
				"from": "00:03:57,920",
				"to": "00:04:00,270"
			},
			"offsets": {
				"from": 237920,
				"to": 240270
			},
			"text": " instalado con Plasma al actualizar"
		},
		{
			"timestamps": {
				"from": "00:04:00,270",
				"to": "00:04:01,600"
			},
			"offsets": {
				"from": 240270,
				"to": 241600
			},
			"text": " a Plasma 6 no te va a"
		},
		{
			"timestamps": {
				"from": "00:04:01,600",
				"to": "00:04:03,720"
			},
			"offsets": {
				"from": 241600,
				"to": 243720
			},
			"text": " desaparecer el X11 ni se te va"
		},
		{
			"timestamps": {
				"from": "00:04:03,720",
				"to": "00:04:05,590"
			},
			"offsets": {
				"from": 243720,
				"to": 245590
			},
			"text": " a cambiar por defecto a Wayland,"
		},
		{
			"timestamps": {
				"from": "00:04:05,590",
				"to": "00:04:07,680"
			},
			"offsets": {
				"from": 245590,
				"to": 247680
			},
			"text": " lo que significa es que para"
		},
		{
			"timestamps": {
				"from": "00:04:07,680",
				"to": "00:04:10,160"
			},
			"offsets": {
				"from": 247680,
				"to": 250160
			},
			"text": " nuevas instalaciones de nuevas"
		},
		{
			"timestamps": {
				"from": "00:04:10,160",
				"to": "00:04:12,740"
			},
			"offsets": {
				"from": 250160,
				"to": 252740
			},
			"text": " distribuciones que usen la compilación"
		},
		{
			"timestamps": {
				"from": "00:04:12,740",
				"to": "00:04:14,320"
			},
			"offsets": {
				"from": 252740,
				"to": 254320
			},
			"text": " por defecto de Plasma"
		},
		{
			"timestamps": {
				"from": "00:04:14,320",
				"to": "00:04:16,620"
			},
			"offsets": {
				"from": 254320,
				"to": 256620
			},
			"text": " esa compilación va a ir con Wayland,"
		},
		{
			"timestamps": {
				"from": "00:04:16,620",
				"to": "00:04:18,720"
			},
			"offsets": {
				"from": 256620,
				"to": 258720
			},
			"text": " se va a poder seguir instalando"
		},
		{
			"timestamps": {
				"from": "00:04:18,720",
				"to": "00:04:20,080"
			},
			"offsets": {
				"from": 258720,
				"to": 260080
			},
			"text": " la sesión X11,"
		},
		{
			"timestamps": {
				"from": "00:04:20,080",
				"to": "00:04:21,620"
			},
			"offsets": {
				"from": 260080,
				"to": 261620
			},
			"text": " simplemente la tendrás que"
		},
		{
			"timestamps": {
				"from": "00:04:21,620",
				"to": "00:04:23,130"
			},
			"offsets": {
				"from": 261620,
				"to": 263130
			},
			"text": " instalar dos paquetes y elegir"
		},
		{
			"timestamps": {
				"from": "00:04:23,130",
				"to": "00:04:24,520"
			},
			"offsets": {
				"from": 263130,
				"to": 264520
			},
			"text": " a la hora de inicio y"
		},
		{
			"timestamps": {
				"from": "00:04:24,520",
				"to": "00:04:26,460"
			},
			"offsets": {
				"from": 264520,
				"to": 266460
			},
			"text": " muchas distribuciones no compilan"
		},
		{
			"timestamps": {
				"from": "00:04:26,460",
				"to": "00:04:28,180"
			},
			"offsets": {
				"from": 266460,
				"to": 268180
			},
			"text": " Wayland por defecto, ellos harán"
		},
		{
			"timestamps": {
				"from": "00:04:28,180",
				"to": "00:04:29,120"
			},
			"offsets": {
				"from": 268180,
				"to": 269120
			},
			"text": " lo que les dé la gana,"
		},
		{
			"timestamps": {
				"from": "00:04:29,120",
				"to": "00:04:31,620"
			},
			"offsets": {
				"from": 269120,
				"to": 271620
			},
			"text": " o sea, igual que no se ve igual"
		},
		{
			"timestamps": {
				"from": "00:04:31,620",
				"to": "00:04:34,520"
			},
			"offsets": {
				"from": 271620,
				"to": 274520
			},
			"text": " Plasma en openSUSE, en Fedora,"
		},
		{
			"timestamps": {
				"from": "00:04:34,520",
				"to": "00:04:37,240"
			},
			"offsets": {
				"from": 274520,
				"to": 277240
			},
			"text": " en Arch o en Debian pues"
		},
		{
			"timestamps": {
				"from": "00:04:37,240",
				"to": "00:04:39,280"
			},
			"offsets": {
				"from": 277240,
				"to": 279280
			},
			"text": " cada una de esas distribuciones"
		},
		{
			"timestamps": {
				"from": "00:04:39,280",
				"to": "00:04:41,820"
			},
			"offsets": {
				"from": 279280,
				"to": 281820
			},
			"text": " eligen qué flags, qué etiquetas"
		},
		{
			"timestamps": {
				"from": "00:04:41,820",
				"to": "00:04:43,600"
			},
			"offsets": {
				"from": 281820,
				"to": 283600
			},
			"text": " activar y desactivar cuando"
		},
		{
			"timestamps": {
				"from": "00:04:43,600",
				"to": "00:04:44,080"
			},
			"offsets": {
				"from": 283600,
				"to": 284080
			},
			"text": " compilan,"
		},
		{
			"timestamps": {
				"from": "00:04:44,080",
				"to": "00:04:45,770"
			},
			"offsets": {
				"from": 284080,
				"to": 285770
			},
			"text": " para eso están las distribuciones,"
		},
		{
			"timestamps": {
				"from": "00:04:45,770",
				"to": "00:04:46,830"
			},
			"offsets": {
				"from": 285770,
				"to": 286830
			},
			"text": " para hacer elecciones y"
		},
		{
			"timestamps": {
				"from": "00:04:46,830",
				"to": "00:04:48,680"
			},
			"offsets": {
				"from": 286830,
				"to": 288680
			},
			"text": " configurar las cosas a su gusto,"
		},
		{
			"timestamps": {
				"from": "00:04:48,680",
				"to": "00:04:49,930"
			},
			"offsets": {
				"from": 288680,
				"to": 289930
			},
			"text": " quitando Gentoo que ahí te lo"
		},
		{
			"timestamps": {
				"from": "00:04:49,930",
				"to": "00:04:51,950"
			},
			"offsets": {
				"from": 289930,
				"to": 291950
			},
			"text": " haces todo tú completamente."
		},
		{
			"timestamps": {
				"from": "00:04:51,950",
				"to": "00:04:53,800"
			},
			"offsets": {
				"from": 291950,
				"to": 293800
			},
			"text": " Entonces habrá distribuciones"
		},
		{
			"timestamps": {
				"from": "00:04:53,800",
				"to": "00:04:55,130"
			},
			"offsets": {
				"from": 293800,
				"to": 295130
			},
			"text": " que porque ellos lo consideran"
		},
		{
			"timestamps": {
				"from": "00:04:55,130",
				"to": "00:04:56,300"
			},
			"offsets": {
				"from": 295130,
				"to": 296300
			},
			"text": " que no está maduro o porque"
		},
		{
			"timestamps": {
				"from": "00:04:56,300",
				"to": "00:04:58,680"
			},
			"offsets": {
				"from": 296300,
				"to": 298680
			},
			"text": " les gusta, compilarán Plasma"
		},
		{
			"timestamps": {
				"from": "00:04:58,680",
				"to": "00:05:01,590"
			},
			"offsets": {
				"from": 298680,
				"to": 301590
			},
			"text": " con X11 y por defecto tú arrancarás"
		},
		{
			"timestamps": {
				"from": "00:05:01,590",
				"to": "00:05:03,950"
			},
			"offsets": {
				"from": 301590,
				"to": 303950
			},
			"text": " X11 y tendrás que activar Wayland"
		},
		{
			"timestamps": {
				"from": "00:05:03,950",
				"to": "00:05:04,920"
			},
			"offsets": {
				"from": 303950,
				"to": 304920
			},
			"text": " tú a mano,"
		},
		{
			"timestamps": {
				"from": "00:05:04,920",
				"to": "00:05:06,790"
			},
			"offsets": {
				"from": 304920,
				"to": 306790
			},
			"text": " que es lo que yo recomiendo,"
		},
		{
			"timestamps": {
				"from": "00:05:06,790",
				"to": "00:05:08,560"
			},
			"offsets": {
				"from": 306790,
				"to": 308560
			},
			"text": " porque está bastante maduro,"
		},
		{
			"timestamps": {
				"from": "00:05:08,560",
				"to": "00:05:10,080"
			},
			"offsets": {
				"from": 308560,
				"to": 310080
			},
			"text": " pruébalo y si hay algo en"
		},
		{
			"timestamps": {
				"from": "00:05:10,080",
				"to": "00:05:11,260"
			},
			"offsets": {
				"from": 310080,
				"to": 311260
			},
			"text": " concreto que no te va siempre"
		},
		{
			"timestamps": {
				"from": "00:05:11,260",
				"to": "00:05:12,570"
			},
			"offsets": {
				"from": 311260,
				"to": 312570
			},
			"text": " puede volver X11, pero hay"
		},
		{
			"timestamps": {
				"from": "00:05:12,570",
				"to": "00:05:13,950"
			},
			"offsets": {
				"from": 312570,
				"to": 313950
			},
			"text": " muchos artículos que te dicen"
		},
		{
			"timestamps": {
				"from": "00:05:13,950",
				"to": "00:05:15,120"
			},
			"offsets": {
				"from": 313950,
				"to": 315120
			},
			"text": " que Plasma"
		},
		{
			"timestamps": {
				"from": "00:05:15,120",
				"to": "00:05:17,000"
			},
			"offsets": {
				"from": 315120,
				"to": 317000
			},
			"text": " ha dejado obsoleto X11 y ya no"
		},
		{
			"timestamps": {
				"from": "00:05:17,000",
				"to": "00:05:18,670"
			},
			"offsets": {
				"from": 317000,
				"to": 318670
			},
			"text": " va a poder usarlo, si es verdad"
		},
		{
			"timestamps": {
				"from": "00:05:18,670",
				"to": "00:05:21,070"
			},
			"offsets": {
				"from": 318670,
				"to": 321070
			},
			"text": " que yo creo que como Fedora y"
		},
		{
			"timestamps": {
				"from": "00:05:21,070",
				"to": "00:05:21,560"
			},
			"offsets": {
				"from": 321070,
				"to": 321560
			},
			"text": " Gnome"
		},
		{
			"timestamps": {
				"from": "00:05:21,560",
				"to": "00:05:23,620"
			},
			"offsets": {
				"from": 321560,
				"to": 323620
			},
			"text": " están hablando de eso, están"
		},
		{
			"timestamps": {
				"from": "00:05:23,620",
				"to": "00:05:26,090"
			},
			"offsets": {
				"from": 323620,
				"to": 326090
			},
			"text": " proyectando a futuro cargarse X11"
		},
		{
			"timestamps": {
				"from": "00:05:26,090",
				"to": "00:05:27,400"
			},
			"offsets": {
				"from": 326090,
				"to": 327400
			},
			"text": " y hacerse solo Wayland,"
		},
		{
			"timestamps": {
				"from": "00:05:27,400",
				"to": "00:05:28,920"
			},
			"offsets": {
				"from": 327400,
				"to": 328920
			},
			"text": " pues yo no sé si alguno se ha"
		},
		{
			"timestamps": {
				"from": "00:05:28,920",
				"to": "00:05:30,580"
			},
			"offsets": {
				"from": 328920,
				"to": 330580
			},
			"text": " confundido y ha pensado que lo"
		},
		{
			"timestamps": {
				"from": "00:05:30,580",
				"to": "00:05:32,160"
			},
			"offsets": {
				"from": 330580,
				"to": 332160
			},
			"text": " de Plasma va a igual pero no,"
		},
		{
			"timestamps": {
				"from": "00:05:32,160",
				"to": "00:05:34,560"
			},
			"offsets": {
				"from": 332160,
				"to": 334560
			},
			"text": " Plasma va a seguir funcionando"
		},
		{
			"timestamps": {
				"from": "00:05:34,560",
				"to": "00:05:37,200"
			},
			"offsets": {
				"from": 334560,
				"to": 337200
			},
			"text": " con X11 durante mucho tiempo y"
		},
		{
			"timestamps": {
				"from": "00:05:37,200",
				"to": "00:05:39,400"
			},
			"offsets": {
				"from": 337200,
				"to": 339400
			},
			"text": " la 527 pues todo lo que dure la"
		},
		{
			"timestamps": {
				"from": "00:05:39,400",
				"to": "00:05:41,380"
			},
			"offsets": {
				"from": 339400,
				"to": 341380
			},
			"text": " 527 y la Plasma 6 como va a"
		},
		{
			"timestamps": {
				"from": "00:05:41,380",
				"to": "00:05:43,500"
			},
			"offsets": {
				"from": 341380,
				"to": 343500
			},
			"text": " tener soporte de X11 también"
		},
		{
			"timestamps": {
				"from": "00:05:43,500",
				"to": "00:05:45,220"
			},
			"offsets": {
				"from": 343500,
				"to": 345220
			},
			"text": " cuando salga, también va a"
		},
		{
			"timestamps": {
				"from": "00:05:45,220",
				"to": "00:05:45,520"
			},
			"offsets": {
				"from": 345220,
				"to": 345520
			},
			"text": " haber una"
		},
		{
			"timestamps": {
				"from": "00:05:45,520",
				"to": "00:05:47,720"
			},
			"offsets": {
				"from": 345520,
				"to": 347720
			},
			"text": " chorra de años con X11 en Plasma"
		},
		{
			"timestamps": {
				"from": "00:05:47,720",
				"to": "00:05:49,390"
			},
			"offsets": {
				"from": 347720,
				"to": 349390
			},
			"text": " 6, o sea que si os quedaba"
		},
		{
			"timestamps": {
				"from": "00:05:49,390",
				"to": "00:05:51,680"
			},
			"offsets": {
				"from": 349390,
				"to": 351680
			},
			"text": " alguna duda de qué pasa con Plasma"
		},
		{
			"timestamps": {
				"from": "00:05:51,680",
				"to": "00:05:51,720"
			},
			"offsets": {
				"from": 351680,
				"to": 351720
			},
			"text": " y"
		},
		{
			"timestamps": {
				"from": "00:05:51,720",
				"to": "00:05:53,360"
			},
			"offsets": {
				"from": 351720,
				"to": 353360
			},
			"text": " Wayland simplemente es el por"
		},
		{
			"timestamps": {
				"from": "00:05:53,360",
				"to": "00:05:55,230"
			},
			"offsets": {
				"from": 353360,
				"to": 355230
			},
			"text": " defecto en las compilaciones"
		},
		{
			"timestamps": {
				"from": "00:05:55,230",
				"to": "00:05:57,280"
			},
			"offsets": {
				"from": 355230,
				"to": 357280
			},
			"text": " por defecto, ¿eso qué es?"
		},
		{
			"timestamps": {
				"from": "00:05:57,280",
				"to": "00:05:57,760"
			},
			"offsets": {
				"from": 357280,
				"to": 357760
			},
			"text": " pues"
		},
		{
			"timestamps": {
				"from": "00:05:57,760",
				"to": "00:05:59,920"
			},
			"offsets": {
				"from": 357760,
				"to": 359920
			},
			"text": " KDE Neon por ejemplo, KDE Neon"
		},
		{
			"timestamps": {
				"from": "00:05:59,920",
				"to": "00:06:01,810"
			},
			"offsets": {
				"from": 359920,
				"to": 361810
			},
			"text": " si que compila como viene"
		},
		{
			"timestamps": {
				"from": "00:06:01,810",
				"to": "00:06:04,120"
			},
			"offsets": {
				"from": 361810,
				"to": 364120
			},
			"text": " configurado el código en los"
		},
		{
			"timestamps": {
				"from": "00:06:04,120",
				"to": "00:06:04,720"
			},
			"offsets": {
				"from": 364120,
				"to": 364720
			},
			"text": " repositorios,"
		},
		{
			"timestamps": {
				"from": "00:06:04,720",
				"to": "00:06:06,520"
			},
			"offsets": {
				"from": 364720,
				"to": 366520
			},
			"text": " pues KDE Neon si hace una"
		},
		{
			"timestamps": {
				"from": "00:06:06,520",
				"to": "00:06:08,950"
			},
			"offsets": {
				"from": 366520,
				"to": 368950
			},
			"text": " instalación nueva vendrá con"
		},
		{
			"timestamps": {
				"from": "00:06:08,950",
				"to": "00:06:11,240"
			},
			"offsets": {
				"from": 368950,
				"to": 371240
			},
			"text": " Plasma Wayland y lo dicho estará"
		},
		{
			"timestamps": {
				"from": "00:06:11,240",
				"to": "00:06:11,360"
			},
			"offsets": {
				"from": 371240,
				"to": 371360
			},
			"text": " en"
		},
		{
			"timestamps": {
				"from": "00:06:11,360",
				"to": "00:06:12,740"
			},
			"offsets": {
				"from": 371360,
				"to": 372740
			},
			"text": " la wiki cuáles son los dos o"
		},
		{
			"timestamps": {
				"from": "00:06:12,740",
				"to": "00:06:14,180"
			},
			"offsets": {
				"from": 372740,
				"to": 374180
			},
			"text": " tres paquetes que tienes que"
		},
		{
			"timestamps": {
				"from": "00:06:14,180",
				"to": "00:06:15,840"
			},
			"offsets": {
				"from": 374180,
				"to": 375840
			},
			"text": " instalar para tener el X11"
		},
		{
			"timestamps": {
				"from": "00:06:15,840",
				"to": "00:06:16,440"
			},
			"offsets": {
				"from": 375840,
				"to": 376440
			},
			"text": " disponible"
		},
		{
			"timestamps": {
				"from": "00:06:16,440",
				"to": "00:06:17,850"
			},
			"offsets": {
				"from": 376440,
				"to": 377850
			},
			"text": " si hay algo en concreto que no"
		},
		{
			"timestamps": {
				"from": "00:06:17,850",
				"to": "00:06:19,320"
			},
			"offsets": {
				"from": 377850,
				"to": 379320
			},
			"text": " te funcione. Y con estas dos"
		},
		{
			"timestamps": {
				"from": "00:06:19,320",
				"to": "00:06:20,840"
			},
			"offsets": {
				"from": 379320,
				"to": 380840
			},
			"text": " cosas terminamos por hoy la"
		},
		{
			"timestamps": {
				"from": "00:06:20,840",
				"to": "00:06:22,590"
			},
			"offsets": {
				"from": 380840,
				"to": 382590
			},
			"text": " versión coche, nos escuchamos"
		},
		{
			"timestamps": {
				"from": "00:06:22,590",
				"to": "00:06:23,640"
			},
			"offsets": {
				"from": 382590,
				"to": 383640
			},
			"text": " pronto, un saludo."
		},
		{
			"timestamps": {
				"from": "00:06:23,640",
				"to": "00:06:27,000"
			},
			"offsets": {
				"from": 383640,
				"to": 387000
			},
			"text": " [MÚSICA]"
		},
		{
			"timestamps": {
				"from": "00:06:27,000",
				"to": "00:06:33,000"
			},
			"offsets": {
				"from": 387000,
				"to": 393000
			},
			"text": " [Música de cierre]"
		}
	]
}
