{
	"systeminfo": "AVX = 1 | AVX2 = 1 | AVX512 = 0 | FMA = 1 | NEON = 0 | ARM_FMA = 0 | METAL = 0 | F16C = 1 | FP16_VA = 0 | WASM_SIMD = 0 | BLAS = 0 | SSE3 = 1 | SSSE3 = 1 | VSX = 0 | CUDA = 0 | COREML = 0 | OPENVINO = 0 | ",
	"model": {
		"type": "large",
		"multilingual": true,
		"vocab": 51865,
		"audio": {
			"ctx": 1500,
			"state": 1280,
			"head": 20,
			"layer": 32
		},
		"text": {
			"ctx": 448,
			"state": 1280,
			"head": 20,
			"layer": 32
		},
		"mels": 80,
		"ftype": 1
	},
	"params": {
		"model": "/usr/share/Whisper.cpp-model-large-v2/large-v2.bin",
		"language": "es",
		"translate": false
	},
	"result": {
		"language": "es"
	},
	"transcription": [
		{
			"timestamps": {
				"from": "00:00:00,000",
				"to": "00:00:02,000"
			},
			"offsets": {
				"from": 0,
				"to": 2000
			},
			"text": " Buenas! KDE Express está de vuelta"
		},
		{
			"timestamps": {
				"from": "00:00:02,000",
				"to": "00:00:06,400"
			},
			"offsets": {
				"from": 2000,
				"to": 6400
			},
			"text": " con el episodio 24 grabado el 16 de febrero"
		},
		{
			"timestamps": {
				"from": "00:00:06,400",
				"to": "00:00:07,320"
			},
			"offsets": {
				"from": 6400,
				"to": 7320
			},
			"text": " de 2024."
		},
		{
			"timestamps": {
				"from": "00:00:07,320",
				"to": "00:00:09,440"
			},
			"offsets": {
				"from": 7320,
				"to": 9440
			},
			"text": " Ha pasado un mes prácticamente desde"
		},
		{
			"timestamps": {
				"from": "00:00:09,440",
				"to": "00:00:11,680"
			},
			"offsets": {
				"from": 9440,
				"to": 11680
			},
			"text": " el último, pero entre tanto hemos"
		},
		{
			"timestamps": {
				"from": "00:00:11,680",
				"to": "00:00:13,480"
			},
			"offsets": {
				"from": 11680,
				"to": 13480
			},
			"text": " estado liados con varias"
		},
		{
			"timestamps": {
				"from": "00:00:13,480",
				"to": "00:00:16,590"
			},
			"offsets": {
				"from": 13480,
				"to": 16590
			},
			"text": " actividades como por ejemplo el 24H24L"
		},
		{
			"timestamps": {
				"from": "00:00:16,590",
				"to": "00:00:18,800"
			},
			"offsets": {
				"from": 16590,
				"to": 18800
			},
			"text": " que es un evento que este año se ha"
		},
		{
			"timestamps": {
				"from": "00:00:18,800",
				"to": "00:00:19,920"
			},
			"offsets": {
				"from": 18800,
				"to": 19920
			},
			"text": " reconvertido en"
		},
		{
			"timestamps": {
				"from": "00:00:19,920",
				"to": "00:00:22,600"
			},
			"offsets": {
				"from": 19920,
				"to": 22600
			},
			"text": " un podcast tradicional y en vez de"
		},
		{
			"timestamps": {
				"from": "00:00:22,600",
				"to": "00:00:25,990"
			},
			"offsets": {
				"from": 22600,
				"to": 25990
			},
			"text": " hacer 24 audios de golpe en un maratón"
		},
		{
			"timestamps": {
				"from": "00:00:25,990",
				"to": "00:00:27,120"
			},
			"offsets": {
				"from": 25990,
				"to": 27120
			},
			"text": " se están publicando"
		},
		{
			"timestamps": {
				"from": "00:00:27,120",
				"to": "00:00:29,540"
			},
			"offsets": {
				"from": 27120,
				"to": 29540
			},
			"text": " directamente al feed un episodio tras"
		},
		{
			"timestamps": {
				"from": "00:00:29,540",
				"to": "00:00:32,440"
			},
			"offsets": {
				"from": 29540,
				"to": 32440
			},
			"text": " otro conforme se van grabando y publicando."
		},
		{
			"timestamps": {
				"from": "00:00:32,440",
				"to": "00:00:32,880"
			},
			"offsets": {
				"from": 32440,
				"to": 32880
			},
			"text": " Ahora"
		},
		{
			"timestamps": {
				"from": "00:00:32,880",
				"to": "00:00:35,510"
			},
			"offsets": {
				"from": 32880,
				"to": 35510
			},
			"text": " mismo tenéis ya cuatro episodios"
		},
		{
			"timestamps": {
				"from": "00:00:35,510",
				"to": "00:00:38,490"
			},
			"offsets": {
				"from": 35510,
				"to": 38490
			},
			"text": " nuevos que serían GNU/Linux en LATAM"
		},
		{
			"timestamps": {
				"from": "00:00:38,490",
				"to": "00:00:40,720"
			},
			"offsets": {
				"from": 38490,
				"to": 40720
			},
			"text": " 2, Neovim vs EMAC,"
		},
		{
			"timestamps": {
				"from": "00:00:40,720",
				"to": "00:00:43,360"
			},
			"offsets": {
				"from": 40720,
				"to": 43360
			},
			"text": " Entornos de Escritorio Gnome y Plasma"
		},
		{
			"timestamps": {
				"from": "00:00:43,360",
				"to": "00:00:46,750"
			},
			"offsets": {
				"from": 43360,
				"to": 46750
			},
			"text": " y Redes Libres con Spectrum y Gabriel Biso."
		},
		{
			"timestamps": {
				"from": "00:00:46,750",
				"to": "00:00:47,040"
			},
			"offsets": {
				"from": 46750,
				"to": 47040
			},
			"text": " Por eso"
		},
		{
			"timestamps": {
				"from": "00:00:47,040",
				"to": "00:00:49,070"
			},
			"offsets": {
				"from": 47040,
				"to": 49070
			},
			"text": " hemos estado un poco atareados y no"
		},
		{
			"timestamps": {
				"from": "00:00:49,070",
				"to": "00:00:51,380"
			},
			"offsets": {
				"from": 49070,
				"to": 51380
			},
			"text": " hemos podido grabar episodio de KDE"
		},
		{
			"timestamps": {
				"from": "00:00:51,380",
				"to": "00:00:52,520"
			},
			"offsets": {
				"from": 51380,
				"to": 52520
			},
			"text": " Express así que os"
		},
		{
			"timestamps": {
				"from": "00:00:52,520",
				"to": "00:00:55,250"
			},
			"offsets": {
				"from": 52520,
				"to": 55250
			},
			"text": " recomiendo que cojáis ese feed y lo añadáis"
		},
		{
			"timestamps": {
				"from": "00:00:55,250",
				"to": "00:00:57,670"
			},
			"offsets": {
				"from": 55250,
				"to": 57670
			},
			"text": " a vuestra aplicación de referencia."
		},
		{
			"timestamps": {
				"from": "00:00:57,670",
				"to": "00:00:58,400"
			},
			"offsets": {
				"from": 57670,
				"to": 58400
			},
			"text": " También hemos"
		},
		{
			"timestamps": {
				"from": "00:00:58,400",
				"to": "00:01:00,470"
			},
			"offsets": {
				"from": 58400,
				"to": 60470
			},
			"text": " sacado episodios de accesibilidad con"
		},
		{
			"timestamps": {
				"from": "00:01:00,470",
				"to": "00:01:02,480"
			},
			"offsets": {
				"from": 60470,
				"to": 62480
			},
			"text": " tecnologías libres y también hay un"
		},
		{
			"timestamps": {
				"from": "00:01:02,480",
				"to": "00:01:04,520"
			},
			"offsets": {
				"from": 62480,
				"to": 64520
			},
			"text": " poco de KDE ahí. Pero"
		},
		{
			"timestamps": {
				"from": "00:01:04,520",
				"to": "00:01:06,640"
			},
			"offsets": {
				"from": 64520,
				"to": 66640
			},
			"text": " ya dejando las excusas de por qué"
		},
		{
			"timestamps": {
				"from": "00:01:06,640",
				"to": "00:01:09,360"
			},
			"offsets": {
				"from": 66640,
				"to": 69360
			},
			"text": " publicamos tan poco empiezo con el listado"
		},
		{
			"timestamps": {
				"from": "00:01:09,360",
				"to": "00:01:10,520"
			},
			"offsets": {
				"from": 69360,
				"to": 70520
			},
			"text": " de noticias que se han"
		},
		{
			"timestamps": {
				"from": "00:01:10,520",
				"to": "00:01:13,290"
			},
			"offsets": {
				"from": 70520,
				"to": 73290
			},
			"text": " ido acumulando y la primera es la que"
		},
		{
			"timestamps": {
				"from": "00:01:13,290",
				"to": "00:01:15,840"
			},
			"offsets": {
				"from": 73290,
				"to": 75840
			},
			"text": " va a dar título a este episodio que es"
		},
		{
			"timestamps": {
				"from": "00:01:15,840",
				"to": "00:01:17,040"
			},
			"offsets": {
				"from": 75840,
				"to": 77040
			},
			"text": " que se viene en"
		},
		{
			"timestamps": {
				"from": "00:01:17,040",
				"to": "00:01:19,920"
			},
			"offsets": {
				"from": 77040,
				"to": 79920
			},
			"text": " grandes eventos dentro de poco y es que"
		},
		{
			"timestamps": {
				"from": "00:01:19,920",
				"to": "00:01:22,700"
			},
			"offsets": {
				"from": 79920,
				"to": 82700
			},
			"text": " como todos sabréis pues Plasma 6 con"
		},
		{
			"timestamps": {
				"from": "00:01:22,700",
				"to": "00:01:24,360"
			},
			"offsets": {
				"from": 82700,
				"to": 84360
			},
			"text": " todos los frameworks y"
		},
		{
			"timestamps": {
				"from": "00:01:24,360",
				"to": "00:01:26,670"
			},
			"offsets": {
				"from": 84360,
				"to": 86670
			},
			"text": " todas las aplicaciones están a menos"
		},
		{
			"timestamps": {
				"from": "00:01:26,670",
				"to": "00:01:29,190"
			},
			"offsets": {
				"from": 86670,
				"to": 89190
			},
			"text": " de dos semanas para que salgan. Haremos"
		},
		{
			"timestamps": {
				"from": "00:01:29,190",
				"to": "00:01:30,440"
			},
			"offsets": {
				"from": 89190,
				"to": 90440
			},
			"text": " un especial una vez que"
		},
		{
			"timestamps": {
				"from": "00:01:30,440",
				"to": "00:01:32,630"
			},
			"offsets": {
				"from": 90440,
				"to": 92630
			},
			"text": " esté publicado de las novedades que"
		},
		{
			"timestamps": {
				"from": "00:01:32,630",
				"to": "00:01:34,840"
			},
			"offsets": {
				"from": 92630,
				"to": 94840
			},
			"text": " tiene porque como siempre digo estas"
		},
		{
			"timestamps": {
				"from": "00:01:34,840",
				"to": "00:01:36,320"
			},
			"offsets": {
				"from": 94840,
				"to": 96320
			},
			"text": " cosas están muy bien para"
		},
		{
			"timestamps": {
				"from": "00:01:36,320",
				"to": "00:01:38,750"
			},
			"offsets": {
				"from": 96320,
				"to": 98750
			},
			"text": " los prisas que queremos tenerlo todo"
		},
		{
			"timestamps": {
				"from": "00:01:38,750",
				"to": "00:01:40,430"
			},
			"offsets": {
				"from": 98750,
				"to": 100430
			},
			"text": " pronto pero hasta que llegue al gran"
		},
		{
			"timestamps": {
				"from": "00:01:40,430",
				"to": "00:01:42,000"
			},
			"offsets": {
				"from": 100430,
				"to": 102000
			},
			"text": " público pasarán meses"
		},
		{
			"timestamps": {
				"from": "00:01:42,000",
				"to": "00:01:44,410"
			},
			"offsets": {
				"from": 102000,
				"to": 104410
			},
			"text": " hasta que puedan ver Plasma. Lo que sí"
		},
		{
			"timestamps": {
				"from": "00:01:44,410",
				"to": "00:01:46,700"
			},
			"offsets": {
				"from": 104410,
				"to": 106700
			},
			"text": " que tenéis ya disponible y cosas para"
		},
		{
			"timestamps": {
				"from": "00:01:46,700",
				"to": "00:01:48,640"
			},
			"offsets": {
				"from": 106700,
				"to": 108640
			},
			"text": " inscribiros son los"
		},
		{
			"timestamps": {
				"from": "00:01:48,640",
				"to": "00:01:51,520"
			},
			"offsets": {
				"from": 108640,
				"to": 111520
			},
			"text": " eventos de esLibre que ya ha terminado"
		},
		{
			"timestamps": {
				"from": "00:01:51,520",
				"to": "00:01:54,330"
			},
			"offsets": {
				"from": 111520,
				"to": 114330
			},
			"text": " el primer Call for Papers con lo cual"
		},
		{
			"timestamps": {
				"from": "00:01:54,330",
				"to": "00:01:55,560"
			},
			"offsets": {
				"from": 114330,
				"to": 115560
			},
			"text": " ya sabéis un montón"
		},
		{
			"timestamps": {
				"from": "00:01:55,560",
				"to": "00:01:58,030"
			},
			"offsets": {
				"from": 115560,
				"to": 118030
			},
			"text": " de charlas que han sido aceptadas y"
		},
		{
			"timestamps": {
				"from": "00:01:58,030",
				"to": "00:02:00,600"
			},
			"offsets": {
				"from": 118030,
				"to": 120600
			},
			"text": " relacionado con KDE de las mesas o"
		},
		{
			"timestamps": {
				"from": "00:02:00,600",
				"to": "00:02:02,160"
			},
			"offsets": {
				"from": 120600,
				"to": 122160
			},
			"text": " DevRooms las salas que"
		},
		{
			"timestamps": {
				"from": "00:02:02,160",
				"to": "00:02:06,070"
			},
			"offsets": {
				"from": 122160,
				"to": 126070
			},
			"text": " van a ver es una de KDE, otra de Wikimedia"
		},
		{
			"timestamps": {
				"from": "00:02:06,070",
				"to": "00:02:09,440"
			},
			"offsets": {
				"from": 126070,
				"to": 129440
			},
			"text": " y otra de Universidades y Oficinal del"
		},
		{
			"timestamps": {
				"from": "00:02:09,440",
				"to": "00:02:10,400"
			},
			"offsets": {
				"from": 129440,
				"to": 130400
			},
			"text": " Software"
		},
		{
			"timestamps": {
				"from": "00:02:10,400",
				"to": "00:02:13,080"
			},
			"offsets": {
				"from": 130400,
				"to": 133080
			},
			"text": " Libre con lo cual podéis intuir que la"
		},
		{
			"timestamps": {
				"from": "00:02:13,080",
				"to": "00:02:15,250"
			},
			"offsets": {
				"from": 133080,
				"to": 135250
			},
			"text": " sala de KDE se va a dedicar a la"
		},
		{
			"timestamps": {
				"from": "00:02:15,250",
				"to": "00:02:17,800"
			},
			"offsets": {
				"from": 135250,
				"to": 137800
			},
			"text": " Akademy 2024 que como"
		},
		{
			"timestamps": {
				"from": "00:02:17,800",
				"to": "00:02:19,550"
			},
			"offsets": {
				"from": 137800,
				"to": 139550
			},
			"text": " quedamos muy satisfechos el año pasado"
		},
		{
			"timestamps": {
				"from": "00:02:19,550",
				"to": "00:02:21,260"
			},
			"offsets": {
				"from": 139550,
				"to": 141260
			},
			"text": " con OpenShouthCode hemos pensado este"
		},
		{
			"timestamps": {
				"from": "00:02:21,260",
				"to": "00:02:22,160"
			},
			"offsets": {
				"from": 141260,
				"to": 142160
			},
			"text": " año repetir la"
		},
		{
			"timestamps": {
				"from": "00:02:22,160",
				"to": "00:02:24,420"
			},
			"offsets": {
				"from": 142160,
				"to": 144420
			},
			"text": " experiencia dentro de un gran evento"
		},
		{
			"timestamps": {
				"from": "00:02:24,420",
				"to": "00:02:26,870"
			},
			"offsets": {
				"from": 144420,
				"to": 146870
			},
			"text": " esta vez con esLibre. Nosotros como ya"
		},
		{
			"timestamps": {
				"from": "00:02:26,870",
				"to": "00:02:27,920"
			},
			"offsets": {
				"from": 146870,
				"to": 147920
			},
			"text": " tenemos la sala"
		},
		{
			"timestamps": {
				"from": "00:02:27,920",
				"to": "00:02:30,530"
			},
			"offsets": {
				"from": 147920,
				"to": 150530
			},
			"text": " confirmada pues hemos abierto el Call"
		},
		{
			"timestamps": {
				"from": "00:02:30,530",
				"to": "00:02:33,260"
			},
			"offsets": {
				"from": 150530,
				"to": 153260
			},
			"text": " for Papers o la llamada a las charlas y"
		},
		{
			"timestamps": {
				"from": "00:02:33,260",
				"to": "00:02:34,360"
			},
			"offsets": {
				"from": 153260,
				"to": 154360
			},
			"text": " tenéis hasta el 1 de"
		},
		{
			"timestamps": {
				"from": "00:02:34,360",
				"to": "00:02:36,490"
			},
			"offsets": {
				"from": 154360,
				"to": 156490
			},
			"text": " abril para presentar vuestras propuestas."
		},
		{
			"timestamps": {
				"from": "00:02:36,490",
				"to": "00:02:38,210"
			},
			"offsets": {
				"from": 156490,
				"to": 158210
			},
			"text": " Mi consejo es que no lo dejéis para el"
		},
		{
			"timestamps": {
				"from": "00:02:38,210",
				"to": "00:02:39,560"
			},
			"offsets": {
				"from": 158210,
				"to": 159560
			},
			"text": " último día y que os"
		},
		{
			"timestamps": {
				"from": "00:02:39,560",
				"to": "00:02:41,460"
			},
			"offsets": {
				"from": 159560,
				"to": 161460
			},
			"text": " animéis no hace falta ser programador"
		},
		{
			"timestamps": {
				"from": "00:02:41,460",
				"to": "00:02:43,410"
			},
			"offsets": {
				"from": 161460,
				"to": 163410
			},
			"text": " desarrollador o estar involucrado en un"
		},
		{
			"timestamps": {
				"from": "00:02:43,410",
				"to": "00:02:45,200"
			},
			"offsets": {
				"from": 163410,
				"to": 165200
			},
			"text": " proyecto a cualquiera que"
		},
		{
			"timestamps": {
				"from": "00:02:45,200",
				"to": "00:02:47,720"
			},
			"offsets": {
				"from": 165200,
				"to": 167720
			},
			"text": " tenga experiencia con la comunidad o"
		},
		{
			"timestamps": {
				"from": "00:02:47,720",
				"to": "00:02:50,160"
			},
			"offsets": {
				"from": 167720,
				"to": 170160
			},
			"text": " alguna aplicación a nivel usuario"
		},
		{
			"timestamps": {
				"from": "00:02:50,160",
				"to": "00:02:51,400"
			},
			"offsets": {
				"from": 170160,
				"to": 171400
			},
			"text": " también puede dar"
		},
		{
			"timestamps": {
				"from": "00:02:51,400",
				"to": "00:02:53,840"
			},
			"offsets": {
				"from": 171400,
				"to": 173840
			},
			"text": " una charla también tendremos aparte de"
		},
		{
			"timestamps": {
				"from": "00:02:53,840",
				"to": "00:02:55,750"
			},
			"offsets": {
				"from": 173840,
				"to": 175750
			},
			"text": " lo que es esa sala una mesa que nos"
		},
		{
			"timestamps": {
				"from": "00:02:55,750",
				"to": "00:02:57,280"
			},
			"offsets": {
				"from": 175750,
				"to": 177280
			},
			"text": " funcionó muy bien el año"
		},
		{
			"timestamps": {
				"from": "00:02:57,280",
				"to": "00:03:00,000"
			},
			"offsets": {
				"from": 177280,
				"to": 180000
			},
			"text": " pasado pues mostrando cosas del entorno"
		},
		{
			"timestamps": {
				"from": "00:03:00,000",
				"to": "00:03:02,500"
			},
			"offsets": {
				"from": 180000,
				"to": 182500
			},
			"text": " KDE por ejemplo yo el año pasado me"
		},
		{
			"timestamps": {
				"from": "00:03:02,500",
				"to": "00:03:03,880"
			},
			"offsets": {
				"from": 182500,
				"to": 183880
			},
			"text": " llevé la Steam Deck"
		},
		{
			"timestamps": {
				"from": "00:03:03,880",
				"to": "00:03:06,250"
			},
			"offsets": {
				"from": 183880,
				"to": 186250
			},
			"text": " y la gente le gustó estar jugueteando"
		},
		{
			"timestamps": {
				"from": "00:03:06,250",
				"to": "00:03:08,560"
			},
			"offsets": {
				"from": 186250,
				"to": 188560
			},
			"text": " teníamos una tableta concreta para"
		},
		{
			"timestamps": {
				"from": "00:03:08,560",
				"to": "00:03:10,720"
			},
			"offsets": {
				"from": 188560,
				"to": 190720
			},
			"text": " dibujar siempre hay"
		},
		{
			"timestamps": {
				"from": "00:03:10,720",
				"to": "00:03:12,540"
			},
			"offsets": {
				"from": 190720,
				"to": 192540
			},
			"text": " unos Konqis de peluches que están muy"
		},
		{
			"timestamps": {
				"from": "00:03:12,540",
				"to": "00:03:14,700"
			},
			"offsets": {
				"from": 192540,
				"to": 194700
			},
			"text": " chulos para comprar camisetas merchandising"
		},
		{
			"timestamps": {
				"from": "00:03:14,700",
				"to": "00:03:15,560"
			},
			"offsets": {
				"from": 194700,
				"to": 195560
			},
			"text": " de todo si"
		},
		{
			"timestamps": {
				"from": "00:03:15,560",
				"to": "00:03:17,890"
			},
			"offsets": {
				"from": 195560,
				"to": 197890
			},
			"text": " si os pasáis por Valencia pasar por la"
		},
		{
			"timestamps": {
				"from": "00:03:17,890",
				"to": "00:03:20,240"
			},
			"offsets": {
				"from": 197890,
				"to": 200240
			},
			"text": " mesa que seguro que no te frauda"
		},
		{
			"timestamps": {
				"from": "00:03:20,240",
				"to": "00:03:21,240"
			},
			"offsets": {
				"from": 200240,
				"to": 201240
			},
			"text": " después del evento en"
		},
		{
			"timestamps": {
				"from": "00:03:21,240",
				"to": "00:03:23,930"
			},
			"offsets": {
				"from": 201240,
				"to": 203930
			},
			"text": " sí ya vienen las noticias típicas de"
		},
		{
			"timestamps": {
				"from": "00:03:23,930",
				"to": "00:03:26,420"
			},
			"offsets": {
				"from": 203930,
				"to": 206420
			},
			"text": " KDE que se suelen dar y una que no me"
		},
		{
			"timestamps": {
				"from": "00:03:26,420",
				"to": "00:03:27,960"
			},
			"offsets": {
				"from": 206420,
				"to": 207960
			},
			"text": " esperaba es que la"
		},
		{
			"timestamps": {
				"from": "00:03:27,960",
				"to": "00:03:31,270"
			},
			"offsets": {
				"from": 207960,
				"to": 211270
			},
			"text": " distribución caos la versión 2024 01"
		},
		{
			"timestamps": {
				"from": "00:03:31,270",
				"to": "00:03:33,620"
			},
			"offsets": {
				"from": 211270,
				"to": 213620
			},
			"text": " ya lleva Plasma han debido de probarlo"
		},
		{
			"timestamps": {
				"from": "00:03:33,620",
				"to": "00:03:34,880"
			},
			"offsets": {
				"from": 213620,
				"to": 214880
			},
			"text": " y ver que iba también"
		},
		{
			"timestamps": {
				"from": "00:03:34,880",
				"to": "00:03:37,680"
			},
			"offsets": {
				"from": 214880,
				"to": 217680
			},
			"text": " que ya lo han lanzado en su distribución"
		},
		{
			"timestamps": {
				"from": "00:03:37,680",
				"to": "00:03:40,240"
			},
			"offsets": {
				"from": 217680,
				"to": 220240
			},
			"text": " a ver yo no voy a engañar estoy seguro"
		},
		{
			"timestamps": {
				"from": "00:03:40,240",
				"to": "00:03:42,000"
			},
			"offsets": {
				"from": 220240,
				"to": 222000
			},
			"text": " que hay books que"
		},
		{
			"timestamps": {
				"from": "00:03:42,000",
				"to": "00:03:43,510"
			},
			"offsets": {
				"from": 222000,
				"to": 223510
			},
			"text": " se van a ir arreglando de aquí en"
		},
		{
			"timestamps": {
				"from": "00:03:43,510",
				"to": "00:03:45,220"
			},
			"offsets": {
				"from": 223510,
				"to": 225220
			},
			"text": " estas dos últimas semanas y habrá"
		},
		{
			"timestamps": {
				"from": "00:03:45,220",
				"to": "00:03:46,760"
			},
			"offsets": {
				"from": 225220,
				"to": 226760
			},
			"text": " algún punto que se arreglará en"
		},
		{
			"timestamps": {
				"from": "00:03:46,760",
				"to": "00:03:49,300"
			},
			"offsets": {
				"from": 226760,
				"to": 229300
			},
			"text": " la siguiente pero debe estar en uno en"
		},
		{
			"timestamps": {
				"from": "00:03:49,300",
				"to": "00:03:51,790"
			},
			"offsets": {
				"from": 229300,
				"to": 231790
			},
			"text": " un estado muy usable si hay gente que"
		},
		{
			"timestamps": {
				"from": "00:03:51,790",
				"to": "00:03:53,120"
			},
			"offsets": {
				"from": 231790,
				"to": 233120
			},
			"text": " ya ha visto que eso"
		},
		{
			"timestamps": {
				"from": "00:03:53,120",
				"to": "00:03:55,600"
			},
			"offsets": {
				"from": 233120,
				"to": 235600
			},
			"text": " se puede lanzar sin temor a que sea una"
		},
		{
			"timestamps": {
				"from": "00:03:55,600",
				"to": "00:03:58,150"
			},
			"offsets": {
				"from": 235600,
				"to": 238150
			},
			"text": " catástrofe la otra cara de la moneda"
		},
		{
			"timestamps": {
				"from": "00:03:58,150",
				"to": "00:04:00,240"
			},
			"offsets": {
				"from": 238150,
				"to": 240240
			},
			"text": " es que el Kubuntu 2404"
		},
		{
			"timestamps": {
				"from": "00:04:00,240",
				"to": "00:04:02,780"
			},
			"offsets": {
				"from": 240240,
				"to": 242780
			},
			"text": " no va a llevar Plasma 6 porque dicen"
		},
		{
			"timestamps": {
				"from": "00:04:02,780",
				"to": "00:04:05,040"
			},
			"offsets": {
				"from": 242780,
				"to": 245040
			},
			"text": " que no les da tiempo a hacer el testeo"
		},
		{
			"timestamps": {
				"from": "00:04:05,040",
				"to": "00:04:06,440"
			},
			"offsets": {
				"from": 245040,
				"to": 246440
			},
			"text": " suficiente y que se"
		},
		{
			"timestamps": {
				"from": "00:04:06,440",
				"to": "00:04:09,000"
			},
			"offsets": {
				"from": 246440,
				"to": 249000
			},
			"text": " quedan en 527 que está muy bien y que"
		},
		{
			"timestamps": {
				"from": "00:04:09,000",
				"to": "00:04:11,200"
			},
			"offsets": {
				"from": 249000,
				"to": 251200
			},
			"text": " es muy estable hay que tener en cuenta"
		},
		{
			"timestamps": {
				"from": "00:04:11,200",
				"to": "00:04:12,120"
			},
			"offsets": {
				"from": 251200,
				"to": 252120
			},
			"text": " que Kubuntu y"
		},
		{
			"timestamps": {
				"from": "00:04:12,120",
				"to": "00:04:14,680"
			},
			"offsets": {
				"from": 252120,
				"to": 254680
			},
			"text": " la familia de Ubuntu está últimamente"
		},
		{
			"timestamps": {
				"from": "00:04:14,680",
				"to": "00:04:17,240"
			},
			"offsets": {
				"from": 254680,
				"to": 257240
			},
			"text": " muy enfocada al entorno empresarial y"
		},
		{
			"timestamps": {
				"from": "00:04:17,240",
				"to": "00:04:18,480"
			},
			"offsets": {
				"from": 257240,
				"to": 258480
			},
			"text": " no se la cogen con papel"
		},
		{
			"timestamps": {
				"from": "00:04:18,480",
				"to": "00:04:20,890"
			},
			"offsets": {
				"from": 258480,
				"to": 260890
			},
			"text": " de fumar esos llevan mucho cuidado y"
		},
		{
			"timestamps": {
				"from": "00:04:20,890",
				"to": "00:04:23,520"
			},
			"offsets": {
				"from": 260890,
				"to": 263520
			},
			"text": " están enfocados aunque yo la verdad es"
		},
		{
			"timestamps": {
				"from": "00:04:23,520",
				"to": "00:04:24,360"
			},
			"offsets": {
				"from": 263520,
				"to": 264360
			},
			"text": " que la uso en"
		},
		{
			"timestamps": {
				"from": "00:04:24,360",
				"to": "00:04:26,630"
			},
			"offsets": {
				"from": 264360,
				"to": 266630
			},
			"text": " el trabajo y algún buque encuentro no"
		},
		{
			"timestamps": {
				"from": "00:04:26,630",
				"to": "00:04:28,760"
			},
			"offsets": {
				"from": 266630,
				"to": 268760
			},
			"text": " quieren líos y la parte del aspecto"
		},
		{
			"timestamps": {
				"from": "00:04:28,760",
				"to": "00:04:30,000"
			},
			"offsets": {
				"from": 268760,
				"to": 270000
			},
			"text": " visual o las nuevas"
		},
		{
			"timestamps": {
				"from": "00:04:30,000",
				"to": "00:04:33,200"
			},
			"offsets": {
				"from": 270000,
				"to": 273200
			},
			"text": " funcionalidades no le importan tanto"
		},
		{
			"timestamps": {
				"from": "00:04:33,200",
				"to": "00:04:35,780"
			},
			"offsets": {
				"from": 273200,
				"to": 275780
			},
			"text": " como asegurarse el qb y el tener un"
		},
		{
			"timestamps": {
				"from": "00:04:35,780",
				"to": "00:04:38,040"
			},
			"offsets": {
				"from": 275780,
				"to": 278040
			},
			"text": " buen periodo de testeo pero"
		},
		{
			"timestamps": {
				"from": "00:04:38,040",
				"to": "00:04:40,190"
			},
			"offsets": {
				"from": 278040,
				"to": 280190
			},
			"text": " bueno Kubuntu siempre ha sido muy famosa"
		},
		{
			"timestamps": {
				"from": "00:04:40,190",
				"to": "00:04:42,050"
			},
			"offsets": {
				"from": 280190,
				"to": 282050
			},
			"text": " porque tú puedes pasar Kubuntu a la"
		},
		{
			"timestamps": {
				"from": "00:04:42,050",
				"to": "00:04:43,240"
			},
			"offsets": {
				"from": 282050,
				"to": 283240
			},
			"text": " última versión de"
		},
		{
			"timestamps": {
				"from": "00:04:43,240",
				"to": "00:04:45,180"
			},
			"offsets": {
				"from": 283240,
				"to": 285180
			},
			"text": " Plasma con un ppa bastante sencillo la"
		},
		{
			"timestamps": {
				"from": "00:04:45,180",
				"to": "00:04:47,110"
			},
			"offsets": {
				"from": 285180,
				"to": 287110
			},
			"text": " última vez tenías que poner dos para"
		},
		{
			"timestamps": {
				"from": "00:04:47,110",
				"to": "00:04:48,280"
			},
			"offsets": {
				"from": 287110,
				"to": 288280
			},
			"text": " tener lo último de lo"
		},
		{
			"timestamps": {
				"from": "00:04:48,280",
				"to": "00:04:49,860"
			},
			"offsets": {
				"from": 288280,
				"to": 289860
			},
			"text": " último pero vamos es cuestión de"
		},
		{
			"timestamps": {
				"from": "00:04:49,860",
				"to": "00:04:51,710"
			},
			"offsets": {
				"from": 289860,
				"to": 291710
			},
			"text": " poner 2 pp aunque mi recomendación es"
		},
		{
			"timestamps": {
				"from": "00:04:51,710",
				"to": "00:04:53,320"
			},
			"offsets": {
				"from": 291710,
				"to": 293320
			},
			"text": " que se vaya a poner esos 2 pp"
		},
		{
			"timestamps": {
				"from": "00:04:53,320",
				"to": "00:04:55,950"
			},
			"offsets": {
				"from": 293320,
				"to": 295950
			},
			"text": " y puesto a instalar de cero ya pondría"
		},
		{
			"timestamps": {
				"from": "00:04:55,950",
				"to": "00:04:58,270"
			},
			"offsets": {
				"from": 295950,
				"to": 298270
			},
			"text": " cadena que viene a ser lo mismo y te"
		},
		{
			"timestamps": {
				"from": "00:04:58,270",
				"to": "00:05:00,440"
			},
			"offsets": {
				"from": 298270,
				"to": 300440
			},
			"text": " ahorra los líos de las"
		},
		{
			"timestamps": {
				"from": "00:05:00,440",
				"to": "00:05:02,530"
			},
			"offsets": {
				"from": 300440,
				"to": 302530
			},
			"text": " dependencias y las actualizaciones"
		},
		{
			"timestamps": {
				"from": "00:05:02,530",
				"to": "00:05:04,660"
			},
			"offsets": {
				"from": 302530,
				"to": 304660
			},
			"text": " también tenemos que como cadena un capará"
		},
		{
			"timestamps": {
				"from": "00:05:04,660",
				"to": "00:05:06,600"
			},
			"offsets": {
				"from": 304660,
				"to": 306600
			},
			"text": " pues ha salido cada"
		},
		{
			"timestamps": {
				"from": "00:05:06,600",
				"to": "00:05:10,160"
			},
			"offsets": {
				"from": 306600,
				"to": 310160
			},
			"text": " framework 5 115 que supongo que"
		},
		{
			"timestamps": {
				"from": "00:05:10,160",
				"to": "00:05:12,460"
			},
			"offsets": {
				"from": 310160,
				"to": 312460
			},
			"text": " todavía habrá uno más aunque sea de"
		},
		{
			"timestamps": {
				"from": "00:05:12,460",
				"to": "00:05:14,520"
			},
			"offsets": {
				"from": 312460,
				"to": 314520
			},
			"text": " mantenimiento la verdad"
		},
		{
			"timestamps": {
				"from": "00:05:14,520",
				"to": "00:05:16,080"
			},
			"offsets": {
				"from": 314520,
				"to": 316080
			},
			"text": " es que eso no me he mirado si van a"
		},
		{
			"timestamps": {
				"from": "00:05:16,080",
				"to": "00:05:17,730"
			},
			"offsets": {
				"from": 316080,
				"to": 317730
			},
			"text": " seguir con LTS los frameworks o a"
		},
		{
			"timestamps": {
				"from": "00:05:17,730",
				"to": "00:05:20,060"
			},
			"offsets": {
				"from": 317730,
				"to": 320060
			},
			"text": " partir de que salga el 6 ya"
		},
		{
			"timestamps": {
				"from": "00:05:20,060",
				"to": "00:05:22,330"
			},
			"offsets": {
				"from": 320060,
				"to": 322330
			},
			"text": " no habrá ninguno más en la vez en la"
		},
		{
			"timestamps": {
				"from": "00:05:22,330",
				"to": "00:05:24,870"
			},
			"offsets": {
				"from": 322330,
				"to": 324870
			},
			"text": " rama 5 me lo miraré en otro episodio o"
		},
		{
			"timestamps": {
				"from": "00:05:24,870",
				"to": "00:05:26,880"
			},
			"offsets": {
				"from": 324870,
				"to": 326880
			},
			"text": " lo confirmo la cosa es"
		},
		{
			"timestamps": {
				"from": "00:05:26,880",
				"to": "00:05:28,630"
			},
			"offsets": {
				"from": 326880,
				"to": 328630
			},
			"text": " que que siguen actualizando lo que es"
		},
		{
			"timestamps": {
				"from": "00:05:28,630",
				"to": "00:05:30,270"
			},
			"offsets": {
				"from": 328630,
				"to": 330270
			},
			"text": " la base de Plasma y siguen haciendo"
		},
		{
			"timestamps": {
				"from": "00:05:30,270",
				"to": "00:05:31,920"
			},
			"offsets": {
				"from": 330270,
				"to": 331920
			},
			"text": " mejoras y correcciones en"
		},
		{
			"timestamps": {
				"from": "00:05:31,920",
				"to": "00:05:33,680"
			},
			"offsets": {
				"from": 331920,
				"to": 333680
			},
			"text": " las notas del programa por supuesto tenéis"
		},
		{
			"timestamps": {
				"from": "00:05:33,680",
				"to": "00:05:35,250"
			},
			"offsets": {
				"from": 333680,
				"to": 335250
			},
			"text": " un par de noticias para ver exactamente"
		},
		{
			"timestamps": {
				"from": "00:05:35,250",
				"to": "00:05:36,040"
			},
			"offsets": {
				"from": 335250,
				"to": 336040
			},
			"text": " qué hacen si os"
		},
		{
			"timestamps": {
				"from": "00:05:36,040",
				"to": "00:05:37,940"
			},
			"offsets": {
				"from": 336040,
				"to": 337940
			},
			"text": " gusta meteros en los detalles pero la"
		},
		{
			"timestamps": {
				"from": "00:05:37,940",
				"to": "00:05:39,680"
			},
			"offsets": {
				"from": 337940,
				"to": 339680
			},
			"text": " noticia en sí es que no paramos que"
		},
		{
			"timestamps": {
				"from": "00:05:39,680",
				"to": "00:05:42,000"
			},
			"offsets": {
				"from": 339680,
				"to": 342000
			},
			"text": " aunque haya Plasma 6 dentro"
		},
		{
			"timestamps": {
				"from": "00:05:42,000",
				"to": "00:05:45,220"
			},
			"offsets": {
				"from": 342000,
				"to": 345220
			},
			"text": " de muy poquito seguimos sacando al ritmo"
		},
		{
			"timestamps": {
				"from": "00:05:45,220",
				"to": "00:05:48,630"
			},
			"offsets": {
				"from": 345220,
				"to": 348630
			},
			"text": " habitual de cosas el resto del ecosistema"
		},
		{
			"timestamps": {
				"from": "00:05:48,630",
				"to": "00:05:49,920"
			},
			"offsets": {
				"from": 348630,
				"to": 349920
			},
			"text": " y una cosa curiosa"
		},
		{
			"timestamps": {
				"from": "00:05:49,920",
				"to": "00:05:52,430"
			},
			"offsets": {
				"from": 349920,
				"to": 352430
			},
			"text": " que Nate Graham ha estado comentando"
		},
		{
			"timestamps": {
				"from": "00:05:52,430",
				"to": "00:05:55,440"
			},
			"offsets": {
				"from": 352430,
				"to": 355440
			},
			"text": " últimamente es el estado de las actividades"
		},
		{
			"timestamps": {
				"from": "00:05:55,440",
				"to": "00:05:56,640"
			},
			"offsets": {
				"from": 355440,
				"to": 356640
			},
			"text": " de Plasma es una"
		},
		{
			"timestamps": {
				"from": "00:05:56,640",
				"to": "00:05:58,730"
			},
			"offsets": {
				"from": 356640,
				"to": 358730
			},
			"text": " cosa con mucho potencial que hay varios"
		},
		{
			"timestamps": {
				"from": "00:05:58,730",
				"to": "00:06:00,740"
			},
			"offsets": {
				"from": 358730,
				"to": 360740
			},
			"text": " vídeos de YouTube diciéndote de las"
		},
		{
			"timestamps": {
				"from": "00:06:00,740",
				"to": "00:06:01,800"
			},
			"offsets": {
				"from": 360740,
				"to": 361800
			},
			"text": " maravillas con las que"
		},
		{
			"timestamps": {
				"from": "00:06:01,800",
				"to": "00:06:04,160"
			},
			"offsets": {
				"from": 361800,
				"to": 364160
			},
			"text": " podéis hacer pero que realmente se usa"
		},
		{
			"timestamps": {
				"from": "00:06:04,160",
				"to": "00:06:06,280"
			},
			"offsets": {
				"from": 364160,
				"to": 366280
			},
			"text": " bastante poco lo bueno es que cuando"
		},
		{
			"timestamps": {
				"from": "00:06:06,280",
				"to": "00:06:07,440"
			},
			"offsets": {
				"from": 366280,
				"to": 367440
			},
			"text": " anunciaron que lo"
		},
		{
			"timestamps": {
				"from": "00:06:07,440",
				"to": "00:06:09,640"
			},
			"offsets": {
				"from": 367440,
				"to": 369640
			},
			"text": " mismo se lo cargaban en Plasma 6 porque"
		},
		{
			"timestamps": {
				"from": "00:06:09,640",
				"to": "00:06:11,770"
			},
			"offsets": {
				"from": 369640,
				"to": 371770
			},
			"text": " no estaba del todo bien mantenido ha"
		},
		{
			"timestamps": {
				"from": "00:06:11,770",
				"to": "00:06:12,900"
			},
			"offsets": {
				"from": 371770,
				"to": 372900
			},
			"text": " salido bastante gente"
		},
		{
			"timestamps": {
				"from": "00:06:12,900",
				"to": "00:06:14,790"
			},
			"offsets": {
				"from": 372900,
				"to": 374790
			},
			"text": " diciendo que por favor no lo maten que"
		},
		{
			"timestamps": {
				"from": "00:06:14,790",
				"to": "00:06:17,100"
			},
			"offsets": {
				"from": 374790,
				"to": 377100
			},
			"text": " a ellos les da la vida y que hacen virguerías"
		},
		{
			"timestamps": {
				"from": "00:06:17,100",
				"to": "00:06:17,840"
			},
			"offsets": {
				"from": 377100,
				"to": 377840
			},
			"text": " y entonces han"
		},
		{
			"timestamps": {
				"from": "00:06:17,840",
				"to": "00:06:20,430"
			},
			"offsets": {
				"from": 377840,
				"to": 380430
			},
			"text": " decidido darle un mínimo de mantenimiento"
		},
		{
			"timestamps": {
				"from": "00:06:20,430",
				"to": "00:06:22,610"
			},
			"offsets": {
				"from": 380430,
				"to": 382610
			},
			"text": " y mantenerlo en Plasma 6 pero lo que"
		},
		{
			"timestamps": {
				"from": "00:06:22,610",
				"to": "00:06:23,480"
			},
			"offsets": {
				"from": 382610,
				"to": 383480
			},
			"text": " les gustaría"
		},
		{
			"timestamps": {
				"from": "00:06:23,480",
				"to": "00:06:26,110"
			},
			"offsets": {
				"from": 383480,
				"to": 386110
			},
			"text": " hacer es mejorarlo y cambiar la funcionalidad"
		},
		{
			"timestamps": {
				"from": "00:06:26,110",
				"to": "00:06:28,430"
			},
			"offsets": {
				"from": 386110,
				"to": 388430
			},
			"text": " y adaptarlo a los tiempos modernos pero"
		},
		{
			"timestamps": {
				"from": "00:06:28,430",
				"to": "00:06:28,840"
			},
			"offsets": {
				"from": 388430,
				"to": 388840
			},
			"text": " que para"
		},
		{
			"timestamps": {
				"from": "00:06:28,840",
				"to": "00:06:31,960"
			},
			"offsets": {
				"from": 388840,
				"to": 391960
			},
			"text": " eso necesitan desarrolladores que arrimen"
		},
		{
			"timestamps": {
				"from": "00:06:31,960",
				"to": "00:06:34,610"
			},
			"offsets": {
				"from": 391960,
				"to": 394610
			},
			"text": " el hombro y se dediquen en esa parte"
		},
		{
			"timestamps": {
				"from": "00:06:34,610",
				"to": "00:06:35,280"
			},
			"offsets": {
				"from": 394610,
				"to": 395280
			},
			"text": " que si en el futuro"
		},
		{
			"timestamps": {
				"from": "00:06:35,280",
				"to": "00:06:37,710"
			},
			"offsets": {
				"from": 395280,
				"to": 397710
			},
			"text": " siguen sin tener nadie que quiera encargarse"
		},
		{
			"timestamps": {
				"from": "00:06:37,710",
				"to": "00:06:39,770"
			},
			"offsets": {
				"from": 397710,
				"to": 399770
			},
			"text": " de ese aspecto en concreto volverán a"
		},
		{
			"timestamps": {
				"from": "00:06:39,770",
				"to": "00:06:40,280"
			},
			"offsets": {
				"from": 399770,
				"to": 400280
			},
			"text": " tener que"
		},
		{
			"timestamps": {
				"from": "00:06:40,280",
				"to": "00:06:42,240"
			},
			"offsets": {
				"from": 400280,
				"to": 402240
			},
			"text": " plantearse cargárselo pero que para"
		},
		{
			"timestamps": {
				"from": "00:06:42,240",
				"to": "00:06:44,500"
			},
			"offsets": {
				"from": 402240,
				"to": 404500
			},
			"text": " empezar con Plasma 6 seguiremos teniendo"
		},
		{
			"timestamps": {
				"from": "00:06:44,500",
				"to": "00:06:45,480"
			},
			"offsets": {
				"from": 404500,
				"to": 405480
			},
			"text": " las actividades"
		},
		{
			"timestamps": {
				"from": "00:06:45,480",
				"to": "00:06:48,150"
			},
			"offsets": {
				"from": 405480,
				"to": 408150
			},
			"text": " disponibles por si más gente se anima"
		},
		{
			"timestamps": {
				"from": "00:06:48,150",
				"to": "00:06:50,470"
			},
			"offsets": {
				"from": 408150,
				"to": 410470
			},
			"text": " a usarla y sobre todo a mantener el"
		},
		{
			"timestamps": {
				"from": "00:06:50,470",
				"to": "00:06:51,920"
			},
			"offsets": {
				"from": 410470,
				"to": 411920
			},
			"text": " código que se ve que"
		},
		{
			"timestamps": {
				"from": "00:06:51,920",
				"to": "00:06:54,490"
			},
			"offsets": {
				"from": 411920,
				"to": 414490
			},
			"text": " es una parte que no muchos desarrolladores"
		},
		{
			"timestamps": {
				"from": "00:06:54,490",
				"to": "00:06:57,240"
			},
			"offsets": {
				"from": 414490,
				"to": 417240
			},
			"text": " de KDE están interesados en ir actualizando"
		},
		{
			"timestamps": {
				"from": "00:06:57,240",
				"to": "00:06:57,960"
			},
			"offsets": {
				"from": 417240,
				"to": 417960
			},
			"text": " luego"
		},
		{
			"timestamps": {
				"from": "00:06:57,960",
				"to": "00:07:00,670"
			},
			"offsets": {
				"from": 417960,
				"to": 420670
			},
			"text": " también quiero haceros referencia a un"
		},
		{
			"timestamps": {
				"from": "00:07:00,670",
				"to": "00:07:02,910"
			},
			"offsets": {
				"from": 420670,
				"to": 422910
			},
			"text": " artículo que ha salido muy Linux que"
		},
		{
			"timestamps": {
				"from": "00:07:02,910",
				"to": "00:07:04,240"
			},
			"offsets": {
				"from": 422910,
				"to": 424240
			},
			"text": " se titula comparar"
		},
		{
			"timestamps": {
				"from": "00:07:04,240",
				"to": "00:07:07,160"
			},
			"offsets": {
				"from": 424240,
				"to": 427160
			},
			"text": " Gnome y Plasma no tiene sentido y os"
		},
		{
			"timestamps": {
				"from": "00:07:07,160",
				"to": "00:07:10,310"
			},
			"offsets": {
				"from": 427160,
				"to": 430310
			},
			"text": " habla sobre que antiguamente Gnome y"
		},
		{
			"timestamps": {
				"from": "00:07:10,310",
				"to": "00:07:11,920"
			},
			"offsets": {
				"from": 430310,
				"to": 431920
			},
			"text": " Plasma se parecían mucho"
		},
		{
			"timestamps": {
				"from": "00:07:11,920",
				"to": "00:07:14,560"
			},
			"offsets": {
				"from": 431920,
				"to": 434560
			},
			"text": " porque Gnome 2 tenía la barra arriba"
		},
		{
			"timestamps": {
				"from": "00:07:14,560",
				"to": "00:07:16,480"
			},
			"offsets": {
				"from": 434560,
				"to": 436480
			},
			"text": " y abajo pero que era un entorno"
		},
		{
			"timestamps": {
				"from": "00:07:16,480",
				"to": "00:07:18,160"
			},
			"offsets": {
				"from": 436480,
				"to": 438160
			},
			"text": " tradicional del botón"
		},
		{
			"timestamps": {
				"from": "00:07:18,160",
				"to": "00:07:20,610"
			},
			"offsets": {
				"from": 438160,
				"to": 440610
			},
			"text": " en una esquina arriba o abajo del botón"
		},
		{
			"timestamps": {
				"from": "00:07:20,610",
				"to": "00:07:22,760"
			},
			"offsets": {
				"from": 440610,
				"to": 442760
			},
			"text": " de inicio y que ambos se parecían"
		},
		{
			"timestamps": {
				"from": "00:07:22,760",
				"to": "00:07:24,160"
			},
			"offsets": {
				"from": 442760,
				"to": 444160
			},
			"text": " bastante al funcionamiento"
		},
		{
			"timestamps": {
				"from": "00:07:24,160",
				"to": "00:07:25,630"
			},
			"offsets": {
				"from": 444160,
				"to": 445630
			},
			"text": " con Windows que había alguna"
		},
		{
			"timestamps": {
				"from": "00:07:25,630",
				"to": "00:07:27,610"
			},
			"offsets": {
				"from": 445630,
				"to": 447610
			},
			"text": " diferencia de licencia entre uno y otro"
		},
		{
			"timestamps": {
				"from": "00:07:27,610",
				"to": "00:07:28,560"
			},
			"offsets": {
				"from": 447610,
				"to": 448560
			},
			"text": " pero luego eso también"
		},
		{
			"timestamps": {
				"from": "00:07:28,560",
				"to": "00:07:31,420"
			},
			"offsets": {
				"from": 448560,
				"to": 451420
			},
			"text": " se soluciona pero que a partir de Gnome"
		},
		{
			"timestamps": {
				"from": "00:07:31,420",
				"to": "00:07:34,380"
			},
			"offsets": {
				"from": 451420,
				"to": 454380
			},
			"text": " 3 pues ya la filosofía del escritorio"
		},
		{
			"timestamps": {
				"from": "00:07:34,380",
				"to": "00:07:36,040"
			},
			"offsets": {
				"from": 454380,
				"to": 456040
			},
			"text": " cambió mucho se va"
		},
		{
			"timestamps": {
				"from": "00:07:36,040",
				"to": "00:07:38,650"
			},
			"offsets": {
				"from": 456040,
				"to": 458650
			},
			"text": " pareciendo más a macops de Apple y"
		},
		{
			"timestamps": {
				"from": "00:07:38,650",
				"to": "00:07:41,350"
			},
			"offsets": {
				"from": 458650,
				"to": 461350
			},
			"text": " entonces pues ahora mismo es que son"
		},
		{
			"timestamps": {
				"from": "00:07:41,350",
				"to": "00:07:43,680"
			},
			"offsets": {
				"from": 461350,
				"to": 463680
			},
			"text": " dos entornos muy diferenciados"
		},
		{
			"timestamps": {
				"from": "00:07:43,680",
				"to": "00:07:46,860"
			},
			"offsets": {
				"from": 463680,
				"to": 466860
			},
			"text": " con dos filosofías completamente opuestas"
		},
		{
			"timestamps": {
				"from": "00:07:46,860",
				"to": "00:07:49,120"
			},
			"offsets": {
				"from": 466860,
				"to": 469120
			},
			"text": " aunque tu Plasma puedas adaptarlo y"
		},
		{
			"timestamps": {
				"from": "00:07:49,120",
				"to": "00:07:50,120"
			},
			"offsets": {
				"from": 469120,
				"to": 470120
			},
			"text": " hacer que se parezca"
		},
		{
			"timestamps": {
				"from": "00:07:50,120",
				"to": "00:07:53,080"
			},
			"offsets": {
				"from": 470120,
				"to": 473080
			},
			"text": " por completo a cualquier otro el diseño"
		},
		{
			"timestamps": {
				"from": "00:07:53,080",
				"to": "00:07:55,870"
			},
			"offsets": {
				"from": 473080,
				"to": 475870
			},
			"text": " en sí Gnome está hecho más para que"
		},
		{
			"timestamps": {
				"from": "00:07:55,870",
				"to": "00:07:57,480"
			},
			"offsets": {
				"from": 475870,
				"to": 477480
			},
			"text": " sea más táctil"
		},
		{
			"timestamps": {
				"from": "00:07:57,480",
				"to": "00:08:00,220"
			},
			"offsets": {
				"from": 477480,
				"to": 480220
			},
			"text": " más visual para quien le guste ese"
		},
		{
			"timestamps": {
				"from": "00:08:00,220",
				"to": "00:08:02,490"
			},
			"offsets": {
				"from": 480220,
				"to": 482490
			},
			"text": " estilo y Plasma sigue siendo"
		},
		{
			"timestamps": {
				"from": "00:08:02,490",
				"to": "00:08:04,920"
			},
			"offsets": {
				"from": 482490,
				"to": 484920
			},
			"text": " completamente configurable"
		},
		{
			"timestamps": {
				"from": "00:08:04,920",
				"to": "00:08:06,990"
			},
			"offsets": {
				"from": 484920,
				"to": 486990
			},
			"text": " y por defecto intenta que la curva de"
		},
		{
			"timestamps": {
				"from": "00:08:06,990",
				"to": "00:08:09,060"
			},
			"offsets": {
				"from": 486990,
				"to": 489060
			},
			"text": " aprendizaje para la gente que venga"
		},
		{
			"timestamps": {
				"from": "00:08:09,060",
				"to": "00:08:10,320"
			},
			"offsets": {
				"from": 489060,
				"to": 490320
			},
			"text": " nueva pues sea lo más"
		},
		{
			"timestamps": {
				"from": "00:08:10,320",
				"to": "00:08:12,980"
			},
			"offsets": {
				"from": 490320,
				"to": 492980
			},
			"text": " plana cuando la mayoría de gente viene"
		},
		{
			"timestamps": {
				"from": "00:08:12,980",
				"to": "00:08:15,760"
			},
			"offsets": {
				"from": 492980,
				"to": 495760
			},
			"text": " de Windows me ha gustado el artículo"
		},
		{
			"timestamps": {
				"from": "00:08:15,760",
				"to": "00:08:16,640"
			},
			"offsets": {
				"from": 495760,
				"to": 496640
			},
			"text": " aunque yo le habría"
		},
		{
			"timestamps": {
				"from": "00:08:16,640",
				"to": "00:08:18,480"
			},
			"offsets": {
				"from": 496640,
				"to": 498480
			},
			"text": " añadido que efectivamente no tiene"
		},
		{
			"timestamps": {
				"from": "00:08:18,480",
				"to": "00:08:20,420"
			},
			"offsets": {
				"from": 498480,
				"to": 500420
			},
			"text": " sentido seguir comparándolos son dos"
		},
		{
			"timestamps": {
				"from": "00:08:20,420",
				"to": "00:08:21,200"
			},
			"offsets": {
				"from": 500420,
				"to": 501200
			},
			"text": " productos muy"
		},
		{
			"timestamps": {
				"from": "00:08:21,200",
				"to": "00:08:23,710"
			},
			"offsets": {
				"from": 501200,
				"to": 503710
			},
			"text": " buenos cada uno que tira por un camino"
		},
		{
			"timestamps": {
				"from": "00:08:23,710",
				"to": "00:08:26,450"
			},
			"offsets": {
				"from": 503710,
				"to": 506450
			},
			"text": " aunque siempre se pueden hacer comparaciones"
		},
		{
			"timestamps": {
				"from": "00:08:26,450",
				"to": "00:08:27,000"
			},
			"offsets": {
				"from": 506450,
				"to": 507000
			},
			"text": " de esto"
		},
		{
			"timestamps": {
				"from": "00:08:27,000",
				"to": "00:08:28,570"
			},
			"offsets": {
				"from": 507000,
				"to": 508570
			},
			"text": " puede que para esto sea más productivo"
		},
		{
			"timestamps": {
				"from": "00:08:28,570",
				"to": "00:08:30,070"
			},
			"offsets": {
				"from": 508570,
				"to": 510070
			},
			"text": " para esto puede ser que uno tenga más"
		},
		{
			"timestamps": {
				"from": "00:08:30,070",
				"to": "00:08:31,520"
			},
			"offsets": {
				"from": 510070,
				"to": 511520
			},
			"text": " rendimiento que otro"
		},
		{
			"timestamps": {
				"from": "00:08:31,520",
				"to": "00:08:33,680"
			},
			"offsets": {
				"from": 511520,
				"to": 513680
			},
			"text": " puede ser que uno tenga más más"
		},
		{
			"timestamps": {
				"from": "00:08:33,680",
				"to": "00:08:36,260"
			},
			"offsets": {
				"from": 513680,
				"to": 516260
			},
			"text": " implementado la accesibilidad que otro"
		},
		{
			"timestamps": {
				"from": "00:08:36,260",
				"to": "00:08:38,040"
			},
			"offsets": {
				"from": 516260,
				"to": 518040
			},
			"text": " puede que uno implemente"
		},
		{
			"timestamps": {
				"from": "00:08:38,040",
				"to": "00:08:41,270"
			},
			"offsets": {
				"from": 518040,
				"to": 521270
			},
			"text": " antes que otro no se bailan la compatibilidad"
		},
		{
			"timestamps": {
				"from": "00:08:41,270",
				"to": "00:08:44,150"
			},
			"offsets": {
				"from": 521270,
				"to": 524150
			},
			"text": " con NVIDIA algunas cosas técnicas para"
		},
		{
			"timestamps": {
				"from": "00:08:44,150",
				"to": "00:08:45,320"
			},
			"offsets": {
				"from": 524150,
				"to": 525320
			},
			"text": " juegos yo creo"
		},
		{
			"timestamps": {
				"from": "00:08:45,320",
				"to": "00:08:47,770"
			},
			"offsets": {
				"from": 525320,
				"to": 527770
			},
			"text": " que ahí todavía está bien que siga viva"
		},
		{
			"timestamps": {
				"from": "00:08:47,770",
				"to": "00:08:50,080"
			},
			"offsets": {
				"from": 527770,
				"to": 530080
			},
			"text": " la comparación una comparación sana"
		},
		{
			"timestamps": {
				"from": "00:08:50,080",
				"to": "00:08:50,960"
			},
			"offsets": {
				"from": 530080,
				"to": 530960
			},
			"text": " sin pelea sin"
		},
		{
			"timestamps": {
				"from": "00:08:50,960",
				"to": "00:08:52,700"
			},
			"offsets": {
				"from": 530960,
				"to": 532700
			},
			"text": " decir que uno es una mierda y el otro"
		},
		{
			"timestamps": {
				"from": "00:08:52,700",
				"to": "00:08:54,750"
			},
			"offsets": {
				"from": 532700,
				"to": 534750
			},
			"text": " una maravilla ni viceversa simplemente"
		},
		{
			"timestamps": {
				"from": "00:08:54,750",
				"to": "00:08:56,400"
			},
			"offsets": {
				"from": 534750,
				"to": 536400
			},
			"text": " son dos proyectos de algo"
		},
		{
			"timestamps": {
				"from": "00:08:56,400",
				"to": "00:08:58,000"
			},
			"offsets": {
				"from": 536400,
				"to": 538000
			},
			"text": " parecido que un entorno de escritorio"
		},
		{
			"timestamps": {
				"from": "00:08:58,000",
				"to": "00:08:59,560"
			},
			"offsets": {
				"from": 538000,
				"to": 539560
			},
			"text": " con diferentes caminos y cada uno con"
		},
		{
			"timestamps": {
				"from": "00:08:59,560",
				"to": "00:09:00,720"
			},
			"offsets": {
				"from": 539560,
				"to": 540720
			},
			"text": " sus ventajas y sus"
		},
		{
			"timestamps": {
				"from": "00:09:00,720",
				"to": "00:09:03,310"
			},
			"offsets": {
				"from": 540720,
				"to": 543310
			},
			"text": " inconvenientes y luego hace poco ha"
		},
		{
			"timestamps": {
				"from": "00:09:03,310",
				"to": "00:09:06,080"
			},
			"offsets": {
				"from": 543310,
				"to": 546080
			},
			"text": " sido el día de san valentín aunque yo"
		},
		{
			"timestamps": {
				"from": "00:09:06,080",
				"to": "00:09:08,160"
			},
			"offsets": {
				"from": 546080,
				"to": 548160
			},
			"text": " personalmente no celebro"
		},
		{
			"timestamps": {
				"from": "00:09:08,160",
				"to": "00:09:10,120"
			},
			"offsets": {
				"from": 548160,
				"to": 550120
			},
			"text": " eso pero sí celebro el i love free"
		},
		{
			"timestamps": {
				"from": "00:09:10,120",
				"to": "00:09:12,540"
			},
			"offsets": {
				"from": 550120,
				"to": 552540
			},
			"text": " software de la Free Software Foundation"
		},
		{
			"timestamps": {
				"from": "00:09:12,540",
				"to": "00:09:13,800"
			},
			"offsets": {
				"from": 552540,
				"to": 553800
			},
			"text": " Europe y de hecho si"
		},
		{
			"timestamps": {
				"from": "00:09:13,800",
				"to": "00:09:16,890"
			},
			"offsets": {
				"from": 553800,
				"to": 556890
			},
			"text": " escucháis las charlas de 24 h 24 l en"
		},
		{
			"timestamps": {
				"from": "00:09:16,890",
				"to": "00:09:19,040"
			},
			"offsets": {
				"from": 556890,
				"to": 559040
			},
			"text": " las dos en las que estoy yo hacemos un"
		},
		{
			"timestamps": {
				"from": "00:09:19,040",
				"to": "00:09:20,880"
			},
			"offsets": {
				"from": 559040,
				"to": 560880
			},
			"text": " mención al proyecto y"
		},
		{
			"timestamps": {
				"from": "00:09:20,880",
				"to": "00:09:23,870"
			},
			"offsets": {
				"from": 560880,
				"to": 563870
			},
			"text": " felicitamos y agradecemos a una serie"
		},
		{
			"timestamps": {
				"from": "00:09:23,870",
				"to": "00:09:26,670"
			},
			"offsets": {
				"from": 563870,
				"to": 566670
			},
			"text": " de personas y proyectos por todo lo que"
		},
		{
			"timestamps": {
				"from": "00:09:26,670",
				"to": "00:09:28,240"
			},
			"offsets": {
				"from": 566670,
				"to": 568240
			},
			"text": " nos dan y yo quería"
		},
		{
			"timestamps": {
				"from": "00:09:28,240",
				"to": "00:09:29,930"
			},
			"offsets": {
				"from": 568240,
				"to": 569930
			},
			"text": " aprovechar este episodio aunque creo"
		},
		{
			"timestamps": {
				"from": "00:09:29,930",
				"to": "00:09:31,680"
			},
			"offsets": {
				"from": 569930,
				"to": 571680
			},
			"text": " que hice uno específico el año pasado"
		},
		{
			"timestamps": {
				"from": "00:09:31,680",
				"to": "00:09:32,880"
			},
			"offsets": {
				"from": 571680,
				"to": 572880
			},
			"text": " solo de felicitaciones"
		},
		{
			"timestamps": {
				"from": "00:09:32,880",
				"to": "00:09:35,830"
			},
			"offsets": {
				"from": 572880,
				"to": 575830
			},
			"text": " este lo voy a hacer más corto y quiero"
		},
		{
			"timestamps": {
				"from": "00:09:35,830",
				"to": "00:09:38,990"
			},
			"offsets": {
				"from": 575830,
				"to": 578990
			},
			"text": " agradecer mandar un abrazo muy grande a"
		},
		{
			"timestamps": {
				"from": "00:09:38,990",
				"to": "00:09:40,560"
			},
			"offsets": {
				"from": 578990,
				"to": 580560
			},
			"text": " Juan Febles que aunque"
		},
		{
			"timestamps": {
				"from": "00:09:40,560",
				"to": "00:09:43,000"
			},
			"offsets": {
				"from": 580560,
				"to": 583000
			},
			"text": " ya no siga publicando es un proyecto es"
		},
		{
			"timestamps": {
				"from": "00:09:43,000",
				"to": "00:09:45,620"
			},
			"offsets": {
				"from": 583000,
				"to": 585620
			},
			"text": " una persona que nos ha dado innumerables"
		},
		{
			"timestamps": {
				"from": "00:09:45,620",
				"to": "00:09:47,800"
			},
			"offsets": {
				"from": 585620,
				"to": 587800
			},
			"text": " horas y contenido de"
		},
		{
			"timestamps": {
				"from": "00:09:47,800",
				"to": "00:09:49,970"
			},
			"offsets": {
				"from": 587800,
				"to": 589970
			},
			"text": " calidad sobre software libre y sobre"
		},
		{
			"timestamps": {
				"from": "00:09:49,970",
				"to": "00:09:51,930"
			},
			"offsets": {
				"from": 589970,
				"to": 591930
			},
			"text": " todo un trato y una calidad humana"
		},
		{
			"timestamps": {
				"from": "00:09:51,930",
				"to": "00:09:53,440"
			},
			"offsets": {
				"from": 591930,
				"to": 593440
			},
			"text": " excelente entonces quería"
		},
		{
			"timestamps": {
				"from": "00:09:53,440",
				"to": "00:09:56,100"
			},
			"offsets": {
				"from": 593440,
				"to": 596100
			},
			"text": " acordarme de él antes de terminar este"
		},
		{
			"timestamps": {
				"from": "00:09:56,100",
				"to": "00:09:58,890"
			},
			"offsets": {
				"from": 596100,
				"to": 598890
			},
			"text": " episodio y espero que me esté escuchando"
		},
		{
			"timestamps": {
				"from": "00:09:58,890",
				"to": "00:10:00,160"
			},
			"offsets": {
				"from": 598890,
				"to": 600160
			},
			"text": " braille el compañero"
		},
		{
			"timestamps": {
				"from": "00:10:00,160",
				"to": "00:10:02,540"
			},
			"offsets": {
				"from": 600160,
				"to": 602540
			},
			"text": " porque tenemos planificado hacer una"
		},
		{
			"timestamps": {
				"from": "00:10:02,540",
				"to": "00:10:04,620"
			},
			"offsets": {
				"from": 602540,
				"to": 604620
			},
			"text": " especial k de express con algunos"
		},
		{
			"timestamps": {
				"from": "00:10:04,620",
				"to": "00:10:06,520"
			},
			"offsets": {
				"from": 604620,
				"to": 606520
			},
			"text": " compañeros que estuvieron"
		},
		{
			"timestamps": {
				"from": "00:10:06,520",
				"to": "00:10:09,040"
			},
			"offsets": {
				"from": 606520,
				"to": 609040
			},
			"text": " en la post en para que me puedan dar"
		},
		{
			"timestamps": {
				"from": "00:10:09,040",
				"to": "00:10:12,010"
			},
			"offsets": {
				"from": 609040,
				"to": 612010
			},
			"text": " envidia y nos cuenten la delegación de"
		},
		{
			"timestamps": {
				"from": "00:10:12,010",
				"to": "00:10:13,880"
			},
			"offsets": {
				"from": 612010,
				"to": 613880
			},
			"text": " KDE que experiencia tuvo"
		},
		{
			"timestamps": {
				"from": "00:10:13,880",
				"to": "00:10:17,150"
			},
			"offsets": {
				"from": 613880,
				"to": 617150
			},
			"text": " en ese otro gran evento que también es"
		},
		{
			"timestamps": {
				"from": "00:10:17,150",
				"to": "00:10:20,350"
			},
			"offsets": {
				"from": 617150,
				"to": 620350
			},
			"text": " en cierta manera musa espiritual de es"
		},
		{
			"timestamps": {
				"from": "00:10:20,350",
				"to": "00:10:21,600"
			},
			"offsets": {
				"from": 620350,
				"to": 621600
			},
			"text": " libre a nivel"
		},
		{
			"timestamps": {
				"from": "00:10:21,600",
				"to": "00:10:23,780"
			},
			"offsets": {
				"from": 621600,
				"to": 623780
			},
			"text": " internacional que pues yo creo es lo"
		},
		{
			"timestamps": {
				"from": "00:10:23,780",
				"to": "00:10:26,480"
			},
			"offsets": {
				"from": 623780,
				"to": 626480
			},
			"text": " más grande que hay en Europa de actividades"
		},
		{
			"timestamps": {
				"from": "00:10:26,480",
				"to": "00:10:27,320"
			},
			"offsets": {
				"from": 626480,
				"to": 627320
			},
			"text": " de software libre"
		},
		{
			"timestamps": {
				"from": "00:10:27,320",
				"to": "00:10:29,250"
			},
			"offsets": {
				"from": 627320,
				"to": 629250
			},
			"text": " y espero alguna vez poder ir pero"
		},
		{
			"timestamps": {
				"from": "00:10:29,250",
				"to": "00:10:31,370"
			},
			"offsets": {
				"from": 629250,
				"to": 631370
			},
			"text": " mientras tanto este año por lo menos"
		},
		{
			"timestamps": {
				"from": "00:10:31,370",
				"to": "00:10:32,920"
			},
			"offsets": {
				"from": 631370,
				"to": 632920
			},
			"text": " que tengo casi asegurada"
		},
		{
			"timestamps": {
				"from": "00:10:32,920",
				"to": "00:10:36,450"
			},
			"offsets": {
				"from": 632920,
				"to": 636450
			},
			"text": " la presenta la presencia al libre 2024"
		},
		{
			"timestamps": {
				"from": "00:10:36,450",
				"to": "00:10:39,720"
			},
			"offsets": {
				"from": 636450,
				"to": 639720
			},
			"text": " 24 25 mayo en Valencia y ahí pues ya"
		},
		{
			"timestamps": {
				"from": "00:10:39,720",
				"to": "00:10:42,480"
			},
			"offsets": {
				"from": 639720,
				"to": 642480
			},
			"text": " iré cogiendo por fin un"
		},
		{
			"timestamps": {
				"from": "00:10:42,480",
				"to": "00:10:44,380"
			},
			"offsets": {
				"from": 642480,
				"to": 644380
			},
			"text": " poco de experiencia en grandes eventos"
		},
		{
			"timestamps": {
				"from": "00:10:44,380",
				"to": "00:10:46,220"
			},
			"offsets": {
				"from": 644380,
				"to": 646220
			},
			"text": " del software libre dado que open south"
		},
		{
			"timestamps": {
				"from": "00:10:46,220",
				"to": "00:10:47,460"
			},
			"offsets": {
				"from": 646220,
				"to": 647460
			},
			"text": " coast y Akademy me"
		},
		{
			"timestamps": {
				"from": "00:10:47,460",
				"to": "00:10:49,780"
			},
			"offsets": {
				"from": 647460,
				"to": 649780
			},
			"text": " encantó el año pasado con esto me"
		},
		{
			"timestamps": {
				"from": "00:10:49,780",
				"to": "00:10:52,340"
			},
			"offsets": {
				"from": 649780,
				"to": 652340
			},
			"text": " despido de vosotros un placer volver a"
		},
		{
			"timestamps": {
				"from": "00:10:52,340",
				"to": "00:10:53,880"
			},
			"offsets": {
				"from": 652340,
				"to": 653880
			},
			"text": " hablaros y espero"
		},
		{
			"timestamps": {
				"from": "00:10:53,880",
				"to": "00:10:55,560"
			},
			"offsets": {
				"from": 653880,
				"to": 655560
			},
			"text": " que nos escuchemos pronto hasta luego"
		}
	]
}
