{
	"systeminfo": "AVX = 1 | AVX2 = 1 | AVX512 = 0 | FMA = 1 | NEON = 0 | ARM_FMA = 0 | METAL = 0 | F16C = 1 | FP16_VA = 0 | WASM_SIMD = 0 | BLAS = 1 | SSE3 = 1 | SSSE3 = 1 | VSX = 0 | CUDA = 0 | COREML = 0 | OPENVINO = 0 | ",
	"model": {
		"type": "large",
		"multilingual": true,
		"vocab": 51865,
		"audio": {
			"ctx": 1500,
			"state": 1280,
			"head": 20,
			"layer": 32
		},
		"text": {
			"ctx": 448,
			"state": 1280,
			"head": 20,
			"layer": 32
		},
		"mels": 80,
		"ftype": 1
	},
	"params": {
		"model": "/usr/share/Whisper.cpp-model-large-v2/large-v2.bin",
		"language": "es",
		"translate": false
	},
	"result": {
		"language": "es"
	},
	"transcription": [
		{
			"timestamps": {
				"from": "00:00:00,000",
				"to": "00:00:02,390"
			},
			"offsets": {
				"from": 0,
				"to": 2390
			},
			"text": " Buenas, soy David Marzal, estoy"
		},
		{
			"timestamps": {
				"from": "00:00:02,390",
				"to": "00:00:04,290"
			},
			"offsets": {
				"from": 2390,
				"to": 4290
			},
			"text": " grabando el 28 de marzo, y esto"
		},
		{
			"timestamps": {
				"from": "00:00:04,290",
				"to": "00:00:06,000"
			},
			"offsets": {
				"from": 4290,
				"to": 6000
			},
			"text": " es KDE Express 25."
		},
		{
			"timestamps": {
				"from": "00:00:06,000",
				"to": "00:00:07,470"
			},
			"offsets": {
				"from": 6000,
				"to": 7470
			},
			"text": " Hoy voy a hablaros sobre los"
		},
		{
			"timestamps": {
				"from": "00:00:07,470",
				"to": "00:00:09,440"
			},
			"offsets": {
				"from": 7470,
				"to": 9440
			},
			"text": " eventos que tenemos por delante,"
		},
		{
			"timestamps": {
				"from": "00:00:09,440",
				"to": "00:00:11,240"
			},
			"offsets": {
				"from": 9440,
				"to": 11240
			},
			"text": " algo sobre Plasma 6,"
		},
		{
			"timestamps": {
				"from": "00:00:11,240",
				"to": "00:00:12,300"
			},
			"offsets": {
				"from": 11240,
				"to": 12300
			},
			"text": " y ponernos al día de un"
		},
		{
			"timestamps": {
				"from": "00:00:12,300",
				"to": "00:00:13,650"
			},
			"offsets": {
				"from": 12300,
				"to": 13650
			},
			"text": " montón de noticias que se me"
		},
		{
			"timestamps": {
				"from": "00:00:13,650",
				"to": "00:00:15,240"
			},
			"offsets": {
				"from": 13650,
				"to": 15240
			},
			"text": " han ido acumulando este mes."
		},
		{
			"timestamps": {
				"from": "00:00:15,240",
				"to": "00:00:16,940"
			},
			"offsets": {
				"from": 15240,
				"to": 16940
			},
			"text": " Akademy-es está a la vuelta de"
		},
		{
			"timestamps": {
				"from": "00:00:16,940",
				"to": "00:00:18,770"
			},
			"offsets": {
				"from": 16940,
				"to": 18770
			},
			"text": " la esquina, cuando escuchéis"
		},
		{
			"timestamps": {
				"from": "00:00:18,770",
				"to": "00:00:20,600"
			},
			"offsets": {
				"from": 18770,
				"to": 20600
			},
			"text": " esto se habrá acabado el plazo"
		},
		{
			"timestamps": {
				"from": "00:00:20,600",
				"to": "00:00:21,920"
			},
			"offsets": {
				"from": 20600,
				"to": 21920
			},
			"text": " para enviar propuestas,"
		},
		{
			"timestamps": {
				"from": "00:00:21,920",
				"to": "00:00:23,680"
			},
			"offsets": {
				"from": 21920,
				"to": 23680
			},
			"text": " pero todavía está abierto el"
		},
		{
			"timestamps": {
				"from": "00:00:23,680",
				"to": "00:00:25,600"
			},
			"offsets": {
				"from": 23680,
				"to": 25600
			},
			"text": " plazo para ser patrocinador."
		},
		{
			"timestamps": {
				"from": "00:00:25,600",
				"to": "00:00:27,250"
			},
			"offsets": {
				"from": 25600,
				"to": 27250
			},
			"text": " En esLibre, que es donde se va a"
		},
		{
			"timestamps": {
				"from": "00:00:27,250",
				"to": "00:00:29,060"
			},
			"offsets": {
				"from": 27250,
				"to": 29060
			},
			"text": " realizar Akademy, ahora mismo"
		},
		{
			"timestamps": {
				"from": "00:00:29,060",
				"to": "00:00:31,400"
			},
			"offsets": {
				"from": 29060,
				"to": 31400
			},
			"text": " hay un montón de charlas aprobadas."
		},
		{
			"timestamps": {
				"from": "00:00:31,400",
				"to": "00:00:33,610"
			},
			"offsets": {
				"from": 31400,
				"to": 33610
			},
			"text": " Todavía se puede enviar alguna"
		},
		{
			"timestamps": {
				"from": "00:00:33,610",
				"to": "00:00:35,360"
			},
			"offsets": {
				"from": 33610,
				"to": 35360
			},
			"text": " ponencia, pero la verdad es que"
		},
		{
			"timestamps": {
				"from": "00:00:35,360",
				"to": "00:00:36,720"
			},
			"offsets": {
				"from": 35360,
				"to": 36720
			},
			"text": " hay un montón, un montón,"
		},
		{
			"timestamps": {
				"from": "00:00:36,720",
				"to": "00:00:38,370"
			},
			"offsets": {
				"from": 36720,
				"to": 38370
			},
			"text": " y si no os dais prisa, yo no"
		},
		{
			"timestamps": {
				"from": "00:00:38,370",
				"to": "00:00:40,360"
			},
			"offsets": {
				"from": 38370,
				"to": 40360
			},
			"text": " sé si va a ser posible porque"
		},
		{
			"timestamps": {
				"from": "00:00:40,360",
				"to": "00:00:42,350"
			},
			"offsets": {
				"from": 40360,
				"to": 42350
			},
			"text": " en las naves de Valencia no sé"
		},
		{
			"timestamps": {
				"from": "00:00:42,350",
				"to": "00:00:44,360"
			},
			"offsets": {
				"from": 42350,
				"to": 44360
			},
			"text": " si van a caber tantos ponentes."
		},
		{
			"timestamps": {
				"from": "00:00:44,360",
				"to": "00:00:45,720"
			},
			"offsets": {
				"from": 44360,
				"to": 45720
			},
			"text": " Lo cual es muy buena señal,"
		},
		{
			"timestamps": {
				"from": "00:00:45,720",
				"to": "00:00:47,360"
			},
			"offsets": {
				"from": 45720,
				"to": 47360
			},
			"text": " significa que hay buena salud"
		},
		{
			"timestamps": {
				"from": "00:00:47,360",
				"to": "00:00:49,040"
			},
			"offsets": {
				"from": 47360,
				"to": 49040
			},
			"text": " en el mundo organizativo de"
		},
		{
			"timestamps": {
				"from": "00:00:49,040",
				"to": "00:00:51,350"
			},
			"offsets": {
				"from": 49040,
				"to": 51350
			},
			"text": " eventos de GNU/Linux y Software"
		},
		{
			"timestamps": {
				"from": "00:00:51,350",
				"to": "00:00:52,800"
			},
			"offsets": {
				"from": 51350,
				"to": 52800
			},
			"text": " Libre, y cultura en general."
		},
		{
			"timestamps": {
				"from": "00:00:52,800",
				"to": "00:00:54,580"
			},
			"offsets": {
				"from": 52800,
				"to": 54580
			},
			"text": " Os voy a poner en las notas del"
		},
		{
			"timestamps": {
				"from": "00:00:54,580",
				"to": "00:00:56,410"
			},
			"offsets": {
				"from": 54580,
				"to": 56410
			},
			"text": " programa un enlace a Mancomún"
		},
		{
			"timestamps": {
				"from": "00:00:56,410",
				"to": "00:00:57,040"
			},
			"offsets": {
				"from": 56410,
				"to": 57040
			},
			"text": " Podcast,"
		},
		{
			"timestamps": {
				"from": "00:00:57,040",
				"to": "00:00:58,930"
			},
			"offsets": {
				"from": 57040,
				"to": 58930
			},
			"text": " donde hemos grabado un episodio"
		},
		{
			"timestamps": {
				"from": "00:00:58,930",
				"to": "00:01:00,910"
			},
			"offsets": {
				"from": 58930,
				"to": 60910
			},
			"text": " especial hablando del evento, y"
		},
		{
			"timestamps": {
				"from": "00:01:00,910",
				"to": "00:01:02,340"
			},
			"offsets": {
				"from": 60910,
				"to": 62340
			},
			"text": " así no tengo que repetirlo y"
		},
		{
			"timestamps": {
				"from": "00:01:02,340",
				"to": "00:01:03,680"
			},
			"offsets": {
				"from": 62340,
				"to": 63680
			},
			"text": " enrollarme por aquí."
		},
		{
			"timestamps": {
				"from": "00:01:03,680",
				"to": "00:01:05,330"
			},
			"offsets": {
				"from": 63680,
				"to": 65330
			},
			"text": " También quiero poneros al día,"
		},
		{
			"timestamps": {
				"from": "00:01:05,330",
				"to": "00:01:06,350"
			},
			"offsets": {
				"from": 65330,
				"to": 66350
			},
			"text": " porque como hace bastante que"
		},
		{
			"timestamps": {
				"from": "00:01:06,350",
				"to": "00:01:07,640"
			},
			"offsets": {
				"from": 66350,
				"to": 67640
			},
			"text": " no grabo porque me han estado"
		},
		{
			"timestamps": {
				"from": "00:01:07,640",
				"to": "00:01:09,720"
			},
			"offsets": {
				"from": 67640,
				"to": 69720
			},
			"text": " liando en otros programas,"
		},
		{
			"timestamps": {
				"from": "00:01:09,720",
				"to": "00:01:14,160"
			},
			"offsets": {
				"from": 69720,
				"to": 74160
			},
			"text": " que estamos con KDE Gears 24.02.1,"
		},
		{
			"timestamps": {
				"from": "00:01:14,160",
				"to": "00:01:15,870"
			},
			"offsets": {
				"from": 74160,
				"to": 75870
			},
			"text": " que si ya todo el mundo sabréis"
		},
		{
			"timestamps": {
				"from": "00:01:15,870",
				"to": "00:01:17,650"
			},
			"offsets": {
				"from": 75870,
				"to": 77650
			},
			"text": " que salió Plasma 6 con todo el"
		},
		{
			"timestamps": {
				"from": "00:01:17,650",
				"to": "00:01:19,010"
			},
			"offsets": {
				"from": 77650,
				"to": 79010
			},
			"text": " mega lanzamiento de los"
		},
		{
			"timestamps": {
				"from": "00:01:19,010",
				"to": "00:01:21,090"
			},
			"offsets": {
				"from": 79010,
				"to": 81090
			},
			"text": " frameworks y los Gears portados"
		},
		{
			"timestamps": {
				"from": "00:01:21,090",
				"to": "00:01:21,720"
			},
			"offsets": {
				"from": 81090,
				"to": 81720
			},
			"text": " a Qt 6,"
		},
		{
			"timestamps": {
				"from": "00:01:21,720",
				"to": "00:01:22,910"
			},
			"offsets": {
				"from": 81720,
				"to": 82910
			},
			"text": " y ya empezamos a tener las"
		},
		{
			"timestamps": {
				"from": "00:01:22,910",
				"to": "00:01:24,410"
			},
			"offsets": {
				"from": 82910,
				"to": 84410
			},
			"text": " versiones de arreglo, que es"
		},
		{
			"timestamps": {
				"from": "00:01:24,410",
				"to": "00:01:25,860"
			},
			"offsets": {
				"from": 84410,
				"to": 85860
			},
			"text": " donde podéis estar más seguros"
		},
		{
			"timestamps": {
				"from": "00:01:25,860",
				"to": "00:01:27,110"
			},
			"offsets": {
				"from": 85860,
				"to": 87110
			},
			"text": " de que el software es todavía"
		},
		{
			"timestamps": {
				"from": "00:01:27,110",
				"to": "00:01:27,920"
			},
			"offsets": {
				"from": 87110,
				"to": 87920
			},
			"text": " más estable."
		},
		{
			"timestamps": {
				"from": "00:01:27,920",
				"to": "00:01:31,740"
			},
			"offsets": {
				"from": 87920,
				"to": 91740
			},
			"text": " En la 24.02.1 por ejemplo, Dolphin"
		},
		{
			"timestamps": {
				"from": "00:01:31,740",
				"to": "00:01:33,250"
			},
			"offsets": {
				"from": 91740,
				"to": 93250
			},
			"text": " recupera el cambio de color en"
		},
		{
			"timestamps": {
				"from": "00:01:33,250",
				"to": "00:01:34,800"
			},
			"offsets": {
				"from": 93250,
				"to": 94800
			},
			"text": " su icono, según el escritorio,"
		},
		{
			"timestamps": {
				"from": "00:01:34,800",
				"to": "00:01:36,520"
			},
			"offsets": {
				"from": 94800,
				"to": 96520
			},
			"text": " esto que tiene KDE, de que si"
		},
		{
			"timestamps": {
				"from": "00:01:36,520",
				"to": "00:01:38,600"
			},
			"offsets": {
				"from": 96520,
				"to": 98600
			},
			"text": " configuras que tú quieres que"
		},
		{
			"timestamps": {
				"from": "00:01:38,600",
				"to": "00:01:41,060"
			},
			"offsets": {
				"from": 98600,
				"to": 101060
			},
			"text": " los colores, el tema del color,"
		},
		{
			"timestamps": {
				"from": "00:01:41,060",
				"to": "00:01:43,100"
			},
			"offsets": {
				"from": 101060,
				"to": 103100
			},
			"text": " se ajuste al fondo de pantalla"
		},
		{
			"timestamps": {
				"from": "00:01:43,100",
				"to": "00:01:43,840"
			},
			"offsets": {
				"from": 103100,
				"to": 103840
			},
			"text": " que tienes,"
		},
		{
			"timestamps": {
				"from": "00:01:43,840",
				"to": "00:01:45,720"
			},
			"offsets": {
				"from": 103840,
				"to": 105720
			},
			"text": " pues te va cambiando los colorinchis"
		},
		{
			"timestamps": {
				"from": "00:01:45,720",
				"to": "00:01:47,100"
			},
			"offsets": {
				"from": 105720,
				"to": 107100
			},
			"text": " que hay en la barra de tarea o"
		},
		{
			"timestamps": {
				"from": "00:01:47,100",
				"to": "00:01:48,520"
			},
			"offsets": {
				"from": 107100,
				"to": 108520
			},
			"text": " en las barras de menú."
		},
		{
			"timestamps": {
				"from": "00:01:48,520",
				"to": "00:01:49,740"
			},
			"offsets": {
				"from": 108520,
				"to": 109740
			},
			"text": " A mí la verdad es que me gusta"
		},
		{
			"timestamps": {
				"from": "00:01:49,740",
				"to": "00:01:51,160"
			},
			"offsets": {
				"from": 109740,
				"to": 111160
			},
			"text": " mucho. Eso parece ser que dejó"
		},
		{
			"timestamps": {
				"from": "00:01:51,160",
				"to": "00:01:52,510"
			},
			"offsets": {
				"from": 111160,
				"to": 112510
			},
			"text": " de funcionar y ya rápidamente"
		},
		{
			"timestamps": {
				"from": "00:01:52,510",
				"to": "00:01:53,440"
			},
			"offsets": {
				"from": 112510,
				"to": 113440
			},
			"text": " lo han arreglado."
		},
		{
			"timestamps": {
				"from": "00:01:53,440",
				"to": "00:01:54,640"
			},
			"offsets": {
				"from": 113440,
				"to": 114640
			},
			"text": " Por supuesto hay muchísimas"
		},
		{
			"timestamps": {
				"from": "00:01:54,640",
				"to": "00:01:56,440"
			},
			"offsets": {
				"from": 114640,
				"to": 116440
			},
			"text": " más arreglas, pero yo dejo en"
		},
		{
			"timestamps": {
				"from": "00:01:56,440",
				"to": "00:01:59,000"
			},
			"offsets": {
				"from": 116440,
				"to": 119000
			},
			"text": " las notas del programa el enlace."
		},
		{
			"timestamps": {
				"from": "00:01:59,000",
				"to": "00:01:59,870"
			},
			"offsets": {
				"from": 119000,
				"to": 119870
			},
			"text": " Yo la verdad es que no he"
		},
		{
			"timestamps": {
				"from": "00:01:59,870",
				"to": "00:02:01,000"
			},
			"offsets": {
				"from": 119870,
				"to": 121000
			},
			"text": " encontrado prácticamente"
		},
		{
			"timestamps": {
				"from": "00:02:01,000",
				"to": "00:02:02,500"
			},
			"offsets": {
				"from": 121000,
				"to": 122500
			},
			"text": " ningún bug, pero según por lo"
		},
		{
			"timestamps": {
				"from": "00:02:02,500",
				"to": "00:02:03,920"
			},
			"offsets": {
				"from": 122500,
				"to": 123920
			},
			"text": " que han escrito, ha habido unos"
		},
		{
			"timestamps": {
				"from": "00:02:03,920",
				"to": "00:02:04,400"
			},
			"offsets": {
				"from": 123920,
				"to": 124400
			},
			"text": " cuantos."
		},
		{
			"timestamps": {
				"from": "00:02:04,400",
				"to": "00:02:06,430"
			},
			"offsets": {
				"from": 124400,
				"to": 126430
			},
			"text": " Y hablando de bugs, pues KDE Plasma"
		},
		{
			"timestamps": {
				"from": "00:02:06,430",
				"to": "00:02:08,600"
			},
			"offsets": {
				"from": 126430,
				"to": 128600
			},
			"text": " después del lanzamiento grandioso"
		},
		{
			"timestamps": {
				"from": "00:02:08,600",
				"to": "00:02:09,320"
			},
			"offsets": {
				"from": 128600,
				"to": 129320
			},
			"text": " que tuvimos,"
		},
		{
			"timestamps": {
				"from": "00:02:09,320",
				"to": "00:02:11,130"
			},
			"offsets": {
				"from": 129320,
				"to": 131130
			},
			"text": " que fue bastante bien, quitando"
		},
		{
			"timestamps": {
				"from": "00:02:11,130",
				"to": "00:02:12,740"
			},
			"offsets": {
				"from": 131130,
				"to": 132740
			},
			"text": " algún errorcillo en KDE Neon"
		},
		{
			"timestamps": {
				"from": "00:02:12,740",
				"to": "00:02:14,280"
			},
			"offsets": {
				"from": 132740,
				"to": 134280
			},
			"text": " que se solucionó pronto,"
		},
		{
			"timestamps": {
				"from": "00:02:14,280",
				"to": "00:02:16,730"
			},
			"offsets": {
				"from": 134280,
				"to": 136730
			},
			"text": " está ya por la 6.0.3, que eso"
		},
		{
			"timestamps": {
				"from": "00:02:16,730",
				"to": "00:02:18,380"
			},
			"offsets": {
				"from": 136730,
				"to": 138380
			},
			"text": " significa que ya tienen dos"
		},
		{
			"timestamps": {
				"from": "00:02:18,380",
				"to": "00:02:20,280"
			},
			"offsets": {
				"from": 138380,
				"to": 140280
			},
			"text": " semanas de arreglo de toda la"
		},
		{
			"timestamps": {
				"from": "00:02:20,280",
				"to": "00:02:21,920"
			},
			"offsets": {
				"from": 140280,
				"to": 141920
			},
			"text": " gente que rápidamente instaló"
		},
		{
			"timestamps": {
				"from": "00:02:21,920",
				"to": "00:02:23,280"
			},
			"offsets": {
				"from": 141920,
				"to": 143280
			},
			"text": " con prisa, como yo."
		},
		{
			"timestamps": {
				"from": "00:02:23,280",
				"to": "00:02:24,670"
			},
			"offsets": {
				"from": 143280,
				"to": 144670
			},
			"text": " Ya han ido reportando, los"
		},
		{
			"timestamps": {
				"from": "00:02:24,670",
				"to": "00:02:26,380"
			},
			"offsets": {
				"from": 144670,
				"to": 146380
			},
			"text": " desarrolladores han puesto mano"
		},
		{
			"timestamps": {
				"from": "00:02:26,380",
				"to": "00:02:28,960"
			},
			"offsets": {
				"from": 146380,
				"to": 148960
			},
			"text": " a la obra, y en la 6.0.3 yo lo"
		},
		{
			"timestamps": {
				"from": "00:02:28,960",
				"to": "00:02:31,120"
			},
			"offsets": {
				"from": 148960,
				"to": 151120
			},
			"text": " defino como la versión que le"
		},
		{
			"timestamps": {
				"from": "00:02:31,120",
				"to": "00:02:32,440"
			},
			"offsets": {
				"from": 151120,
				"to": 152440
			},
			"text": " podría poner ya a mi madre."
		},
		{
			"timestamps": {
				"from": "00:02:32,440",
				"to": "00:02:33,820"
			},
			"offsets": {
				"from": 152440,
				"to": 153820
			},
			"text": " Es evidente que después de un"
		},
		{
			"timestamps": {
				"from": "00:02:33,820",
				"to": "00:02:35,470"
			},
			"offsets": {
				"from": 153820,
				"to": 155470
			},
			"text": " cambio tan gordo, algunos bugs"
		},
		{
			"timestamps": {
				"from": "00:02:35,470",
				"to": "00:02:37,450"
			},
			"offsets": {
				"from": 155470,
				"to": 157450
			},
			"text": " tenían que salir que no lo habíamos"
		},
		{
			"timestamps": {
				"from": "00:02:37,450",
				"to": "00:02:39,120"
			},
			"offsets": {
				"from": 157450,
				"to": 159120
			},
			"text": " podido sacar en la fase de beta,"
		},
		{
			"timestamps": {
				"from": "00:02:39,120",
				"to": "00:02:40,720"
			},
			"offsets": {
				"from": 159120,
				"to": 160720
			},
			"text": " pero ahora, como no hemos tirado"
		},
		{
			"timestamps": {
				"from": "00:02:40,720",
				"to": "00:02:42,240"
			},
			"offsets": {
				"from": 160720,
				"to": 162240
			},
			"text": " dos semanas, venga a reportar y"
		},
		{
			"timestamps": {
				"from": "00:02:42,240",
				"to": "00:02:43,900"
			},
			"offsets": {
				"from": 162240,
				"to": 163900
			},
			"text": " venga a arreglar, yo creo que"
		},
		{
			"timestamps": {
				"from": "00:02:43,900",
				"to": "00:02:45,200"
			},
			"offsets": {
				"from": 163900,
				"to": 165200
			},
			"text": " esto ya es como una versión"
		},
		{
			"timestamps": {
				"from": "00:02:45,200",
				"to": "00:02:46,320"
			},
			"offsets": {
				"from": 165200,
				"to": 166320
			},
			"text": " normal y corriente,"
		},
		{
			"timestamps": {
				"from": "00:02:46,320",
				"to": "00:02:47,990"
			},
			"offsets": {
				"from": 166320,
				"to": 167990
			},
			"text": " y hemos pasado el pico de que"
		},
		{
			"timestamps": {
				"from": "00:02:47,990",
				"to": "00:02:50,130"
			},
			"offsets": {
				"from": 167990,
				"to": 170130
			},
			"text": " acabamos de cambiar prácticamente"
		},
		{
			"timestamps": {
				"from": "00:02:50,130",
				"to": "00:02:51,930"
			},
			"offsets": {
				"from": 170130,
				"to": 171930
			},
			"text": " el motor entero del coche, y"
		},
		{
			"timestamps": {
				"from": "00:02:51,930",
				"to": "00:02:53,720"
			},
			"offsets": {
				"from": 171930,
				"to": 173720
			},
			"text": " podemos decir que esto está"
		},
		{
			"timestamps": {
				"from": "00:02:53,720",
				"to": "00:02:54,600"
			},
			"offsets": {
				"from": 173720,
				"to": 174600
			},
			"text": " marchando."
		},
		{
			"timestamps": {
				"from": "00:02:54,600",
				"to": "00:02:56,180"
			},
			"offsets": {
				"from": 174600,
				"to": 176180
			},
			"text": " Luego sobre Plasma 6, no quiero"
		},
		{
			"timestamps": {
				"from": "00:02:56,180",
				"to": "00:02:57,600"
			},
			"offsets": {
				"from": 176180,
				"to": 177600
			},
			"text": " entrar mucho en detalle porque"
		},
		{
			"timestamps": {
				"from": "00:02:57,600",
				"to": "00:02:58,900"
			},
			"offsets": {
				"from": 177600,
				"to": 178900
			},
			"text": " ahora mismo hay un montón de"
		},
		{
			"timestamps": {
				"from": "00:02:58,900",
				"to": "00:03:00,380"
			},
			"offsets": {
				"from": 178900,
				"to": 180380
			},
			"text": " gente haciendo vídeos, la"
		},
		{
			"timestamps": {
				"from": "00:03:00,380",
				"to": "00:03:01,680"
			},
			"offsets": {
				"from": 180380,
				"to": 181680
			},
			"text": " gente lo está probando,"
		},
		{
			"timestamps": {
				"from": "00:03:01,680",
				"to": "00:03:03,340"
			},
			"offsets": {
				"from": 181680,
				"to": 183340
			},
			"text": " pero como yo siempre digo,"
		},
		{
			"timestamps": {
				"from": "00:03:03,340",
				"to": "00:03:05,600"
			},
			"offsets": {
				"from": 183340,
				"to": 185600
			},
			"text": " aquí estamos los Early Adopters,"
		},
		{
			"timestamps": {
				"from": "00:03:05,600",
				"to": "00:03:06,770"
			},
			"offsets": {
				"from": 185600,
				"to": 186770
			},
			"text": " los que nos gusta mucho mucho"
		},
		{
			"timestamps": {
				"from": "00:03:06,770",
				"to": "00:03:07,850"
			},
			"offsets": {
				"from": 186770,
				"to": 187850
			},
			"text": " la tecnología y estar a la"
		},
		{
			"timestamps": {
				"from": "00:03:07,850",
				"to": "00:03:08,400"
			},
			"offsets": {
				"from": 187850,
				"to": 188400
			},
			"text": " última."
		},
		{
			"timestamps": {
				"from": "00:03:08,400",
				"to": "00:03:09,490"
			},
			"offsets": {
				"from": 188400,
				"to": 189490
			},
			"text": " Pero hay un montón de gente"
		},
		{
			"timestamps": {
				"from": "00:03:09,490",
				"to": "00:03:10,700"
			},
			"offsets": {
				"from": 189490,
				"to": 190700
			},
			"text": " que Plasma 6 no lo verá hasta"
		},
		{
			"timestamps": {
				"from": "00:03:10,700",
				"to": "00:03:12,210"
			},
			"offsets": {
				"from": 190700,
				"to": 192210
			},
			"text": " dentro de un año, entonces yo"
		},
		{
			"timestamps": {
				"from": "00:03:12,210",
				"to": "00:03:13,400"
			},
			"offsets": {
				"from": 192210,
				"to": 193400
			},
			"text": " prefiero ir poco a poco"
		},
		{
			"timestamps": {
				"from": "00:03:13,400",
				"to": "00:03:15,680"
			},
			"offsets": {
				"from": 193400,
				"to": 195680
			},
			"text": " hablando algo de las novedades,"
		},
		{
			"timestamps": {
				"from": "00:03:15,680",
				"to": "00:03:17,430"
			},
			"offsets": {
				"from": 195680,
				"to": 197430
			},
			"text": " pero no hacer un pedazo así de"
		},
		{
			"timestamps": {
				"from": "00:03:17,430",
				"to": "00:03:19,130"
			},
			"offsets": {
				"from": 197430,
				"to": 199130
			},
			"text": " episodio exclusivo en el que"
		},
		{
			"timestamps": {
				"from": "00:03:19,130",
				"to": "00:03:20,810"
			},
			"offsets": {
				"from": 199130,
				"to": 200810
			},
			"text": " hago uno a uno cuáles son las"
		},
		{
			"timestamps": {
				"from": "00:03:20,810",
				"to": "00:03:22,520"
			},
			"offsets": {
				"from": 200810,
				"to": 202520
			},
			"text": " cosas que han cambiado."
		},
		{
			"timestamps": {
				"from": "00:03:22,520",
				"to": "00:03:24,040"
			},
			"offsets": {
				"from": 202520,
				"to": 204040
			},
			"text": " Sí que quiero reseñar que os"
		},
		{
			"timestamps": {
				"from": "00:03:24,040",
				"to": "00:03:25,690"
			},
			"offsets": {
				"from": 204040,
				"to": 205690
			},
			"text": " dejo el enlace a la publicación"
		},
		{
			"timestamps": {
				"from": "00:03:25,690",
				"to": "00:03:27,370"
			},
			"offsets": {
				"from": 205690,
				"to": 207370
			},
			"text": " oficial donde vienen un montón"
		},
		{
			"timestamps": {
				"from": "00:03:27,370",
				"to": "00:03:29,080"
			},
			"offsets": {
				"from": 207370,
				"to": 209080
			},
			"text": " de cambios que se han hecho."
		},
		{
			"timestamps": {
				"from": "00:03:29,080",
				"to": "00:03:31,120"
			},
			"offsets": {
				"from": 209080,
				"to": 211120
			},
			"text": " He grabado hace poco en PeerTube"
		},
		{
			"timestamps": {
				"from": "00:03:31,120",
				"to": "00:03:32,810"
			},
			"offsets": {
				"from": 211120,
				"to": 212810
			},
			"text": " un vídeo enseñándoles a"
		},
		{
			"timestamps": {
				"from": "00:03:32,810",
				"to": "00:03:35,300"
			},
			"offsets": {
				"from": 212810,
				"to": 215300
			},
			"text": " José Jiménez de 24H24L un"
		},
		{
			"timestamps": {
				"from": "00:03:35,300",
				"to": "00:03:36,720"
			},
			"offsets": {
				"from": 215300,
				"to": 216720
			},
			"text": " poco alguna novedad y alguna"
		},
		{
			"timestamps": {
				"from": "00:03:36,720",
				"to": "00:03:37,560"
			},
			"offsets": {
				"from": 216720,
				"to": 217560
			},
			"text": " cosa que se ha hecho,"
		},
		{
			"timestamps": {
				"from": "00:03:37,560",
				"to": "00:03:38,810"
			},
			"offsets": {
				"from": 217560,
				"to": 218810
			},
			"text": " y hablando de cómo ha ido la"
		},
		{
			"timestamps": {
				"from": "00:03:38,810",
				"to": "00:03:40,920"
			},
			"offsets": {
				"from": 218810,
				"to": 220920
			},
			"text": " migración. Os dejo también el"
		},
		{
			"timestamps": {
				"from": "00:03:40,920",
				"to": "00:03:42,320"
			},
			"offsets": {
				"from": 220920,
				"to": 222320
			},
			"text": " enlace en las notas."
		},
		{
			"timestamps": {
				"from": "00:03:42,320",
				"to": "00:03:44,190"
			},
			"offsets": {
				"from": 222320,
				"to": 224190
			},
			"text": " Y en las notas van a ver un"
		},
		{
			"timestamps": {
				"from": "00:03:44,190",
				"to": "00:03:46,990"
			},
			"offsets": {
				"from": 224190,
				"to": 226990
			},
			"text": " montón de URLs en las que tenéis"
		},
		{
			"timestamps": {
				"from": "00:03:46,990",
				"to": "00:03:49,050"
			},
			"offsets": {
				"from": 226990,
				"to": 229050
			},
			"text": " \"User Facing Changes\", que esto"
		},
		{
			"timestamps": {
				"from": "00:03:49,050",
				"to": "00:03:51,000"
			},
			"offsets": {
				"from": 229050,
				"to": 231000
			},
			"text": " es la página oficial de Plasma,"
		},
		{
			"timestamps": {
				"from": "00:03:51,000",
				"to": "00:03:53,340"
			},
			"offsets": {
				"from": 231000,
				"to": 233340
			},
			"text": " la oficial hacia adentro, no es"
		},
		{
			"timestamps": {
				"from": "00:03:53,340",
				"to": "00:03:55,850"
			},
			"offsets": {
				"from": 233340,
				"to": 235850
			},
			"text": " la que promoción publicita, en"
		},
		{
			"timestamps": {
				"from": "00:03:55,850",
				"to": "00:03:57,700"
			},
			"offsets": {
				"from": 235850,
				"to": 237700
			},
			"text": " la que vienen todos los cambios"
		},
		{
			"timestamps": {
				"from": "00:03:57,700",
				"to": "00:03:59,260"
			},
			"offsets": {
				"from": 237700,
				"to": 239260
			},
			"text": " uno a uno con enlace a por qué"
		},
		{
			"timestamps": {
				"from": "00:03:59,260",
				"to": "00:04:00,400"
			},
			"offsets": {
				"from": 239260,
				"to": 240400
			},
			"text": " se ha hecho y cómo,"
		},
		{
			"timestamps": {
				"from": "00:04:00,400",
				"to": "00:04:02,260"
			},
			"offsets": {
				"from": 240400,
				"to": 242260
			},
			"text": " por si tenéis realmente curiosidad"
		},
		{
			"timestamps": {
				"from": "00:04:02,260",
				"to": "00:04:03,820"
			},
			"offsets": {
				"from": 242260,
				"to": 243820
			},
			"text": " por saber hasta la última miga"
		},
		{
			"timestamps": {
				"from": "00:04:03,820",
				"to": "00:04:05,440"
			},
			"offsets": {
				"from": 243820,
				"to": 245440
			},
			"text": " de cambios que hemos tenido."
		},
		{
			"timestamps": {
				"from": "00:04:05,440",
				"to": "00:04:06,650"
			},
			"offsets": {
				"from": 245440,
				"to": 246650
			},
			"text": " Yo querría destacar, por"
		},
		{
			"timestamps": {
				"from": "00:04:06,650",
				"to": "00:04:07,980"
			},
			"offsets": {
				"from": 246650,
				"to": 247980
			},
			"text": " ejemplo, aparte de que todo el"
		},
		{
			"timestamps": {
				"from": "00:04:07,980",
				"to": "00:04:09,240"
			},
			"offsets": {
				"from": 247980,
				"to": 249240
			},
			"text": " mundo está muy contento con"
		},
		{
			"timestamps": {
				"from": "00:04:09,240",
				"to": "00:04:10,280"
			},
			"offsets": {
				"from": 249240,
				"to": 250280
			},
			"text": " que ha vuelto el cubo,"
		},
		{
			"timestamps": {
				"from": "00:04:10,280",
				"to": "00:04:12,010"
			},
			"offsets": {
				"from": 250280,
				"to": 252010
			},
			"text": " que ahora hay un efecto nuevo"
		},
		{
			"timestamps": {
				"from": "00:04:12,010",
				"to": "00:04:13,730"
			},
			"offsets": {
				"from": 252010,
				"to": 253730
			},
			"text": " que se llama como agitar para"
		},
		{
			"timestamps": {
				"from": "00:04:13,730",
				"to": "00:04:15,770"
			},
			"offsets": {
				"from": 253730,
				"to": 255770
			},
			"text": " encontrar el ratón, que yo lo"
		},
		{
			"timestamps": {
				"from": "00:04:15,770",
				"to": "00:04:16,480"
			},
			"offsets": {
				"from": 255770,
				"to": 256480
			},
			"text": " he activado,"
		},
		{
			"timestamps": {
				"from": "00:04:16,480",
				"to": "00:04:17,580"
			},
			"offsets": {
				"from": 256480,
				"to": 257580
			},
			"text": " que es que si una vez que lo"
		},
		{
			"timestamps": {
				"from": "00:04:17,580",
				"to": "00:04:18,800"
			},
			"offsets": {
				"from": 257580,
				"to": 258800
			},
			"text": " tienes activado mueves muy"
		},
		{
			"timestamps": {
				"from": "00:04:18,800",
				"to": "00:04:20,480"
			},
			"offsets": {
				"from": 258800,
				"to": 260480
			},
			"text": " rápido el ratón, el ratón"
		},
		{
			"timestamps": {
				"from": "00:04:20,480",
				"to": "00:04:21,960"
			},
			"offsets": {
				"from": 260480,
				"to": 261960
			},
			"text": " empieza a crecer, a crecer, a"
		},
		{
			"timestamps": {
				"from": "00:04:21,960",
				"to": "00:04:22,000"
			},
			"offsets": {
				"from": 261960,
				"to": 262000
			},
			"text": " crecer..."
		},
		{
			"timestamps": {
				"from": "00:04:22,000",
				"to": "00:04:23,060"
			},
			"offsets": {
				"from": 262000,
				"to": 263060
			},
			"text": " Bueno, el ratón no, el icono"
		},
		{
			"timestamps": {
				"from": "00:04:23,060",
				"to": "00:04:24,700"
			},
			"offsets": {
				"from": 263060,
				"to": 264700
			},
			"text": " del ratón. Y entonces lo ves"
		},
		{
			"timestamps": {
				"from": "00:04:24,700",
				"to": "00:04:25,640"
			},
			"offsets": {
				"from": 264700,
				"to": 265640
			},
			"text": " muy fácil."
		},
		{
			"timestamps": {
				"from": "00:04:25,640",
				"to": "00:04:26,740"
			},
			"offsets": {
				"from": 265640,
				"to": 266740
			},
			"text": " Si no sabes por dónde está"
		},
		{
			"timestamps": {
				"from": "00:04:26,740",
				"to": "00:04:27,940"
			},
			"offsets": {
				"from": 266740,
				"to": 267940
			},
			"text": " por la pantalla, tú empiezas a"
		},
		{
			"timestamps": {
				"from": "00:04:27,940",
				"to": "00:04:29,280"
			},
			"offsets": {
				"from": 267940,
				"to": 269280
			},
			"text": " menear, a menear, a menear y se"
		},
		{
			"timestamps": {
				"from": "00:04:29,280",
				"to": "00:04:30,480"
			},
			"offsets": {
				"from": 269280,
				"to": 270480
			},
			"text": " hace gigante y dices \"aquí"
		},
		{
			"timestamps": {
				"from": "00:04:30,480",
				"to": "00:04:31,240"
			},
			"offsets": {
				"from": 270480,
				"to": 271240
			},
			"text": " está, sin duda\"."
		},
		{
			"timestamps": {
				"from": "00:04:31,240",
				"to": "00:04:32,360"
			},
			"offsets": {
				"from": 271240,
				"to": 272360
			},
			"text": " Y luego desaparece en un"
		},
		{
			"timestamps": {
				"from": "00:04:32,360",
				"to": "00:04:33,770"
			},
			"offsets": {
				"from": 272360,
				"to": 273770
			},
			"text": " segundo, vuelve a su tamaño"
		},
		{
			"timestamps": {
				"from": "00:04:33,770",
				"to": "00:04:34,480"
			},
			"offsets": {
				"from": 273770,
				"to": 274480
			},
			"text": " original."
		},
		{
			"timestamps": {
				"from": "00:04:34,480",
				"to": "00:04:36,120"
			},
			"offsets": {
				"from": 274480,
				"to": 276120
			},
			"text": " También os dejo un artículo"
		},
		{
			"timestamps": {
				"from": "00:04:36,120",
				"to": "00:04:37,770"
			},
			"offsets": {
				"from": 276120,
				"to": 277770
			},
			"text": " sobre cómo fue la migración"
		},
		{
			"timestamps": {
				"from": "00:04:37,770",
				"to": "00:04:39,200"
			},
			"offsets": {
				"from": 277770,
				"to": 279200
			},
			"text": " de KDE Neon a Plasma 6."
		},
		{
			"timestamps": {
				"from": "00:04:39,200",
				"to": "00:04:41,090"
			},
			"offsets": {
				"from": 279200,
				"to": 281090
			},
			"text": " El 90% de la gente que está"
		},
		{
			"timestamps": {
				"from": "00:04:41,090",
				"to": "00:04:43,130"
			},
			"offsets": {
				"from": 281090,
				"to": 283130
			},
			"text": " usando Plasma 6 está contento"
		},
		{
			"timestamps": {
				"from": "00:04:43,130",
				"to": "00:04:44,880"
			},
			"offsets": {
				"from": 283130,
				"to": 284880
			},
			"text": " con él y no tiene demasiados"
		},
		{
			"timestamps": {
				"from": "00:04:44,880",
				"to": "00:04:45,880"
			},
			"offsets": {
				"from": 284880,
				"to": 285880
			},
			"text": " problemas."
		},
		{
			"timestamps": {
				"from": "00:04:45,880",
				"to": "00:04:48,070"
			},
			"offsets": {
				"from": 285880,
				"to": 288070
			},
			"text": " Siempre están los que si tengo"
		},
		{
			"timestamps": {
				"from": "00:04:48,070",
				"to": "00:04:50,180"
			},
			"offsets": {
				"from": 288070,
				"to": 290180
			},
			"text": " envidia y tengo esta versión"
		},
		{
			"timestamps": {
				"from": "00:04:50,180",
				"to": "00:04:52,160"
			},
			"offsets": {
				"from": 290180,
				"to": 292160
			},
			"text": " de los drivers que es muy antigua"
		},
		{
			"timestamps": {
				"from": "00:04:52,160",
				"to": "00:04:54,360"
			},
			"offsets": {
				"from": 292160,
				"to": 294360
			},
			"text": " porque mi placa ya no lo soportan..."
		},
		{
			"timestamps": {
				"from": "00:04:54,360",
				"to": "00:04:55,680"
			},
			"offsets": {
				"from": 294360,
				"to": 295680
			},
			"text": " Y entonces ahí con Wyland"
		},
		{
			"timestamps": {
				"from": "00:04:55,680",
				"to": "00:04:57,670"
			},
			"offsets": {
				"from": 295680,
				"to": 297670
			},
			"text": " puede ser... Siempre hay casos,"
		},
		{
			"timestamps": {
				"from": "00:04:57,670",
				"to": "00:04:59,130"
			},
			"offsets": {
				"from": 297670,
				"to": 299130
			},
			"text": " pero vamos, para la mayoría de"
		},
		{
			"timestamps": {
				"from": "00:04:59,130",
				"to": "00:05:00,560"
			},
			"offsets": {
				"from": 299130,
				"to": 300560
			},
			"text": " la gente tendría que funcionar."
		},
		{
			"timestamps": {
				"from": "00:05:00,560",
				"to": "00:05:03,020"
			},
			"offsets": {
				"from": 300560,
				"to": 303020
			},
			"text": " OpenSUSE, openSUSE, Tumbleweed"
		},
		{
			"timestamps": {
				"from": "00:05:03,020",
				"to": "00:05:05,000"
			},
			"offsets": {
				"from": 303020,
				"to": 305000
			},
			"text": " y Kalpa también están ya en"
		},
		{
			"timestamps": {
				"from": "00:05:05,000",
				"to": "00:05:05,880"
			},
			"offsets": {
				"from": 305000,
				"to": 305880
			},
			"text": " Plasma 6."
		},
		{
			"timestamps": {
				"from": "00:05:05,880",
				"to": "00:05:08,250"
			},
			"offsets": {
				"from": 305880,
				"to": 308250
			},
			"text": " También ha llegado a PostMarket"
		},
		{
			"timestamps": {
				"from": "00:05:08,250",
				"to": "00:05:10,280"
			},
			"offsets": {
				"from": 308250,
				"to": 310280
			},
			"text": " OS, que es una versión para"
		},
		{
			"timestamps": {
				"from": "00:05:10,280",
				"to": "00:05:11,000"
			},
			"offsets": {
				"from": 310280,
				"to": 311000
			},
			"text": " móviles."
		},
		{
			"timestamps": {
				"from": "00:05:11,000",
				"to": "00:05:13,000"
			},
			"offsets": {
				"from": 311000,
				"to": 313000
			},
			"text": " Y luego también os dejo un enlace"
		},
		{
			"timestamps": {
				"from": "00:05:13,000",
				"to": "00:05:14,790"
			},
			"offsets": {
				"from": 313000,
				"to": 314790
			},
			"text": " a una charla que tuve con José"
		},
		{
			"timestamps": {
				"from": "00:05:14,790",
				"to": "00:05:16,490"
			},
			"offsets": {
				"from": 314790,
				"to": 316490
			},
			"text": " Picón y su equipo, que tiene"
		},
		{
			"timestamps": {
				"from": "00:05:16,490",
				"to": "00:05:18,800"
			},
			"offsets": {
				"from": 316490,
				"to": 318800
			},
			"text": " un nuevo podcast que se llama \"WeHacks\""
		},
		{
			"timestamps": {
				"from": "00:05:18,800",
				"to": "00:05:19,680"
			},
			"offsets": {
				"from": 318800,
				"to": 319680
			},
			"text": " sobre privacidad."
		},
		{
			"timestamps": {
				"from": "00:05:19,680",
				"to": "00:05:21,490"
			},
			"offsets": {
				"from": 319680,
				"to": 321490
			},
			"text": " Y me invitaron para hablar un"
		},
		{
			"timestamps": {
				"from": "00:05:21,490",
				"to": "00:05:23,740"
			},
			"offsets": {
				"from": 321490,
				"to": 323740
			},
			"text": " poco sobre KDE, sobre Plasma 6"
		},
		{
			"timestamps": {
				"from": "00:05:23,740",
				"to": "00:05:25,190"
			},
			"offsets": {
				"from": 323740,
				"to": 325190
			},
			"text": " y en ese momento también hablamos"
		},
		{
			"timestamps": {
				"from": "00:05:25,190",
				"to": "00:05:26,670"
			},
			"offsets": {
				"from": 325190,
				"to": 326670
			},
			"text": " sobre el drama que había con"
		},
		{
			"timestamps": {
				"from": "00:05:26,670",
				"to": "00:05:27,940"
			},
			"offsets": {
				"from": 326670,
				"to": 327940
			},
			"text": " Telegram, que ya lo tenemos"
		},
		{
			"timestamps": {
				"from": "00:05:27,940",
				"to": "00:05:28,600"
			},
			"offsets": {
				"from": 327940,
				"to": 328600
			},
			"text": " superado."
		},
		{
			"timestamps": {
				"from": "00:05:28,600",
				"to": "00:05:30,500"
			},
			"offsets": {
				"from": 328600,
				"to": 330500
			},
			"text": " Eso era el montón de enlaces y"
		},
		{
			"timestamps": {
				"from": "00:05:30,500",
				"to": "00:05:32,570"
			},
			"offsets": {
				"from": 330500,
				"to": 332570
			},
			"text": " aquí os lo quería mencionar,"
		},
		{
			"timestamps": {
				"from": "00:05:32,570",
				"to": "00:05:34,320"
			},
			"offsets": {
				"from": 332570,
				"to": 334320
			},
			"text": " que os he dejado en las notas"
		},
		{
			"timestamps": {
				"from": "00:05:34,320",
				"to": "00:05:35,320"
			},
			"offsets": {
				"from": 334320,
				"to": 335320
			},
			"text": " del programa."
		},
		{
			"timestamps": {
				"from": "00:05:35,320",
				"to": "00:05:36,530"
			},
			"offsets": {
				"from": 335320,
				"to": 336530
			},
			"text": " Y luego quería entrar en una"
		},
		{
			"timestamps": {
				"from": "00:05:36,530",
				"to": "00:05:37,720"
			},
			"offsets": {
				"from": 336530,
				"to": 337720
			},
			"text": " serie de noticias que no van"
		},
		{
			"timestamps": {
				"from": "00:05:37,720",
				"to": "00:05:39,090"
			},
			"offsets": {
				"from": 337720,
				"to": 339090
			},
			"text": " directamente sobre Plasma 6,"
		},
		{
			"timestamps": {
				"from": "00:05:39,090",
				"to": "00:05:40,880"
			},
			"offsets": {
				"from": 339090,
				"to": 340880
			},
			"text": " pero que sí van sobre el ecosistema."
		},
		{
			"timestamps": {
				"from": "00:05:40,880",
				"to": "00:05:42,280"
			},
			"offsets": {
				"from": 340880,
				"to": 342280
			},
			"text": " Por ejemplo, \"Muy Luino\" hizo"
		},
		{
			"timestamps": {
				"from": "00:05:42,280",
				"to": "00:05:43,760"
			},
			"offsets": {
				"from": 342280,
				"to": 343760
			},
			"text": " un artículo que a mí me gustó"
		},
		{
			"timestamps": {
				"from": "00:05:43,760",
				"to": "00:05:44,990"
			},
			"offsets": {
				"from": 343760,
				"to": 344990
			},
			"text": " mucho sobre cómo cambiar el"
		},
		{
			"timestamps": {
				"from": "00:05:44,990",
				"to": "00:05:46,720"
			},
			"offsets": {
				"from": 344990,
				"to": 346720
			},
			"text": " tamaño de los archivos en Dolphin."
		},
		{
			"timestamps": {
				"from": "00:05:46,720",
				"to": "00:05:48,790"
			},
			"offsets": {
				"from": 346720,
				"to": 348790
			},
			"text": " De aparte entraba en cómo Dolphin"
		},
		{
			"timestamps": {
				"from": "00:05:48,790",
				"to": "00:05:50,650"
			},
			"offsets": {
				"from": 348790,
				"to": 350650
			},
			"text": " es una aplicación super útil"
		},
		{
			"timestamps": {
				"from": "00:05:50,650",
				"to": "00:05:52,550"
			},
			"offsets": {
				"from": 350650,
				"to": 352550
			},
			"text": " de productividad y que en el"
		},
		{
			"timestamps": {
				"from": "00:05:52,550",
				"to": "00:05:54,640"
			},
			"offsets": {
				"from": 352550,
				"to": 354640
			},
			"text": " momento que la usas te enamoras"
		},
		{
			"timestamps": {
				"from": "00:05:54,640",
				"to": "00:05:56,220"
			},
			"offsets": {
				"from": 354640,
				"to": 356220
			},
			"text": " de ella, si eres de los que te"
		},
		{
			"timestamps": {
				"from": "00:05:56,220",
				"to": "00:05:58,970"
			},
			"offsets": {
				"from": 356220,
				"to": 358970
			},
			"text": " gusta personalizar e intentar"
		},
		{
			"timestamps": {
				"from": "00:05:58,970",
				"to": "00:06:00,120"
			},
			"offsets": {
				"from": 358970,
				"to": 360120
			},
			"text": " conseguir ser más productivo"
		},
		{
			"timestamps": {
				"from": "00:06:00,120",
				"to": "00:06:01,330"
			},
			"offsets": {
				"from": 360120,
				"to": 361330
			},
			"text": " cuando estás haciendo trabajo"
		},
		{
			"timestamps": {
				"from": "00:06:01,330",
				"to": "00:06:01,920"
			},
			"offsets": {
				"from": 361330,
				"to": 361920
			},
			"text": " ofimático."
		},
		{
			"timestamps": {
				"from": "00:06:01,920",
				"to": "00:06:04,300"
			},
			"offsets": {
				"from": 361920,
				"to": 364300
			},
			"text": " Luego también la NLNET, que es"
		},
		{
			"timestamps": {
				"from": "00:06:04,300",
				"to": "00:06:06,460"
			},
			"offsets": {
				"from": 364300,
				"to": 366460
			},
			"text": " una pata, una sección que hay"
		},
		{
			"timestamps": {
				"from": "00:06:06,460",
				"to": "00:06:08,840"
			},
			"offsets": {
				"from": 366460,
				"to": 368840
			},
			"text": " de la Unión Europea que se dedica"
		},
		{
			"timestamps": {
				"from": "00:06:08,840",
				"to": "00:06:11,220"
			},
			"offsets": {
				"from": 368840,
				"to": 371220
			},
			"text": " a fundar proyectos de soberanía"
		},
		{
			"timestamps": {
				"from": "00:06:11,220",
				"to": "00:06:12,400"
			},
			"offsets": {
				"from": 371220,
				"to": 372400
			},
			"text": " tecnológica."
		},
		{
			"timestamps": {
				"from": "00:06:12,400",
				"to": "00:06:14,590"
			},
			"offsets": {
				"from": 372400,
				"to": 374590
			},
			"text": " Ha aceptado una propuesta para"
		},
		{
			"timestamps": {
				"from": "00:06:14,590",
				"to": "00:06:17,300"
			},
			"offsets": {
				"from": 374590,
				"to": 377300
			},
			"text": " mejorar la accesibilidad de KDE Plasma"
		},
		{
			"timestamps": {
				"from": "00:06:17,300",
				"to": "00:06:18,880"
			},
			"offsets": {
				"from": 377300,
				"to": 378880
			},
			"text": " con Wayland, que es una cosa"
		},
		{
			"timestamps": {
				"from": "00:06:18,880",
				"to": "00:06:19,890"
			},
			"offsets": {
				"from": 378880,
				"to": 379890
			},
			"text": " que a mí me alegra mucho"
		},
		{
			"timestamps": {
				"from": "00:06:19,890",
				"to": "00:06:22,110"
			},
			"offsets": {
				"from": 379890,
				"to": 382110
			},
			"text": " porque KDE Plasma es maravilloso,"
		},
		{
			"timestamps": {
				"from": "00:06:22,110",
				"to": "00:06:23,540"
			},
			"offsets": {
				"from": 382110,
				"to": 383540
			},
			"text": " la versión 6 es la mejor que"
		},
		{
			"timestamps": {
				"from": "00:06:23,540",
				"to": "00:06:24,800"
			},
			"offsets": {
				"from": 383540,
				"to": 384800
			},
			"text": " hemos tenido, pero tenemos"
		},
		{
			"timestamps": {
				"from": "00:06:24,800",
				"to": "00:06:25,950"
			},
			"offsets": {
				"from": 384800,
				"to": 385950
			},
			"text": " mucho trabajo que hacer en"
		},
		{
			"timestamps": {
				"from": "00:06:25,950",
				"to": "00:06:26,720"
			},
			"offsets": {
				"from": 385950,
				"to": 386720
			},
			"text": " accesibilidad."
		},
		{
			"timestamps": {
				"from": "00:06:26,720",
				"to": "00:06:28,100"
			},
			"offsets": {
				"from": 386720,
				"to": 388100
			},
			"text": " Y esto nos va a ayudar mucho"
		},
		{
			"timestamps": {
				"from": "00:06:28,100",
				"to": "00:06:30,000"
			},
			"offsets": {
				"from": 388100,
				"to": 390000
			},
			"text": " porque el trabajo de accesibilidad"
		},
		{
			"timestamps": {
				"from": "00:06:30,000",
				"to": "00:06:31,500"
			},
			"offsets": {
				"from": 390000,
				"to": 391500
			},
			"text": " es duro, requiere gente que"
		},
		{
			"timestamps": {
				"from": "00:06:31,500",
				"to": "00:06:33,630"
			},
			"offsets": {
				"from": 391500,
				"to": 393630
			},
			"text": " reporte, gente que pueda probarlo"
		},
		{
			"timestamps": {
				"from": "00:06:33,630",
				"to": "00:06:35,520"
			},
			"offsets": {
				"from": 393630,
				"to": 395520
			},
			"text": " y desarrolladores que puedan"
		},
		{
			"timestamps": {
				"from": "00:06:35,520",
				"to": "00:06:37,360"
			},
			"offsets": {
				"from": 395520,
				"to": 397360
			},
			"text": " tener el tiempo de hacerlo"
		},
		{
			"timestamps": {
				"from": "00:06:37,360",
				"to": "00:06:38,530"
			},
			"offsets": {
				"from": 397360,
				"to": 398530
			},
			"text": " cuando no es de los casos más"
		},
		{
			"timestamps": {
				"from": "00:06:38,530",
				"to": "00:06:39,520"
			},
			"offsets": {
				"from": 398530,
				"to": 399520
			},
			"text": " fáciles de programar."
		},
		{
			"timestamps": {
				"from": "00:06:39,520",
				"to": "00:06:41,010"
			},
			"offsets": {
				"from": 399520,
				"to": 401010
			},
			"text": " Con lo cual el dinero siempre"
		},
		{
			"timestamps": {
				"from": "00:06:41,010",
				"to": "00:06:42,440"
			},
			"offsets": {
				"from": 401010,
				"to": 402440
			},
			"text": " es bien recibido y la ayuda de"
		},
		{
			"timestamps": {
				"from": "00:06:42,440",
				"to": "00:06:44,320"
			},
			"offsets": {
				"from": 402440,
				"to": 404320
			},
			"text": " voluntarios también, claro."
		},
		{
			"timestamps": {
				"from": "00:06:44,320",
				"to": "00:06:46,110"
			},
			"offsets": {
				"from": 404320,
				"to": 406110
			},
			"text": " Yo tengo previsto hacer un"
		},
		{
			"timestamps": {
				"from": "00:06:46,110",
				"to": "00:06:48,220"
			},
			"offsets": {
				"from": 406110,
				"to": 408220
			},
			"text": " vídeo, no sé cuándo, pero"
		},
		{
			"timestamps": {
				"from": "00:06:48,220",
				"to": "00:06:50,170"
			},
			"offsets": {
				"from": 408220,
				"to": 410170
			},
			"text": " quiero hacer uno con todas las"
		},
		{
			"timestamps": {
				"from": "00:06:50,170",
				"to": "00:06:52,350"
			},
			"offsets": {
				"from": 410170,
				"to": 412350
			},
			"text": " posibilidades de KDE Plasma que"
		},
		{
			"timestamps": {
				"from": "00:06:52,350",
				"to": "00:06:54,640"
			},
			"offsets": {
				"from": 412350,
				"to": 414640
			},
			"text": " tiene en materia de accesibilidad."
		},
		{
			"timestamps": {
				"from": "00:06:54,640",
				"to": "00:06:55,840"
			},
			"offsets": {
				"from": 414640,
				"to": 415840
			},
			"text": " Yo estoy probando ya algunas"
		},
		{
			"timestamps": {
				"from": "00:06:55,840",
				"to": "00:06:57,090"
			},
			"offsets": {
				"from": 415840,
				"to": 417090
			},
			"text": " aquí en mi casa, algunas son"
		},
		{
			"timestamps": {
				"from": "00:06:57,090",
				"to": "00:06:58,490"
			},
			"offsets": {
				"from": 417090,
				"to": 418490
			},
			"text": " combinaciones de teclas, otras"
		},
		{
			"timestamps": {
				"from": "00:06:58,490",
				"to": "00:06:59,850"
			},
			"offsets": {
				"from": 418490,
				"to": 419850
			},
			"text": " son configuraciones que dejas"
		},
		{
			"timestamps": {
				"from": "00:06:59,850",
				"to": "00:07:00,160"
			},
			"offsets": {
				"from": 419850,
				"to": 420160
			},
			"text": " puestas."
		},
		{
			"timestamps": {
				"from": "00:07:00,160",
				"to": "00:07:01,910"
			},
			"offsets": {
				"from": 420160,
				"to": 421910
			},
			"text": " Esto mismo que comentaba antes"
		},
		{
			"timestamps": {
				"from": "00:07:01,910",
				"to": "00:07:03,570"
			},
			"offsets": {
				"from": 421910,
				"to": 423570
			},
			"text": " de mover el ratón, la verdad"
		},
		{
			"timestamps": {
				"from": "00:07:03,570",
				"to": "00:07:05,370"
			},
			"offsets": {
				"from": 423570,
				"to": 425370
			},
			"text": " es que puede ayudar, pero haré"
		},
		{
			"timestamps": {
				"from": "00:07:05,370",
				"to": "00:07:07,430"
			},
			"offsets": {
				"from": 425370,
				"to": 427430
			},
			"text": " un listado y haré una demostración"
		},
		{
			"timestamps": {
				"from": "00:07:07,430",
				"to": "00:07:09,020"
			},
			"offsets": {
				"from": 427430,
				"to": 429020
			},
			"text": " una a una de cómo se activan y"
		},
		{
			"timestamps": {
				"from": "00:07:09,020",
				"to": "00:07:10,400"
			},
			"offsets": {
				"from": 429020,
				"to": 430400
			},
			"text": " cómo funcionan."
		},
		{
			"timestamps": {
				"from": "00:07:10,400",
				"to": "00:07:12,190"
			},
			"offsets": {
				"from": 430400,
				"to": 432190
			},
			"text": " También tenemos que nuestro"
		},
		{
			"timestamps": {
				"from": "00:07:12,190",
				"to": "00:07:14,750"
			},
			"offsets": {
				"from": 432190,
				"to": 434750
			},
			"text": " querido Slimbook, que no es patrocinador"
		},
		{
			"timestamps": {
				"from": "00:07:14,750",
				"to": "00:07:16,530"
			},
			"offsets": {
				"from": 434750,
				"to": 436530
			},
			"text": " del programa, pero sí que es"
		},
		{
			"timestamps": {
				"from": "00:07:16,530",
				"to": "00:07:18,450"
			},
			"offsets": {
				"from": 436530,
				"to": 438450
			},
			"text": " una empresa comprometida con el"
		},
		{
			"timestamps": {
				"from": "00:07:18,450",
				"to": "00:07:20,020"
			},
			"offsets": {
				"from": 438450,
				"to": 440020
			},
			"text": " software libre y con KDE en"
		},
		{
			"timestamps": {
				"from": "00:07:20,020",
				"to": "00:07:22,090"
			},
			"offsets": {
				"from": 440020,
				"to": 442090
			},
			"text": " particular, ha sacado su"
		},
		{
			"timestamps": {
				"from": "00:07:22,090",
				"to": "00:07:24,580"
			},
			"offsets": {
				"from": 442090,
				"to": 444580
			},
			"text": " versión de portátil del Slimbook"
		},
		{
			"timestamps": {
				"from": "00:07:24,580",
				"to": "00:07:26,160"
			},
			"offsets": {
				"from": 444580,
				"to": 446160
			},
			"text": " que siempre hemos tenido, una"
		},
		{
			"timestamps": {
				"from": "00:07:26,160",
				"to": "00:07:27,200"
			},
			"offsets": {
				"from": 446160,
				"to": 447200
			},
			"text": " versión renovada."
		},
		{
			"timestamps": {
				"from": "00:07:27,200",
				"to": "00:07:28,920"
			},
			"offsets": {
				"from": 447200,
				"to": 448920
			},
			"text": " Es muy lindo hacer un reportaje"
		},
		{
			"timestamps": {
				"from": "00:07:28,920",
				"to": "00:07:30,700"
			},
			"offsets": {
				"from": 448920,
				"to": 450700
			},
			"text": " sobre él, el resumen es porque"
		},
		{
			"timestamps": {
				"from": "00:07:30,700",
				"to": "00:07:32,700"
			},
			"offsets": {
				"from": 450700,
				"to": 452700
			},
			"text": " es la actualización, mejor que"
		},
		{
			"timestamps": {
				"from": "00:07:32,700",
				"to": "00:07:34,980"
			},
			"offsets": {
				"from": 452700,
				"to": 454980
			},
			"text": " el que había antes, igual de"
		},
		{
			"timestamps": {
				"from": "00:07:34,980",
				"to": "00:07:37,040"
			},
			"offsets": {
				"from": 454980,
				"to": 457040
			},
			"text": " bueno, con cosas más modernas."
		},
		{
			"timestamps": {
				"from": "00:07:37,040",
				"to": "00:07:38,810"
			},
			"offsets": {
				"from": 457040,
				"to": 458810
			},
			"text": " También quería contaros que"
		},
		{
			"timestamps": {
				"from": "00:07:38,810",
				"to": "00:07:40,200"
			},
			"offsets": {
				"from": 458810,
				"to": 460200
			},
			"text": " es algo que yo uso de vez en"
		},
		{
			"timestamps": {
				"from": "00:07:40,200",
				"to": "00:07:41,930"
			},
			"offsets": {
				"from": 460200,
				"to": 461930
			},
			"text": " cuando con mi hija, de hecho es"
		},
		{
			"timestamps": {
				"from": "00:07:41,930",
				"to": "00:07:43,680"
			},
			"offsets": {
				"from": 461930,
				"to": 463680
			},
			"text": " lo único que usa del ordenador"
		},
		{
			"timestamps": {
				"from": "00:07:43,680",
				"to": "00:07:45,760"
			},
			"offsets": {
				"from": 463680,
				"to": 465760
			},
			"text": " ella, es GCompris."
		},
		{
			"timestamps": {
				"from": "00:07:45,760",
				"to": "00:07:47,470"
			},
			"offsets": {
				"from": 465760,
				"to": 467470
			},
			"text": " La aplicación o programa de"
		},
		{
			"timestamps": {
				"from": "00:07:47,470",
				"to": "00:07:49,390"
			},
			"offsets": {
				"from": 467470,
				"to": 469390
			},
			"text": " educación infantil han sacado"
		},
		{
			"timestamps": {
				"from": "00:07:49,390",
				"to": "00:07:51,270"
			},
			"offsets": {
				"from": 469390,
				"to": 471270
			},
			"text": " ocho nuevas actividades, la"
		},
		{
			"timestamps": {
				"from": "00:07:51,270",
				"to": "00:07:53,050"
			},
			"offsets": {
				"from": 471270,
				"to": 473050
			},
			"text": " verdad es que tienen más de"
		},
		{
			"timestamps": {
				"from": "00:07:53,050",
				"to": "00:07:54,660"
			},
			"offsets": {
				"from": 473050,
				"to": 474660
			},
			"text": " las que yo he sido capaz de"
		},
		{
			"timestamps": {
				"from": "00:07:54,660",
				"to": "00:07:55,200"
			},
			"offsets": {
				"from": 474660,
				"to": 475200
			},
			"text": " probar."
		},
		{
			"timestamps": {
				"from": "00:07:55,200",
				"to": "00:07:56,680"
			},
			"offsets": {
				"from": 475200,
				"to": 476680
			},
			"text": " Está bien porque viene por"
		},
		{
			"timestamps": {
				"from": "00:07:56,680",
				"to": "00:07:58,350"
			},
			"offsets": {
				"from": 476680,
				"to": 478350
			},
			"text": " categorías, por edades o por"
		},
		{
			"timestamps": {
				"from": "00:07:58,350",
				"to": "00:08:00,200"
			},
			"offsets": {
				"from": 478350,
				"to": 480200
			},
			"text": " dificultad, y luego por sección"
		},
		{
			"timestamps": {
				"from": "00:08:00,200",
				"to": "00:08:02,200"
			},
			"offsets": {
				"from": 480200,
				"to": 482200
			},
			"text": " de si es gramática, si son puzles,"
		},
		{
			"timestamps": {
				"from": "00:08:02,200",
				"to": "00:08:03,360"
			},
			"offsets": {
				"from": 482200,
				"to": 483360
			},
			"text": " si es escritura."
		},
		{
			"timestamps": {
				"from": "00:08:03,360",
				"to": "00:08:05,640"
			},
			"offsets": {
				"from": 483360,
				"to": 485640
			},
			"text": " Si tenéis críos o personas"
		},
		{
			"timestamps": {
				"from": "00:08:05,640",
				"to": "00:08:07,930"
			},
			"offsets": {
				"from": 485640,
				"to": 487930
			},
			"text": " mayores, que también es viable,"
		},
		{
			"timestamps": {
				"from": "00:08:07,930",
				"to": "00:08:10,120"
			},
			"offsets": {
				"from": 487930,
				"to": 490120
			},
			"text": " os recomiendo que le echéis un"
		},
		{
			"timestamps": {
				"from": "00:08:10,120",
				"to": "00:08:12,240"
			},
			"offsets": {
				"from": 490120,
				"to": 492240
			},
			"text": " vistazo, aparte GCompris"
		},
		{
			"timestamps": {
				"from": "00:08:12,240",
				"to": "00:08:14,850"
			},
			"offsets": {
				"from": 492240,
				"to": 494850
			},
			"text": " está en Android, Mac, Windows,"
		},
		{
			"timestamps": {
				"from": "00:08:14,850",
				"to": "00:08:17,050"
			},
			"offsets": {
				"from": 494850,
				"to": 497050
			},
			"text": " Flatpak, vamos, lo podéis"
		},
		{
			"timestamps": {
				"from": "00:08:17,050",
				"to": "00:08:18,390"
			},
			"offsets": {
				"from": 497050,
				"to": 498390
			},
			"text": " instalar prácticamente en"
		},
		{
			"timestamps": {
				"from": "00:08:18,390",
				"to": "00:08:19,660"
			},
			"offsets": {
				"from": 498390,
				"to": 499660
			},
			"text": " cualquier sitio, no vais a"
		},
		{
			"timestamps": {
				"from": "00:08:19,660",
				"to": "00:08:20,640"
			},
			"offsets": {
				"from": 499660,
				"to": 500640
			},
			"text": " tener problemas."
		},
		{
			"timestamps": {
				"from": "00:08:20,640",
				"to": "00:08:23,070"
			},
			"offsets": {
				"from": 500640,
				"to": 503070
			},
			"text": " Luego digiKam 8.3 incorpora un"
		},
		{
			"timestamps": {
				"from": "00:08:23,070",
				"to": "00:08:25,790"
			},
			"offsets": {
				"from": 503070,
				"to": 505790
			},
			"text": " descodificador RAW interno. digiKam"
		},
		{
			"timestamps": {
				"from": "00:08:25,790",
				"to": "00:08:28,350"
			},
			"offsets": {
				"from": 505790,
				"to": 508350
			},
			"text": " es la aplicación de organización"
		},
		{
			"timestamps": {
				"from": "00:08:28,350",
				"to": "00:08:30,400"
			},
			"offsets": {
				"from": 508350,
				"to": 510400
			},
			"text": " fotográfica, organización"
		},
		{
			"timestamps": {
				"from": "00:08:30,400",
				"to": "00:08:31,760"
			},
			"offsets": {
				"from": 510400,
				"to": 511760
			},
			"text": " plus plus diría yo, porque"
		},
		{
			"timestamps": {
				"from": "00:08:31,760",
				"to": "00:08:32,800"
			},
			"offsets": {
				"from": 511760,
				"to": 512800
			},
			"text": " tienes que hacer muchas cosas."
		},
		{
			"timestamps": {
				"from": "00:08:32,800",
				"to": "00:08:34,420"
			},
			"offsets": {
				"from": 512800,
				"to": 514420
			},
			"text": " Yo tengo ahí organizado mis"
		},
		{
			"timestamps": {
				"from": "00:08:34,420",
				"to": "00:08:36,030"
			},
			"offsets": {
				"from": 514420,
				"to": 516030
			},
			"text": " fotos y tengo etiquetadas en"
		},
		{
			"timestamps": {
				"from": "00:08:36,030",
				"to": "00:08:37,640"
			},
			"offsets": {
				"from": 516030,
				"to": 517640
			},
			"text": " las caras para saber en todas"
		},
		{
			"timestamps": {
				"from": "00:08:37,640",
				"to": "00:08:39,170"
			},
			"offsets": {
				"from": 517640,
				"to": 519170
			},
			"text": " las fotos que salgo yo con mi"
		},
		{
			"timestamps": {
				"from": "00:08:39,170",
				"to": "00:08:40,850"
			},
			"offsets": {
				"from": 519170,
				"to": 520850
			},
			"text": " mujer, en todas las fotos que"
		},
		{
			"timestamps": {
				"from": "00:08:40,850",
				"to": "00:08:42,640"
			},
			"offsets": {
				"from": 520850,
				"to": 522640
			},
			"text": " sale mi hija con no sé qué."
		},
		{
			"timestamps": {
				"from": "00:08:42,640",
				"to": "00:08:44,390"
			},
			"offsets": {
				"from": 522640,
				"to": 524390
			},
			"text": " Y como está en local, pues no"
		},
		{
			"timestamps": {
				"from": "00:08:44,390",
				"to": "00:08:46,070"
			},
			"offsets": {
				"from": 524390,
				"to": 526070
			},
			"text": " es esto de Google Fotos de que"
		},
		{
			"timestamps": {
				"from": "00:08:46,070",
				"to": "00:08:47,760"
			},
			"offsets": {
				"from": 526070,
				"to": 527760
			},
			"text": " sabe hasta dónde has pasado"
		},
		{
			"timestamps": {
				"from": "00:08:47,760",
				"to": "00:08:49,460"
			},
			"offsets": {
				"from": 527760,
				"to": 529460
			},
			"text": " las navidades. Funciona muy"
		},
		{
			"timestamps": {
				"from": "00:08:49,460",
				"to": "00:08:50,870"
			},
			"offsets": {
				"from": 529460,
				"to": 530870
			},
			"text": " bien, se van actualizando cada"
		},
		{
			"timestamps": {
				"from": "00:08:50,870",
				"to": "00:08:51,760"
			},
			"offsets": {
				"from": 530870,
				"to": 531760
			},
			"text": " cierto tiempo."
		},
		{
			"timestamps": {
				"from": "00:08:51,760",
				"to": "00:08:53,670"
			},
			"offsets": {
				"from": 531760,
				"to": 533670
			},
			"text": " Esta característica en concreto"
		},
		{
			"timestamps": {
				"from": "00:08:53,670",
				"to": "00:08:55,370"
			},
			"offsets": {
				"from": 533670,
				"to": 535370
			},
			"text": " es para gente más aficionada a"
		},
		{
			"timestamps": {
				"from": "00:08:55,370",
				"to": "00:08:57,150"
			},
			"offsets": {
				"from": 535370,
				"to": 537150
			},
			"text": " la fotografía, porque es raro"
		},
		{
			"timestamps": {
				"from": "00:08:57,150",
				"to": "00:08:58,850"
			},
			"offsets": {
				"from": 537150,
				"to": 538850
			},
			"text": " que lo tengáis si hacéis foto"
		},
		{
			"timestamps": {
				"from": "00:08:58,850",
				"to": "00:09:00,440"
			},
			"offsets": {
				"from": 538850,
				"to": 540440
			},
			"text": " con el móvil, aunque ya hay"
		},
		{
			"timestamps": {
				"from": "00:09:00,440",
				"to": "00:09:02,560"
			},
			"offsets": {
				"from": 540440,
				"to": 542560
			},
			"text": " móviles que también lo hacen."
		},
		{
			"timestamps": {
				"from": "00:09:02,560",
				"to": "00:09:04,110"
			},
			"offsets": {
				"from": 542560,
				"to": 544110
			},
			"text": " Pero bueno, está bien que"
		},
		{
			"timestamps": {
				"from": "00:09:04,110",
				"to": "00:09:05,730"
			},
			"offsets": {
				"from": 544110,
				"to": 545730
			},
			"text": " sigue mejorando en todos los"
		},
		{
			"timestamps": {
				"from": "00:09:05,730",
				"to": "00:09:06,560"
			},
			"offsets": {
				"from": 545730,
				"to": 546560
			},
			"text": " aspectos."
		},
		{
			"timestamps": {
				"from": "00:09:06,560",
				"to": "00:09:08,170"
			},
			"offsets": {
				"from": 546560,
				"to": 548170
			},
			"text": " Luego tengo una noticia que"
		},
		{
			"timestamps": {
				"from": "00:09:08,170",
				"to": "00:09:09,920"
			},
			"offsets": {
				"from": 548170,
				"to": 549920
			},
			"text": " para quien no lo sepa puede ser"
		},
		{
			"timestamps": {
				"from": "00:09:09,920",
				"to": "00:09:11,740"
			},
			"offsets": {
				"from": 549920,
				"to": 551740
			},
			"text": " un poco así chocante, estaba"
		},
		{
			"timestamps": {
				"from": "00:09:11,740",
				"to": "00:09:13,710"
			},
			"offsets": {
				"from": 551740,
				"to": 553710
			},
			"text": " dedicada José Jiménez, que es"
		},
		{
			"timestamps": {
				"from": "00:09:13,710",
				"to": "00:09:15,480"
			},
			"offsets": {
				"from": 553710,
				"to": 555480
			},
			"text": " que Fedora 40 vendrá pronto"
		},
		{
			"timestamps": {
				"from": "00:09:15,480",
				"to": "00:09:17,400"
			},
			"offsets": {
				"from": 555480,
				"to": 557400
			},
			"text": " con Plasma 6, pero sin opción"
		},
		{
			"timestamps": {
				"from": "00:09:17,400",
				"to": "00:09:18,240"
			},
			"offsets": {
				"from": 557400,
				"to": 558240
			},
			"text": " de X11."
		},
		{
			"timestamps": {
				"from": "00:09:18,240",
				"to": "00:09:19,490"
			},
			"offsets": {
				"from": 558240,
				"to": 559490
			},
			"text": " Y entonces aquí, en algunos"
		},
		{
			"timestamps": {
				"from": "00:09:19,490",
				"to": "00:09:21,240"
			},
			"offsets": {
				"from": 559490,
				"to": 561240
			},
			"text": " otros sitios ya he hecho la advertencia,"
		},
		{
			"timestamps": {
				"from": "00:09:21,240",
				"to": "00:09:22,480"
			},
			"offsets": {
				"from": 561240,
				"to": 562480
			},
			"text": " pero quería recordarlo."
		},
		{
			"timestamps": {
				"from": "00:09:22,480",
				"to": "00:09:24,710"
			},
			"offsets": {
				"from": 562480,
				"to": 564710
			},
			"text": " Plasma 6 soporta X11 de manera"
		},
		{
			"timestamps": {
				"from": "00:09:24,710",
				"to": "00:09:27,110"
			},
			"offsets": {
				"from": 564710,
				"to": 567110
			},
			"text": " nativa, o sea, no es que en Wayland"
		},
		{
			"timestamps": {
				"from": "00:09:27,110",
				"to": "00:09:29,720"
			},
			"offsets": {
				"from": 567110,
				"to": 569720
			},
			"text": " puedas abrir aplicaciones de X11,"
		},
		{
			"timestamps": {
				"from": "00:09:29,720",
				"to": "00:09:31,410"
			},
			"offsets": {
				"from": 569720,
				"to": 571410
			},
			"text": " que eso lo tienen todos los"
		},
		{
			"timestamps": {
				"from": "00:09:31,410",
				"to": "00:09:33,280"
			},
			"offsets": {
				"from": 571410,
				"to": 573280
			},
			"text": " escritorios con Wayland."
		},
		{
			"timestamps": {
				"from": "00:09:33,280",
				"to": "00:09:35,140"
			},
			"offsets": {
				"from": 573280,
				"to": 575140
			},
			"text": " Plasma 6 está para X11 y"
		},
		{
			"timestamps": {
				"from": "00:09:35,140",
				"to": "00:09:37,230"
			},
			"offsets": {
				"from": 575140,
				"to": 577230
			},
			"text": " funciona con X11, de hecho yo"
		},
		{
			"timestamps": {
				"from": "00:09:37,230",
				"to": "00:09:38,740"
			},
			"offsets": {
				"from": 577230,
				"to": 578740
			},
			"text": " tengo un portátil en el que"
		},
		{
			"timestamps": {
				"from": "00:09:38,740",
				"to": "00:09:40,580"
			},
			"offsets": {
				"from": 578740,
				"to": 580580
			},
			"text": " arranco sesión de Plasma 6 con"
		},
		{
			"timestamps": {
				"from": "00:09:40,580",
				"to": "00:09:42,920"
			},
			"offsets": {
				"from": 580580,
				"to": 582920
			},
			"text": " X11 porque me pasa algo con las"
		},
		{
			"timestamps": {
				"from": "00:09:42,920",
				"to": "00:09:44,410"
			},
			"offsets": {
				"from": 582920,
				"to": 584410
			},
			"text": " gráficas que son duales de"
		},
		{
			"timestamps": {
				"from": "00:09:44,410",
				"to": "00:09:45,840"
			},
			"offsets": {
				"from": 584410,
				"to": 585840
			},
			"text": " interna y externa."
		},
		{
			"timestamps": {
				"from": "00:09:45,840",
				"to": "00:09:47,840"
			},
			"offsets": {
				"from": 585840,
				"to": 587840
			},
			"text": " La cosa es que Fedora, la"
		},
		{
			"timestamps": {
				"from": "00:09:47,840",
				"to": "00:09:49,860"
			},
			"offsets": {
				"from": 587840,
				"to": 589860
			},
			"text": " distribución, ha decidido que"
		},
		{
			"timestamps": {
				"from": "00:09:49,860",
				"to": "00:09:52,430"
			},
			"offsets": {
				"from": 589860,
				"to": 592430
			},
			"text": " X11 ya es demasiado antiguo y"
		},
		{
			"timestamps": {
				"from": "00:09:52,430",
				"to": "00:09:54,150"
			},
			"offsets": {
				"from": 592430,
				"to": 594150
			},
			"text": " que ellos no van a empaquetar"
		},
		{
			"timestamps": {
				"from": "00:09:54,150",
				"to": "00:09:56,080"
			},
			"offsets": {
				"from": 594150,
				"to": 596080
			},
			"text": " el soporte de X11."
		},
		{
			"timestamps": {
				"from": "00:09:56,080",
				"to": "00:09:57,560"
			},
			"offsets": {
				"from": 596080,
				"to": 597560
			},
			"text": " No significa que Plasma 6 no"
		},
		{
			"timestamps": {
				"from": "00:09:57,560",
				"to": "00:09:59,030"
			},
			"offsets": {
				"from": 597560,
				"to": 599030
			},
			"text": " vaya a funcionar en cualquier"
		},
		{
			"timestamps": {
				"from": "00:09:59,030",
				"to": "00:10:01,160"
			},
			"offsets": {
				"from": 599030,
				"to": 601160
			},
			"text": " otra distribución con X11. Sí,"
		},
		{
			"timestamps": {
				"from": "00:10:01,160",
				"to": "00:10:02,520"
			},
			"offsets": {
				"from": 601160,
				"to": 602520
			},
			"text": " seguramente lo van a hacer en"
		},
		{
			"timestamps": {
				"from": "00:10:02,520",
				"to": "00:10:04,350"
			},
			"offsets": {
				"from": 602520,
				"to": 604350
			},
			"text": " muchas, pero este es el pistoletazo"
		},
		{
			"timestamps": {
				"from": "00:10:04,350",
				"to": "00:10:06,560"
			},
			"offsets": {
				"from": 604350,
				"to": 606560
			},
			"text": " de salida para tener en cuenta"
		},
		{
			"timestamps": {
				"from": "00:10:06,560",
				"to": "00:10:09,020"
			},
			"offsets": {
				"from": 606560,
				"to": 609020
			},
			"text": " que X11, más pronto que tarde,"
		},
		{
			"timestamps": {
				"from": "00:10:09,020",
				"to": "00:10:10,160"
			},
			"offsets": {
				"from": 609020,
				"to": 610160
			},
			"text": " va a ir desapareciendo de"
		},
		{
			"timestamps": {
				"from": "00:10:10,160",
				"to": "00:10:11,520"
			},
			"offsets": {
				"from": 610160,
				"to": 611520
			},
			"text": " algunas distribuciones."
		},
		{
			"timestamps": {
				"from": "00:10:11,520",
				"to": "00:10:13,290"
			},
			"offsets": {
				"from": 611520,
				"to": 613290
			},
			"text": " En algunas, por ejemplo, Debian,"
		},
		{
			"timestamps": {
				"from": "00:10:13,290",
				"to": "00:10:14,900"
			},
			"offsets": {
				"from": 613290,
				"to": 614900
			},
			"text": " yo creo que dentro de 10 años"
		},
		{
			"timestamps": {
				"from": "00:10:14,900",
				"to": "00:10:16,940"
			},
			"offsets": {
				"from": 614900,
				"to": 616940
			},
			"text": " lo mismo todavía podemos arrancar"
		},
		{
			"timestamps": {
				"from": "00:10:16,940",
				"to": "00:10:18,190"
			},
			"offsets": {
				"from": 616940,
				"to": 618190
			},
			"text": " porque Plasma 6 tiene soporte"
		},
		{
			"timestamps": {
				"from": "00:10:18,190",
				"to": "00:10:19,760"
			},
			"offsets": {
				"from": 618190,
				"to": 619760
			},
			"text": " para mucho, mucho tiempo."
		},
		{
			"timestamps": {
				"from": "00:10:19,760",
				"to": "00:10:21,640"
			},
			"offsets": {
				"from": 619760,
				"to": 621640
			},
			"text": " Pero sí es verdad que ya vamos"
		},
		{
			"timestamps": {
				"from": "00:10:21,640",
				"to": "00:10:23,170"
			},
			"offsets": {
				"from": 621640,
				"to": 623170
			},
			"text": " a tener que ir teniendo en"
		},
		{
			"timestamps": {
				"from": "00:10:23,170",
				"to": "00:10:24,660"
			},
			"offsets": {
				"from": 623170,
				"to": 624660
			},
			"text": " cuenta que si tenemos un"
		},
		{
			"timestamps": {
				"from": "00:10:24,660",
				"to": "00:10:26,750"
			},
			"offsets": {
				"from": 624660,
				"to": 626750
			},
			"text": " hardware específico, como una"
		},
		{
			"timestamps": {
				"from": "00:10:26,750",
				"to": "00:10:28,530"
			},
			"offsets": {
				"from": 626750,
				"to": 628530
			},
			"text": " NVIDIA muy antigua, que los"
		},
		{
			"timestamps": {
				"from": "00:10:28,530",
				"to": "00:10:30,300"
			},
			"offsets": {
				"from": 628530,
				"to": 630300
			},
			"text": " drivers propietarios no lo soportan"
		},
		{
			"timestamps": {
				"from": "00:10:30,300",
				"to": "00:10:31,920"
			},
			"offsets": {
				"from": 630300,
				"to": 631920
			},
			"text": " porque dejaron de dar soporte,"
		},
		{
			"timestamps": {
				"from": "00:10:31,920",
				"to": "00:10:33,760"
			},
			"offsets": {
				"from": 631920,
				"to": 633760
			},
			"text": " valga la redundancia."
		},
		{
			"timestamps": {
				"from": "00:10:33,760",
				"to": "00:10:36,100"
			},
			"offsets": {
				"from": 633760,
				"to": 636100
			},
			"text": " El driver Open Source sí que"
		},
		{
			"timestamps": {
				"from": "00:10:36,100",
				"to": "00:10:38,990"
			},
			"offsets": {
				"from": 636100,
				"to": 638990
			},
			"text": " soporta que vaya bien con Wayland,"
		},
		{
			"timestamps": {
				"from": "00:10:38,990",
				"to": "00:10:42,080"
			},
			"offsets": {
				"from": 638990,
				"to": 642080
			},
			"text": " pero tengo 3 monitores..."
		},
		{
			"timestamps": {
				"from": "00:10:42,080",
				"to": "00:10:43,580"
			},
			"offsets": {
				"from": 642080,
				"to": 643580
			},
			"text": " La cosa es que tendréis que ir"
		},
		{
			"timestamps": {
				"from": "00:10:43,580",
				"to": "00:10:45,260"
			},
			"offsets": {
				"from": 643580,
				"to": 645260
			},
			"text": " probando, yo espero que Wayland"
		},
		{
			"timestamps": {
				"from": "00:10:45,260",
				"to": "00:10:46,990"
			},
			"offsets": {
				"from": 645260,
				"to": 646990
			},
			"text": " haya mejorado suficientemente y"
		},
		{
			"timestamps": {
				"from": "00:10:46,990",
				"to": "00:10:49,220"
			},
			"offsets": {
				"from": 646990,
				"to": 649220
			},
			"text": " los drivers hayan mejorado suficientemente"
		},
		{
			"timestamps": {
				"from": "00:10:49,220",
				"to": "00:10:50,660"
			},
			"offsets": {
				"from": 649220,
				"to": 650660
			},
			"text": " para que le funcione a todo el"
		},
		{
			"timestamps": {
				"from": "00:10:50,660",
				"to": "00:10:52,290"
			},
			"offsets": {
				"from": 650660,
				"to": 652290
			},
			"text": " mundo, pero habrá algún caso"
		},
		{
			"timestamps": {
				"from": "00:10:52,290",
				"to": "00:10:54,210"
			},
			"offsets": {
				"from": 652290,
				"to": 654210
			},
			"text": " en el que lo mismo hay que"
		},
		{
			"timestamps": {
				"from": "00:10:54,210",
				"to": "00:10:56,240"
			},
			"offsets": {
				"from": 654210,
				"to": 656240
			},
			"text": " cambiar de distribución."
		},
		{
			"timestamps": {
				"from": "00:10:56,240",
				"to": "00:10:57,670"
			},
			"offsets": {
				"from": 656240,
				"to": 657670
			},
			"text": " O lo mismo, como esto es"
		},
		{
			"timestamps": {
				"from": "00:10:57,670",
				"to": "00:10:59,670"
			},
			"offsets": {
				"from": 657670,
				"to": 659670
			},
			"text": " software libre, alguien saca un"
		},
		{
			"timestamps": {
				"from": "00:10:59,670",
				"to": "00:11:01,640"
			},
			"offsets": {
				"from": 659670,
				"to": 661640
			},
			"text": " repositorio, creo que en Fedora"
		},
		{
			"timestamps": {
				"from": "00:11:01,640",
				"to": "00:11:04,080"
			},
			"offsets": {
				"from": 661640,
				"to": 664080
			},
			"text": " es Kopr o algo así, y le da soporte."
		},
		{
			"timestamps": {
				"from": "00:11:04,080",
				"to": "00:11:06,130"
			},
			"offsets": {
				"from": 664080,
				"to": 666130
			},
			"text": " Sé que en Fedora 40 es posible"
		},
		{
			"timestamps": {
				"from": "00:11:06,130",
				"to": "00:11:08,110"
			},
			"offsets": {
				"from": 666130,
				"to": 668110
			},
			"text": " que Gnome todavía lo tenga,"
		},
		{
			"timestamps": {
				"from": "00:11:08,110",
				"to": "00:11:09,790"
			},
			"offsets": {
				"from": 668110,
				"to": 669790
			},
			"text": " pero Gnome también por lo que"
		},
		{
			"timestamps": {
				"from": "00:11:09,790",
				"to": "00:11:11,550"
			},
			"offsets": {
				"from": 669790,
				"to": 671550
			},
			"text": " he leído está pensando en la"
		},
		{
			"timestamps": {
				"from": "00:11:11,550",
				"to": "00:11:13,920"
			},
			"offsets": {
				"from": 671550,
				"to": 673920
			},
			"text": " 41 cargarse el soporte X11."
		},
		{
			"timestamps": {
				"from": "00:11:13,920",
				"to": "00:11:16,450"
			},
			"offsets": {
				"from": 673920,
				"to": 676450
			},
			"text": " Así que probar y ir teniendo"
		},
		{
			"timestamps": {
				"from": "00:11:16,450",
				"to": "00:11:19,220"
			},
			"offsets": {
				"from": 676450,
				"to": 679220
			},
			"text": " una distribución de cabecera"
		},
		{
			"timestamps": {
				"from": "00:11:19,220",
				"to": "00:11:21,530"
			},
			"offsets": {
				"from": 679220,
				"to": 681530
			},
			"text": " como plan B por si queréis"
		},
		{
			"timestamps": {
				"from": "00:11:21,530",
				"to": "00:11:24,490"
			},
			"offsets": {
				"from": 681530,
				"to": 684490
			},
			"text": " seguir usando Plasma y X11 ya"
		},
		{
			"timestamps": {
				"from": "00:11:24,490",
				"to": "00:11:27,120"
			},
			"offsets": {
				"from": 684490,
				"to": 687120
			},
			"text": " dejar de ser una opción."
		},
		{
			"timestamps": {
				"from": "00:11:27,120",
				"to": "00:11:29,350"
			},
			"offsets": {
				"from": 687120,
				"to": 689350
			},
			"text": " Yo, aunque tengo pendiente de"
		},
		{
			"timestamps": {
				"from": "00:11:29,350",
				"to": "00:11:32,270"
			},
			"offsets": {
				"from": 689350,
				"to": 692270
			},
			"text": " probarla, ya directamente recomiendo"
		},
		{
			"timestamps": {
				"from": "00:11:32,270",
				"to": "00:11:34,960"
			},
			"offsets": {
				"from": 692270,
				"to": 694960
			},
			"text": " que probéis OpenSUSE SlowRoll,"
		},
		{
			"timestamps": {
				"from": "00:11:34,960",
				"to": "00:11:36,540"
			},
			"offsets": {
				"from": 694960,
				"to": 696540
			},
			"text": " porque sobre el papel tiene"
		},
		{
			"timestamps": {
				"from": "00:11:36,540",
				"to": "00:11:38,110"
			},
			"offsets": {
				"from": 696540,
				"to": 698110
			},
			"text": " todo lo que yo le pido a una"
		},
		{
			"timestamps": {
				"from": "00:11:38,110",
				"to": "00:11:39,920"
			},
			"offsets": {
				"from": 698110,
				"to": 699920
			},
			"text": " distribución para poner en"
		},
		{
			"timestamps": {
				"from": "00:11:39,920",
				"to": "00:11:40,320"
			},
			"offsets": {
				"from": 699920,
				"to": 700320
			},
			"text": " masa."
		},
		{
			"timestamps": {
				"from": "00:11:40,320",
				"to": "00:11:42,140"
			},
			"offsets": {
				"from": 700320,
				"to": 702140
			},
			"text": " Tiene muy buen soporte, viene"
		},
		{
			"timestamps": {
				"from": "00:11:42,140",
				"to": "00:11:43,610"
			},
			"offsets": {
				"from": 702140,
				"to": 703610
			},
			"text": " de una compañía y de una"
		},
		{
			"timestamps": {
				"from": "00:11:43,610",
				"to": "00:11:45,710"
			},
			"offsets": {
				"from": 703610,
				"to": 705710
			},
			"text": " comunidad muy grande, como es SUSE"
		},
		{
			"timestamps": {
				"from": "00:11:45,710",
				"to": "00:11:47,970"
			},
			"offsets": {
				"from": 705710,
				"to": 707970
			},
			"text": " y como es la comunidad de OpenSUSE,"
		},
		{
			"timestamps": {
				"from": "00:11:47,970",
				"to": "00:11:49,530"
			},
			"offsets": {
				"from": 707970,
				"to": 709530
			},
			"text": " es una distribución de las"
		},
		{
			"timestamps": {
				"from": "00:11:49,530",
				"to": "00:11:51,470"
			},
			"offsets": {
				"from": 709530,
				"to": 711470
			},
			"text": " primeras, de las grandes, con"
		},
		{
			"timestamps": {
				"from": "00:11:51,470",
				"to": "00:11:52,830"
			},
			"offsets": {
				"from": 711470,
				"to": 712830
			},
			"text": " lo cual tiene un montón de"
		},
		{
			"timestamps": {
				"from": "00:11:52,830",
				"to": "00:11:55,120"
			},
			"offsets": {
				"from": 712830,
				"to": 715120
			},
			"text": " desarrollo detrás, son punteros."
		},
		{
			"timestamps": {
				"from": "00:11:55,120",
				"to": "00:11:57,110"
			},
			"offsets": {
				"from": 715120,
				"to": 717110
			},
			"text": " No es tan tan tan tan tan moderna"
		},
		{
			"timestamps": {
				"from": "00:11:57,110",
				"to": "00:11:59,520"
			},
			"offsets": {
				"from": 717110,
				"to": 719520
			},
			"text": " y rolling release como Tumbleweed,"
		},
		{
			"timestamps": {
				"from": "00:11:59,520",
				"to": "00:12:00,990"
			},
			"offsets": {
				"from": 719520,
				"to": 720990
			},
			"text": " con lo cual va a ser más"
		},
		{
			"timestamps": {
				"from": "00:12:00,990",
				"to": "00:12:03,040"
			},
			"offsets": {
				"from": 720990,
				"to": 723040
			},
			"text": " estable y va a ser más sencillo"
		},
		{
			"timestamps": {
				"from": "00:12:03,040",
				"to": "00:12:05,060"
			},
			"offsets": {
				"from": 723040,
				"to": 725060
			},
			"text": " de manejar, no vais a tener que"
		},
		{
			"timestamps": {
				"from": "00:12:05,060",
				"to": "00:12:07,120"
			},
			"offsets": {
				"from": 725060,
				"to": 727120
			},
			"text": " estar tan pendiente de actualizaciones."
		},
		{
			"timestamps": {
				"from": "00:12:07,120",
				"to": "00:12:08,580"
			},
			"offsets": {
				"from": 727120,
				"to": 728580
			},
			"text": " Pero no va a ser tan tan tan"
		},
		{
			"timestamps": {
				"from": "00:12:08,580",
				"to": "00:12:09,980"
			},
			"offsets": {
				"from": 728580,
				"to": 729980
			},
			"text": " lentas como otras que vas a"
		},
		{
			"timestamps": {
				"from": "00:12:09,980",
				"to": "00:12:11,470"
			},
			"offsets": {
				"from": 729980,
				"to": 731470
			},
			"text": " tener que estar viendo si"
		},
		{
			"timestamps": {
				"from": "00:12:11,470",
				"to": "00:12:13,230"
			},
			"offsets": {
				"from": 731470,
				"to": 733230
			},
			"text": " instalas esto en Flatpak, que si"
		},
		{
			"timestamps": {
				"from": "00:12:13,230",
				"to": "00:12:15,120"
			},
			"offsets": {
				"from": 733230,
				"to": 735120
			},
			"text": " instalas esto en no sé qué,"
		},
		{
			"timestamps": {
				"from": "00:12:15,120",
				"to": "00:12:16,740"
			},
			"offsets": {
				"from": 735120,
				"to": 736740
			},
			"text": " aunque yo la verdad es que instalarlo"
		},
		{
			"timestamps": {
				"from": "00:12:16,740",
				"to": "00:12:18,120"
			},
			"offsets": {
				"from": 736740,
				"to": 738120
			},
			"text": " en Flatpak me va bastante bien."
		},
		{
			"timestamps": {
				"from": "00:12:18,120",
				"to": "00:12:19,850"
			},
			"offsets": {
				"from": 738120,
				"to": 739850
			},
			"text": " Pero no sé, creo que tiene una"
		},
		{
			"timestamps": {
				"from": "00:12:19,850",
				"to": "00:12:21,780"
			},
			"offsets": {
				"from": 739850,
				"to": 741780
			},
			"text": " cosa ahí, un intermedio que"
		},
		{
			"timestamps": {
				"from": "00:12:21,780",
				"to": "00:12:23,120"
			},
			"offsets": {
				"from": 741780,
				"to": 743120
			},
			"text": " merece la pena probarlo."
		},
		{
			"timestamps": {
				"from": "00:12:23,120",
				"to": "00:12:24,860"
			},
			"offsets": {
				"from": 743120,
				"to": 744860
			},
			"text": " Y luego, aunque yo no soy muy"
		},
		{
			"timestamps": {
				"from": "00:12:24,860",
				"to": "00:12:27,000"
			},
			"offsets": {
				"from": 744860,
				"to": 747000
			},
			"text": " fan, estoy a favor de la libertad,"
		},
		{
			"timestamps": {
				"from": "00:12:27,000",
				"to": "00:12:28,870"
			},
			"offsets": {
				"from": 747000,
				"to": 748870
			},
			"text": " el software libre, no se puede"
		},
		{
			"timestamps": {
				"from": "00:12:28,870",
				"to": "00:12:31,340"
			},
			"offsets": {
				"from": 748870,
				"to": 751340
			},
			"text": " guardar que haya nuevas distribuciones"
		},
		{
			"timestamps": {
				"from": "00:12:31,340",
				"to": "00:12:32,960"
			},
			"offsets": {
				"from": 751340,
				"to": 752960
			},
			"text": " porque si no esto no sería"
		},
		{
			"timestamps": {
				"from": "00:12:32,960",
				"to": "00:12:34,120"
			},
			"offsets": {
				"from": 752960,
				"to": 754120
			},
			"text": " software libre."
		},
		{
			"timestamps": {
				"from": "00:12:34,120",
				"to": "00:12:35,530"
			},
			"offsets": {
				"from": 754120,
				"to": 755530
			},
			"text": " Pero si es verdad que dentro de"
		},
		{
			"timestamps": {
				"from": "00:12:35,530",
				"to": "00:12:36,950"
			},
			"offsets": {
				"from": 755530,
				"to": 756950
			},
			"text": " que tiene que haber libertad y"
		},
		{
			"timestamps": {
				"from": "00:12:36,950",
				"to": "00:12:38,470"
			},
			"offsets": {
				"from": 756950,
				"to": 758470
			},
			"text": " si no hubiera habido libertad,"
		},
		{
			"timestamps": {
				"from": "00:12:38,470",
				"to": "00:12:40,180"
			},
			"offsets": {
				"from": 758470,
				"to": 760180
			},
			"text": " una de las que hoy son grandes,"
		},
		{
			"timestamps": {
				"from": "00:12:40,180",
				"to": "00:12:41,580"
			},
			"offsets": {
				"from": 760180,
				"to": 761580
			},
			"text": " ayer no se hubieran podido"
		},
		{
			"timestamps": {
				"from": "00:12:41,580",
				"to": "00:12:43,250"
			},
			"offsets": {
				"from": 761580,
				"to": 763250
			},
			"text": " crear, no estoy por ir probando"
		},
		{
			"timestamps": {
				"from": "00:12:43,250",
				"to": "00:12:44,610"
			},
			"offsets": {
				"from": 763250,
				"to": 764610
			},
			"text": " todas las nuevas distros que"
		},
		{
			"timestamps": {
				"from": "00:12:44,610",
				"to": "00:12:45,120"
			},
			"offsets": {
				"from": 764610,
				"to": 765120
			},
			"text": " aparecen."
		},
		{
			"timestamps": {
				"from": "00:12:45,120",
				"to": "00:12:47,020"
			},
			"offsets": {
				"from": 765120,
				"to": 767020
			},
			"text": " Pero aún así, yo las menciono"
		},
		{
			"timestamps": {
				"from": "00:12:47,020",
				"to": "00:12:48,710"
			},
			"offsets": {
				"from": 767020,
				"to": 768710
			},
			"text": " y cada uno es libre de probar y"
		},
		{
			"timestamps": {
				"from": "00:12:48,710",
				"to": "00:12:50,120"
			},
			"offsets": {
				"from": 768710,
				"to": 770120
			},
			"text": " ver si les va mejor."
		},
		{
			"timestamps": {
				"from": "00:12:50,120",
				"to": "00:12:52,200"
			},
			"offsets": {
				"from": 770120,
				"to": 772200
			},
			"text": " Y lo mismo el día de mañana,"
		},
		{
			"timestamps": {
				"from": "00:12:52,200",
				"to": "00:12:54,320"
			},
			"offsets": {
				"from": 772200,
				"to": 774320
			},
			"text": " una de estas pega el petardazo"
		},
		{
			"timestamps": {
				"from": "00:12:54,320",
				"to": "00:12:56,050"
			},
			"offsets": {
				"from": 774320,
				"to": 776050
			},
			"text": " y se convierte en una de las"
		},
		{
			"timestamps": {
				"from": "00:12:56,050",
				"to": "00:12:57,120"
			},
			"offsets": {
				"from": 776050,
				"to": 777120
			},
			"text": " principales."
		},
		{
			"timestamps": {
				"from": "00:12:57,120",
				"to": "00:12:59,240"
			},
			"offsets": {
				"from": 777120,
				"to": 779240
			},
			"text": " Y todo este rollo venía porque"
		},
		{
			"timestamps": {
				"from": "00:12:59,240",
				"to": "00:13:01,070"
			},
			"offsets": {
				"from": 779240,
				"to": 781070
			},
			"text": " hay una nueva distro que se"
		},
		{
			"timestamps": {
				"from": "00:13:01,070",
				"to": "00:13:02,590"
			},
			"offsets": {
				"from": 781070,
				"to": 782590
			},
			"text": " llama X-Ray OS, que por lo que"
		},
		{
			"timestamps": {
				"from": "00:13:02,590",
				"to": "00:13:03,850"
			},
			"offsets": {
				"from": 782590,
				"to": 783850
			},
			"text": " he podido leer, y por supuesto"
		},
		{
			"timestamps": {
				"from": "00:13:03,850",
				"to": "00:13:05,050"
			},
			"offsets": {
				"from": 783850,
				"to": 785050
			},
			"text": " tenéis en las notas del"
		},
		{
			"timestamps": {
				"from": "00:13:05,050",
				"to": "00:13:06,120"
			},
			"offsets": {
				"from": 785050,
				"to": 786120
			},
			"text": " programa el enlace,"
		},
		{
			"timestamps": {
				"from": "00:13:06,120",
				"to": "00:13:07,780"
			},
			"offsets": {
				"from": 786120,
				"to": 787780
			},
			"text": " es una especie de Arch Linux"
		},
		{
			"timestamps": {
				"from": "00:13:07,780",
				"to": "00:13:09,960"
			},
			"offsets": {
				"from": 787780,
				"to": 789960
			},
			"text": " Vanilla, que son los repositorios"
		},
		{
			"timestamps": {
				"from": "00:13:09,960",
				"to": "00:13:12,430"
			},
			"offsets": {
				"from": 789960,
				"to": 792430
			},
			"text": " de Arch sin meterle muchos repositorios"
		},
		{
			"timestamps": {
				"from": "00:13:12,430",
				"to": "00:13:14,120"
			},
			"offsets": {
				"from": 792430,
				"to": 794120
			},
			"text": " propios y hacer grandes cambios,"
		},
		{
			"timestamps": {
				"from": "00:13:14,120",
				"to": "00:13:15,640"
			},
			"offsets": {
				"from": 794120,
				"to": 795640
			},
			"text": " que está enfocada a juegos y"
		},
		{
			"timestamps": {
				"from": "00:13:15,640",
				"to": "00:13:17,030"
			},
			"offsets": {
				"from": 795640,
				"to": 797030
			},
			"text": " que por supuesto viene con"
		},
		{
			"timestamps": {
				"from": "00:13:17,030",
				"to": "00:13:18,120"
			},
			"offsets": {
				"from": 797030,
				"to": 798120
			},
			"text": " Plasma por defecto."
		},
		{
			"timestamps": {
				"from": "00:13:18,120",
				"to": "00:13:19,680"
			},
			"offsets": {
				"from": 798120,
				"to": 799680
			},
			"text": " Y al final, que como en Devor,"
		},
		{
			"timestamps": {
				"from": "00:13:19,680",
				"to": "00:13:21,180"
			},
			"offsets": {
				"from": 799680,
				"to": 801180
			},
			"text": " lo que hace es que puedas tener"
		},
		{
			"timestamps": {
				"from": "00:13:21,180",
				"to": "00:13:22,700"
			},
			"offsets": {
				"from": 801180,
				"to": 802700
			},
			"text": " un Plasma sin tener que hacer"
		},
		{
			"timestamps": {
				"from": "00:13:22,700",
				"to": "00:13:24,120"
			},
			"offsets": {
				"from": 802700,
				"to": 804120
			},
			"text": " el proceso de instalación"
		},
		{
			"timestamps": {
				"from": "00:13:24,120",
				"to": "00:13:26,120"
			},
			"offsets": {
				"from": 804120,
				"to": 806120
			},
			"text": " desde cero por línea de comando"
		},
		{
			"timestamps": {
				"from": "00:13:26,120",
				"to": "00:13:28,450"
			},
			"offsets": {
				"from": 806120,
				"to": 808450
			},
			"text": " o con el menú TUI por el que"
		},
		{
			"timestamps": {
				"from": "00:13:28,450",
				"to": "00:13:30,120"
			},
			"offsets": {
				"from": 808450,
				"to": 810120
			},
			"text": " se puede hacer."
		},
		{
			"timestamps": {
				"from": "00:13:30,120",
				"to": "00:13:31,960"
			},
			"offsets": {
				"from": 810120,
				"to": 811960
			},
			"text": " O sea, es un Arch Linux para"
		},
		{
			"timestamps": {
				"from": "00:13:31,960",
				"to": "00:13:34,440"
			},
			"offsets": {
				"from": 811960,
				"to": 814440
			},
			"text": " humanos de a pie, que algo debe"
		},
		{
			"timestamps": {
				"from": "00:13:34,440",
				"to": "00:13:36,290"
			},
			"offsets": {
				"from": 814440,
				"to": 816290
			},
			"text": " tener especial para juegos, por"
		},
		{
			"timestamps": {
				"from": "00:13:36,290",
				"to": "00:13:38,120"
			},
			"offsets": {
				"from": 816290,
				"to": 818120
			},
			"text": " si lo queréis probar."
		},
		{
			"timestamps": {
				"from": "00:13:38,120",
				"to": "00:13:40,580"
			},
			"offsets": {
				"from": 818120,
				"to": 820580
			},
			"text": " Pues todo este popurrí de noticias"
		},
		{
			"timestamps": {
				"from": "00:13:40,580",
				"to": "00:13:42,450"
			},
			"offsets": {
				"from": 820580,
				"to": 822450
			},
			"text": " es lo que me he ido apuntando"
		},
		{
			"timestamps": {
				"from": "00:13:42,450",
				"to": "00:13:43,120"
			},
			"offsets": {
				"from": 822450,
				"to": 823120
			},
			"text": " este mes."
		},
		{
			"timestamps": {
				"from": "00:13:43,120",
				"to": "00:13:45,230"
			},
			"offsets": {
				"from": 823120,
				"to": 825230
			},
			"text": " La verdad es que esto viene"
		},
		{
			"timestamps": {
				"from": "00:13:45,230",
				"to": "00:13:47,960"
			},
			"offsets": {
				"from": 825230,
				"to": 827960
			},
			"text": " siendo una lectura del artículo"
		},
		{
			"timestamps": {
				"from": "00:13:47,960",
				"to": "00:13:49,120"
			},
			"offsets": {
				"from": 827960,
				"to": 829120
			},
			"text": " que voy a tener,"
		},
		{
			"timestamps": {
				"from": "00:13:49,120",
				"to": "00:13:50,150"
			},
			"offsets": {
				"from": 829120,
				"to": 830150
			},
			"text": " porque la verdad es que el"
		},
		{
			"timestamps": {
				"from": "00:13:50,150",
				"to": "00:13:51,260"
			},
			"offsets": {
				"from": 830150,
				"to": 831260
			},
			"text": " episodio de hoy tiene mucha"
		},
		{
			"timestamps": {
				"from": "00:13:51,260",
				"to": "00:13:52,530"
			},
			"offsets": {
				"from": 831260,
				"to": 832530
			},
			"text": " más gracia si tenéis delante"
		},
		{
			"timestamps": {
				"from": "00:13:52,530",
				"to": "00:13:54,180"
			},
			"offsets": {
				"from": 832530,
				"to": 834180
			},
			"text": " los enlaces, porque son una parrada"
		},
		{
			"timestamps": {
				"from": "00:13:54,180",
				"to": "00:13:55,310"
			},
			"offsets": {
				"from": 834180,
				"to": 835310
			},
			"text": " de enlaces por si queréis"
		},
		{
			"timestamps": {
				"from": "00:13:55,310",
				"to": "00:13:56,120"
			},
			"offsets": {
				"from": 835310,
				"to": 836120
			},
			"text": " profundizar."
		},
		{
			"timestamps": {
				"from": "00:13:56,120",
				"to": "00:13:58,330"
			},
			"offsets": {
				"from": 836120,
				"to": 838330
			},
			"text": " Pero no quería dejar de comentarlos"
		},
		{
			"timestamps": {
				"from": "00:13:58,330",
				"to": "00:14:00,360"
			},
			"offsets": {
				"from": 838330,
				"to": 840360
			},
			"text": " para que tuvierais ahí un resumen"
		},
		{
			"timestamps": {
				"from": "00:14:00,360",
				"to": "00:14:01,700"
			},
			"offsets": {
				"from": 840360,
				"to": 841700
			},
			"text": " por encima, por si alguno os"
		},
		{
			"timestamps": {
				"from": "00:14:01,700",
				"to": "00:14:02,660"
			},
			"offsets": {
				"from": 841700,
				"to": 842660
			},
			"text": " interesa, ya podréis vosotros"
		},
		{
			"timestamps": {
				"from": "00:14:02,660",
				"to": "00:14:04,120"
			},
			"offsets": {
				"from": 842660,
				"to": 844120
			},
			"text": " investigar más."
		},
		{
			"timestamps": {
				"from": "00:14:04,120",
				"to": "00:14:05,640"
			},
			"offsets": {
				"from": 844120,
				"to": 845640
			},
			"text": " Y así ponernos al día y una"
		},
		{
			"timestamps": {
				"from": "00:14:05,640",
				"to": "00:14:07,510"
			},
			"offsets": {
				"from": 845640,
				"to": 847510
			},
			"text": " vez que haya terminado el periplo"
		},
		{
			"timestamps": {
				"from": "00:14:07,510",
				"to": "00:14:10,120"
			},
			"offsets": {
				"from": 847510,
				"to": 850120
			},
			"text": " de pasar por Mancomún, por Wihax"
		},
		{
			"timestamps": {
				"from": "00:14:10,120",
				"to": "00:14:12,600"
			},
			"offsets": {
				"from": 850120,
				"to": 852600
			},
			"text": " y por accesibilidad con tecnologías"
		},
		{
			"timestamps": {
				"from": "00:14:12,600",
				"to": "00:14:13,120"
			},
			"offsets": {
				"from": 852600,
				"to": 853120
			},
			"text": " libres,"
		},
		{
			"timestamps": {
				"from": "00:14:13,120",
				"to": "00:14:15,250"
			},
			"offsets": {
				"from": 853120,
				"to": 855250
			},
			"text": " recupero un poco de tiempo y el"
		},
		{
			"timestamps": {
				"from": "00:14:15,250",
				"to": "00:14:17,210"
			},
			"offsets": {
				"from": 855250,
				"to": 857210
			},
			"text": " siguiente lo puedo hacer antes"
		},
		{
			"timestamps": {
				"from": "00:14:17,210",
				"to": "00:14:19,180"
			},
			"offsets": {
				"from": 857210,
				"to": 859180
			},
			"text": " y os traigo las novedades un"
		},
		{
			"timestamps": {
				"from": "00:14:19,180",
				"to": "00:14:20,120"
			},
			"offsets": {
				"from": 859180,
				"to": 860120
			},
			"text": " poco antes."
		},
		{
			"timestamps": {
				"from": "00:14:20,120",
				"to": "00:14:21,740"
			},
			"offsets": {
				"from": 860120,
				"to": 861740
			},
			"text": " Recordar que esLibre está a"
		},
		{
			"timestamps": {
				"from": "00:14:21,740",
				"to": "00:14:23,480"
			},
			"offsets": {
				"from": 861740,
				"to": 863480
			},
			"text": " la vuelta de la esquina, que yo"
		},
		{
			"timestamps": {
				"from": "00:14:23,480",
				"to": "00:14:25,210"
			},
			"offsets": {
				"from": 863480,
				"to": 865210
			},
			"text": " iría reservando ya un hotel si"
		},
		{
			"timestamps": {
				"from": "00:14:25,210",
				"to": "00:14:26,120"
			},
			"offsets": {
				"from": 865210,
				"to": 866120
			},
			"text": " queréis ir,"
		},
		{
			"timestamps": {
				"from": "00:14:26,120",
				"to": "00:14:27,960"
			},
			"offsets": {
				"from": 866120,
				"to": 867960
			},
			"text": " porque Valencia por esas fechas,"
		},
		{
			"timestamps": {
				"from": "00:14:27,960",
				"to": "00:14:29,950"
			},
			"offsets": {
				"from": 867960,
				"to": 869950
			},
			"text": " si lo hacéis con muy poca antelación,"
		},
		{
			"timestamps": {
				"from": "00:14:29,950",
				"to": "00:14:31,400"
			},
			"offsets": {
				"from": 869950,
				"to": 871400
			},
			"text": " va a ser caro y va a haber pocas"
		},
		{
			"timestamps": {
				"from": "00:14:31,400",
				"to": "00:14:32,120"
			},
			"offsets": {
				"from": 871400,
				"to": 872120
			},
			"text": " opciones."
		},
		{
			"timestamps": {
				"from": "00:14:32,120",
				"to": "00:14:33,680"
			},
			"offsets": {
				"from": 872120,
				"to": 873680
			},
			"text": " Que Akademy-es estará allí por"
		},
		{
			"timestamps": {
				"from": "00:14:33,680",
				"to": "00:14:35,240"
			},
			"offsets": {
				"from": 873680,
				"to": 875240
			},
			"text": " si nos queréis ver en una mesa"
		},
		{
			"timestamps": {
				"from": "00:14:35,240",
				"to": "00:14:36,680"
			},
			"offsets": {
				"from": 875240,
				"to": 876680
			},
			"text": " que pondremos muy chula con un"
		},
		{
			"timestamps": {
				"from": "00:14:36,680",
				"to": "00:14:38,120"
			},
			"offsets": {
				"from": 876680,
				"to": 878120
			},
			"text": " montón de cosas de probar."
		},
		{
			"timestamps": {
				"from": "00:14:38,120",
				"to": "00:14:40,120"
			},
			"offsets": {
				"from": 878120,
				"to": 880120
			},
			"text": " Y que nos vemos en las redes."
		},
		{
			"timestamps": {
				"from": "00:14:40,120",
				"to": "00:14:42,120"
			},
			"offsets": {
				"from": 880120,
				"to": 882120
			},
			"text": " Un saludo, hasta luego."
		}
	]
}
