{
	"systeminfo": "AVX = 1 | AVX2 = 1 | AVX512 = 0 | FMA = 1 | NEON = 0 | ARM_FMA = 0 | METAL = 0 | F16C = 1 | FP16_VA = 0 | WASM_SIMD = 0 | BLAS = 1 | SSE3 = 1 | SSSE3 = 1 | VSX = 0 | CUDA = 0 | COREML = 0 | OPENVINO = 0 | CANN = 0",
	"model": {
		"type": "large",
		"multilingual": true,
		"vocab": 51866,
		"audio": {
			"ctx": 1500,
			"state": 1280,
			"head": 20,
			"layer": 32
		},
		"text": {
			"ctx": 448,
			"state": 1280,
			"head": 20,
			"layer": 4
		},
		"mels": 128,
		"ftype": 1
	},
	"params": {
		"model": "/home/dmc/opt/Whisper/ggml-large-v3-turbo.bin",
		"language": "es",
		"translate": false
	},
	"result": {
		"language": "es"
	},
	"transcription": [
		{
			"timestamps": {
				"from": "00:00:00,460",
				"to": "00:00:01,870"
			},
			"offsets": {
				"from": 460,
				"to": 1870
			},
			"text": " Buenas, KDE Express está de"
		},
		{
			"timestamps": {
				"from": "00:00:01,870",
				"to": "00:00:04,000"
			},
			"offsets": {
				"from": 1870,
				"to": 4000
			},
			"text": " vuelta con el episodio 35 y"
		},
		{
			"timestamps": {
				"from": "00:00:04,000",
				"to": "00:00:06,780"
			},
			"offsets": {
				"from": 4000,
				"to": 6780
			},
			"text": " estoy grabando el 23 de octubre."
		},
		{
			"timestamps": {
				"from": "00:00:06,780",
				"to": "00:00:08,910"
			},
			"offsets": {
				"from": 6780,
				"to": 8910
			},
			"text": " Lo primero comentar que Archive.org"
		},
		{
			"timestamps": {
				"from": "00:00:08,910",
				"to": "00:00:10,510"
			},
			"offsets": {
				"from": 8910,
				"to": 10510
			},
			"text": " vuelve a estar funcionando,"
		},
		{
			"timestamps": {
				"from": "00:00:10,510",
				"to": "00:00:12,280"
			},
			"offsets": {
				"from": 10510,
				"to": 12280
			},
			"text": " aunque solo en modo lectura."
		},
		{
			"timestamps": {
				"from": "00:00:12,280",
				"to": "00:00:14,790"
			},
			"offsets": {
				"from": 12280,
				"to": 14790
			},
			"text": " Durante una semana ha dejado a"
		},
		{
			"timestamps": {
				"from": "00:00:14,790",
				"to": "00:00:16,710"
			},
			"offsets": {
				"from": 14790,
				"to": 16710
			},
			"text": " un montón de podcast y"
		},
		{
			"timestamps": {
				"from": "00:00:16,710",
				"to": "00:00:19,880"
			},
			"offsets": {
				"from": 16710,
				"to": 19880
			},
			"text": " servicios y gente y organizaciones"
		},
		{
			"timestamps": {
				"from": "00:00:19,880",
				"to": "00:00:21,420"
			},
			"offsets": {
				"from": 19880,
				"to": 21420
			},
			"text": " sin un montón de recursos"
		},
		{
			"timestamps": {
				"from": "00:00:21,420",
				"to": "00:00:23,030"
			},
			"offsets": {
				"from": 21420,
				"to": 23030
			},
			"text": " súper importantes para la"
		},
		{
			"timestamps": {
				"from": "00:00:23,030",
				"to": "00:00:25,010"
			},
			"offsets": {
				"from": 23030,
				"to": 25010
			},
			"text": " comunidad de software libre y"
		},
		{
			"timestamps": {
				"from": "00:00:25,010",
				"to": "00:00:26,660"
			},
			"offsets": {
				"from": 25010,
				"to": 26660
			},
			"text": " de la cultura en general,"
		},
		{
			"timestamps": {
				"from": "00:00:26,660",
				"to": "00:00:28,270"
			},
			"offsets": {
				"from": 26660,
				"to": 28270
			},
			"text": " con lo cual es un buen momento"
		},
		{
			"timestamps": {
				"from": "00:00:28,270",
				"to": "00:00:29,960"
			},
			"offsets": {
				"from": 28270,
				"to": 29960
			},
			"text": " para donarle porque se están"
		},
		{
			"timestamps": {
				"from": "00:00:29,960",
				"to": "00:00:31,520"
			},
			"offsets": {
				"from": 29960,
				"to": 31520
			},
			"text": " recuperando, pero se ha visto"
		},
		{
			"timestamps": {
				"from": "00:00:31,520",
				"to": "00:00:32,640"
			},
			"offsets": {
				"from": 31520,
				"to": 32640
			},
			"text": " con qué facilidad"
		},
		{
			"timestamps": {
				"from": "00:00:32,640",
				"to": "00:00:34,060"
			},
			"offsets": {
				"from": 32640,
				"to": 34060
			},
			"text": " podría borrarse de un plumazo"
		},
		{
			"timestamps": {
				"from": "00:00:34,060",
				"to": "00:00:35,350"
			},
			"offsets": {
				"from": 34060,
				"to": 35350
			},
			"text": " un montón de información"
		},
		{
			"timestamps": {
				"from": "00:00:35,350",
				"to": "00:00:36,520"
			},
			"offsets": {
				"from": 35350,
				"to": 36520
			},
			"text": " súper interesante."
		},
		{
			"timestamps": {
				"from": "00:00:36,520",
				"to": "00:00:38,400"
			},
			"offsets": {
				"from": 36520,
				"to": 38400
			},
			"text": " Nosotros en KDE lo sublimos"
		},
		{
			"timestamps": {
				"from": "00:00:38,400",
				"to": "00:00:40,570"
			},
			"offsets": {
				"from": 38400,
				"to": 40570
			},
			"text": " porque tenemos servidores propios"
		},
		{
			"timestamps": {
				"from": "00:00:40,570",
				"to": "00:00:42,420"
			},
			"offsets": {
				"from": 40570,
				"to": 42420
			},
			"text": " y estamos en camino de pasar"
		},
		{
			"timestamps": {
				"from": "00:00:42,420",
				"to": "00:00:43,420"
			},
			"offsets": {
				"from": 42420,
				"to": 43420
			},
			"text": " todos los audios"
		},
		{
			"timestamps": {
				"from": "00:00:43,420",
				"to": "00:00:45,380"
			},
			"offsets": {
				"from": 43420,
				"to": 45380
			},
			"text": " ahí para aligerar un poco el"
		},
		{
			"timestamps": {
				"from": "00:00:45,380",
				"to": "00:00:48,430"
			},
			"offsets": {
				"from": 45380,
				"to": 48430
			},
			"text": " trabajo que le damos a Archive.org,"
		},
		{
			"timestamps": {
				"from": "00:00:48,430",
				"to": "00:00:50,620"
			},
			"offsets": {
				"from": 48430,
				"to": 50620
			},
			"text": " pero no está de mal recordar"
		},
		{
			"timestamps": {
				"from": "00:00:50,620",
				"to": "00:00:51,460"
			},
			"offsets": {
				"from": 50620,
				"to": 51460
			},
			"text": " que a veces"
		},
		{
			"timestamps": {
				"from": "00:00:51,460",
				"to": "00:00:53,600"
			},
			"offsets": {
				"from": 51460,
				"to": 53600
			},
			"text": " damos por sentado servicios que"
		},
		{
			"timestamps": {
				"from": "00:00:53,600",
				"to": "00:00:55,410"
			},
			"offsets": {
				"from": 53600,
				"to": 55410
			},
			"text": " si desaparecieran nos harían"
		},
		{
			"timestamps": {
				"from": "00:00:55,410",
				"to": "00:00:56,700"
			},
			"offsets": {
				"from": 55410,
				"to": 56700
			},
			"text": " un gran agujero."
		},
		{
			"timestamps": {
				"from": "00:00:56,700",
				"to": "00:00:57,970"
			},
			"offsets": {
				"from": 56700,
				"to": 57970
			},
			"text": " Entrando ya en lo que es el"
		},
		{
			"timestamps": {
				"from": "00:00:57,970",
				"to": "00:00:59,310"
			},
			"offsets": {
				"from": 57970,
				"to": 59310
			},
			"text": " episodio en sí, estoy en"
		},
		{
			"timestamps": {
				"from": "00:00:59,310",
				"to": "00:01:02,330"
			},
			"offsets": {
				"from": 59310,
				"to": 62330
			},
			"text": " Plasma 6.2.1, ya fui hablando"
		},
		{
			"timestamps": {
				"from": "00:01:02,330",
				"to": "00:01:03,220"
			},
			"offsets": {
				"from": 62330,
				"to": 63220
			},
			"text": " de las novedades"
		},
		{
			"timestamps": {
				"from": "00:01:03,220",
				"to": "00:01:04,780"
			},
			"offsets": {
				"from": 63220,
				"to": 64780
			},
			"text": " que iban a llegar y han llegado."
		},
		{
			"timestamps": {
				"from": "00:01:04,780",
				"to": "00:01:06,090"
			},
			"offsets": {
				"from": 64780,
				"to": 66090
			},
			"text": " Ya no solo estamos en 6.2 sino"
		},
		{
			"timestamps": {
				"from": "00:01:06,090",
				"to": "00:01:08,080"
			},
			"offsets": {
				"from": 66090,
				"to": 68080
			},
			"text": " que estamos en 6.2.1 y por lo"
		},
		{
			"timestamps": {
				"from": "00:01:08,080",
				"to": "00:01:08,780"
			},
			"offsets": {
				"from": 68080,
				"to": 68780
			},
			"text": " que oigo"
		},
		{
			"timestamps": {
				"from": "00:01:08,780",
				"to": "00:01:12,020"
			},
			"offsets": {
				"from": 68780,
				"to": 72020
			},
			"text": " la 6.2.1 está muy estabilizada,"
		},
		{
			"timestamps": {
				"from": "00:01:12,020",
				"to": "00:01:15,170"
			},
			"offsets": {
				"from": 72020,
				"to": 75170
			},
			"text": " la 6.2.2 estará perfecta y por"
		},
		{
			"timestamps": {
				"from": "00:01:15,170",
				"to": "00:01:17,340"
			},
			"offsets": {
				"from": 75170,
				"to": 77340
			},
			"text": " supuesto están trabajando ya"
		},
		{
			"timestamps": {
				"from": "00:01:17,340",
				"to": "00:01:18,540"
			},
			"offsets": {
				"from": 77340,
				"to": 78540
			},
			"text": " en la 6.3."
		},
		{
			"timestamps": {
				"from": "00:01:18,540",
				"to": "00:01:21,770"
			},
			"offsets": {
				"from": 78540,
				"to": 81770
			},
			"text": " también tenemos el year 24.08.2"
		},
		{
			"timestamps": {
				"from": "00:01:21,770",
				"to": "00:01:24,470"
			},
			"offsets": {
				"from": 81770,
				"to": 84470
			},
			"text": " con sus mejoras correspondientes,"
		},
		{
			"timestamps": {
				"from": "00:01:24,470",
				"to": "00:01:25,940"
			},
			"offsets": {
				"from": 84470,
				"to": 85940
			},
			"text": " pero ahora voy a entrar en"
		},
		{
			"timestamps": {
				"from": "00:01:25,940",
				"to": "00:01:27,940"
			},
			"offsets": {
				"from": 85940,
				"to": 87940
			},
			"text": " materia y os voy a ir contando"
		},
		{
			"timestamps": {
				"from": "00:01:27,940",
				"to": "00:01:29,260"
			},
			"offsets": {
				"from": 87940,
				"to": 89260
			},
			"text": " las novedades que han pasado en"
		},
		{
			"timestamps": {
				"from": "00:01:29,260",
				"to": "00:01:30,620"
			},
			"offsets": {
				"from": 89260,
				"to": 90620
			},
			"text": " este tiempo desde que grabé."
		},
		{
			"timestamps": {
				"from": "00:01:30,620",
				"to": "00:01:32,410"
			},
			"offsets": {
				"from": 90620,
				"to": 92410
			},
			"text": " Lo primero es que ya tenemos"
		},
		{
			"timestamps": {
				"from": "00:01:32,410",
				"to": "00:01:34,150"
			},
			"offsets": {
				"from": 92410,
				"to": 94150
			},
			"text": " todas las charlas de la Akademy"
		},
		{
			"timestamps": {
				"from": "00:01:34,150",
				"to": "00:01:36,460"
			},
			"offsets": {
				"from": 94150,
				"to": 96460
			},
			"text": " E 2024 de Valencia en nuestra"
		},
		{
			"timestamps": {
				"from": "00:01:36,460",
				"to": "00:01:37,700"
			},
			"offsets": {
				"from": 96460,
				"to": 97700
			},
			"text": " instancia de virtud."
		},
		{
			"timestamps": {
				"from": "00:01:38,040",
				"to": "00:01:39,670"
			},
			"offsets": {
				"from": 98040,
				"to": 99670
			},
			"text": " De nuevo queremos agradecer a"
		},
		{
			"timestamps": {
				"from": "00:01:39,670",
				"to": "00:01:41,390"
			},
			"offsets": {
				"from": 99670,
				"to": 101390
			},
			"text": " John por su colaboración, que"
		},
		{
			"timestamps": {
				"from": "00:01:41,390",
				"to": "00:01:43,280"
			},
			"offsets": {
				"from": 101390,
				"to": 103280
			},
			"text": " hemos ido partiendo, separando,"
		},
		{
			"timestamps": {
				"from": "00:01:43,280",
				"to": "00:01:44,280"
			},
			"offsets": {
				"from": 103280,
				"to": 104280
			},
			"text": " mejorando el audio."
		},
		{
			"timestamps": {
				"from": "00:01:44,280",
				"to": "00:01:46,320"
			},
			"offsets": {
				"from": 104280,
				"to": 106320
			},
			"text": " Luego con Whisper, igual que"
		},
		{
			"timestamps": {
				"from": "00:01:46,320",
				"to": "00:01:48,310"
			},
			"offsets": {
				"from": 106320,
				"to": 108310
			},
			"text": " con este podcast, pues le he"
		},
		{
			"timestamps": {
				"from": "00:01:48,310",
				"to": "00:01:50,400"
			},
			"offsets": {
				"from": 108310,
				"to": 110400
			},
			"text": " ido pasando los subtítulos y"
		},
		{
			"timestamps": {
				"from": "00:01:50,400",
				"to": "00:01:52,180"
			},
			"offsets": {
				"from": 110400,
				"to": 112180
			},
			"text": " ya están todas en una playlist"
		},
		{
			"timestamps": {
				"from": "00:01:52,180",
				"to": "00:01:54,120"
			},
			"offsets": {
				"from": 112180,
				"to": 114120
			},
			"text": " para que podáis disfrutarlas"
		},
		{
			"timestamps": {
				"from": "00:01:54,120",
				"to": "00:01:56,040"
			},
			"offsets": {
				"from": 114120,
				"to": 116040
			},
			"text": " los que no tuvierais la inmensa"
		},
		{
			"timestamps": {
				"from": "00:01:56,040",
				"to": "00:01:58,220"
			},
			"offsets": {
				"from": 116040,
				"to": 118220
			},
			"text": " fortuna de estar presencialmente"
		},
		{
			"timestamps": {
				"from": "00:01:58,220",
				"to": "00:01:59,420"
			},
			"offsets": {
				"from": 118220,
				"to": 119420
			},
			"text": " allí como yo."
		},
		{
			"timestamps": {
				"from": "00:01:59,980",
				"to": "00:02:01,520"
			},
			"offsets": {
				"from": 119980,
				"to": 121520
			},
			"text": " También comentar que el 14 de"
		},
		{
			"timestamps": {
				"from": "00:02:01,520",
				"to": "00:02:03,400"
			},
			"offsets": {
				"from": 121520,
				"to": 123400
			},
			"text": " octubre celebramos el 28 cumpleaños"
		},
		{
			"timestamps": {
				"from": "00:02:03,400",
				"to": "00:02:05,470"
			},
			"offsets": {
				"from": 123400,
				"to": 125470
			},
			"text": " de KDE, se nos pasó entre"
		},
		{
			"timestamps": {
				"from": "00:02:05,470",
				"to": "00:02:07,410"
			},
			"offsets": {
				"from": 125470,
				"to": 127410
			},
			"text": " episodios, pero sigue siendo"
		},
		{
			"timestamps": {
				"from": "00:02:07,410",
				"to": "00:02:09,480"
			},
			"offsets": {
				"from": 127410,
				"to": 129480
			},
			"text": " ahí una efeméride"
		},
		{
			"timestamps": {
				"from": "00:02:09,480",
				"to": "00:02:11,320"
			},
			"offsets": {
				"from": 129480,
				"to": 131320
			},
			"text": " que está bien saber que este"
		},
		{
			"timestamps": {
				"from": "00:02:11,320",
				"to": "00:02:13,460"
			},
			"offsets": {
				"from": 131320,
				"to": 133460
			},
			"text": " proyecto tiene la miaja de 28"
		},
		{
			"timestamps": {
				"from": "00:02:13,460",
				"to": "00:02:15,450"
			},
			"offsets": {
				"from": 133460,
				"to": 135450
			},
			"text": " años ya, no está nada mal y"
		},
		{
			"timestamps": {
				"from": "00:02:15,450",
				"to": "00:02:17,000"
			},
			"offsets": {
				"from": 135450,
				"to": 137000
			},
			"text": " aparte de vez en cuando ver"
		},
		{
			"timestamps": {
				"from": "00:02:17,000",
				"to": "00:02:18,260"
			},
			"offsets": {
				"from": 137000,
				"to": 138260
			},
			"text": " algunas fotos antiguas"
		},
		{
			"timestamps": {
				"from": "00:02:18,260",
				"to": "00:02:20,280"
			},
			"offsets": {
				"from": 138260,
				"to": 140280
			},
			"text": " da así un gustirrinín de"
		},
		{
			"timestamps": {
				"from": "00:02:20,280",
				"to": "00:02:22,500"
			},
			"offsets": {
				"from": 140280,
				"to": 142500
			},
			"text": " cómo ha avanzado la cosa y lo"
		},
		{
			"timestamps": {
				"from": "00:02:22,500",
				"to": "00:02:24,920"
			},
			"offsets": {
				"from": 142500,
				"to": 144920
			},
			"text": " que disfrutábamos entonces y"
		},
		{
			"timestamps": {
				"from": "00:02:24,920",
				"to": "00:02:26,970"
			},
			"offsets": {
				"from": 144920,
				"to": 146970
			},
			"text": " lo fácil que son las cosas"
		},
		{
			"timestamps": {
				"from": "00:02:26,970",
				"to": "00:02:27,860"
			},
			"offsets": {
				"from": 146970,
				"to": 147860
			},
			"text": " ahora."
		},
		{
			"timestamps": {
				"from": "00:02:28,260",
				"to": "00:02:30,210"
			},
			"offsets": {
				"from": 148260,
				"to": 150210
			},
			"text": " También quería deciros que a"
		},
		{
			"timestamps": {
				"from": "00:02:30,210",
				"to": "00:02:32,000"
			},
			"offsets": {
				"from": 150210,
				"to": 152000
			},
			"text": " las ya conocidas entradas de"
		},
		{
			"timestamps": {
				"from": "00:02:32,000",
				"to": "00:02:33,960"
			},
			"offsets": {
				"from": 152000,
				"to": 153960
			},
			"text": " esta semana en KDE, que es un"
		},
		{
			"timestamps": {
				"from": "00:02:33,960",
				"to": "00:02:36,020"
			},
			"offsets": {
				"from": 153960,
				"to": 156020
			},
			"text": " blog del que este podcast se"
		},
		{
			"timestamps": {
				"from": "00:02:36,020",
				"to": "00:02:36,500"
			},
			"offsets": {
				"from": 156020,
				"to": 156500
			},
			"text": " nutre"
		},
		{
			"timestamps": {
				"from": "00:02:36,500",
				"to": "00:02:37,850"
			},
			"offsets": {
				"from": 156500,
				"to": 157850
			},
			"text": " igual que todos los demás"
		},
		{
			"timestamps": {
				"from": "00:02:37,850",
				"to": "00:02:39,970"
			},
			"offsets": {
				"from": 157850,
				"to": 159970
			},
			"text": " blogs del mundo que hablan de KDE,"
		},
		{
			"timestamps": {
				"from": "00:02:39,970",
				"to": "00:02:41,420"
			},
			"offsets": {
				"from": 159970,
				"to": 161420
			},
			"text": " pues ahora como este Yasuo se"
		},
		{
			"timestamps": {
				"from": "00:02:41,420",
				"to": "00:02:42,900"
			},
			"offsets": {
				"from": 161420,
				"to": 162900
			},
			"text": " centra en Plasma en sí"
		},
		{
			"timestamps": {
				"from": "00:02:42,900",
				"to": "00:02:45,020"
			},
			"offsets": {
				"from": 162900,
				"to": 165020
			},
			"text": " tenemos la contrapartida para"
		},
		{
			"timestamps": {
				"from": "00:02:45,020",
				"to": "00:02:47,670"
			},
			"offsets": {
				"from": 165020,
				"to": 167670
			},
			"text": " las aplicaciones del Blogs KDE,"
		},
		{
			"timestamps": {
				"from": "00:02:47,670",
				"to": "00:02:48,890"
			},
			"offsets": {
				"from": 167670,
				"to": 168890
			},
			"text": " donde nos irán informando de"
		},
		{
			"timestamps": {
				"from": "00:02:48,890",
				"to": "00:02:50,170"
			},
			"offsets": {
				"from": 168890,
				"to": 170170
			},
			"text": " que está por venir de las"
		},
		{
			"timestamps": {
				"from": "00:02:50,170",
				"to": "00:02:51,700"
			},
			"offsets": {
				"from": 170170,
				"to": 171700
			},
			"text": " nuevas versiones de Gears."
		},
		{
			"timestamps": {
				"from": "00:02:52,200",
				"to": "00:02:54,720"
			},
			"offsets": {
				"from": 172200,
				"to": 174720
			},
			"text": " Siguiendo, tenemos que Ubuntu KDE"
		},
		{
			"timestamps": {
				"from": "00:02:54,720",
				"to": "00:02:56,960"
			},
			"offsets": {
				"from": 174720,
				"to": 176960
			},
			"text": " Neon Core es una nueva distribución"
		},
		{
			"timestamps": {
				"from": "00:02:56,960",
				"to": "00:02:58,580"
			},
			"offsets": {
				"from": 176960,
				"to": 178580
			},
			"text": " que está preparando Ubuntu,"
		},
		{
			"timestamps": {
				"from": "00:02:58,580",
				"to": "00:03:00,440"
			},
			"offsets": {
				"from": 178580,
				"to": 180440
			},
			"text": " que sería una versión inmutable"
		},
		{
			"timestamps": {
				"from": "00:03:00,440",
				"to": "00:03:03,550"
			},
			"offsets": {
				"from": 180440,
				"to": 183550
			},
			"text": " atómica de KDE con Plasma. Están"
		},
		{
			"timestamps": {
				"from": "00:03:03,550",
				"to": "00:03:05,850"
			},
			"offsets": {
				"from": 183550,
				"to": 185850
			},
			"text": " de moda ahora mismo y está"
		},
		{
			"timestamps": {
				"from": "00:03:05,850",
				"to": "00:03:07,640"
			},
			"offsets": {
				"from": 185850,
				"to": 187640
			},
			"text": " bien que tengamos versiones con"
		},
		{
			"timestamps": {
				"from": "00:03:07,640",
				"to": "00:03:08,680"
			},
			"offsets": {
				"from": 187640,
				"to": 188680
			},
			"text": " KDE, porque hay algunas"
		},
		{
			"timestamps": {
				"from": "00:03:08,680",
				"to": "00:03:10,080"
			},
			"offsets": {
				"from": 188680,
				"to": 190080
			},
			"text": " por ejemplo en otros sistemas"
		},
		{
			"timestamps": {
				"from": "00:03:10,080",
				"to": "00:03:12,240"
			},
			"offsets": {
				"from": 190080,
				"to": 192240
			},
			"text": " operativos, pero siempre las de"
		},
		{
			"timestamps": {
				"from": "00:03:12,240",
				"to": "00:03:15,000"
			},
			"offsets": {
				"from": 192240,
				"to": 195000
			},
			"text": " Gnome suelen estar más avanzadas."
		},
		{
			"timestamps": {
				"from": "00:03:15,000",
				"to": "00:03:16,920"
			},
			"offsets": {
				"from": 195000,
				"to": 196920
			},
			"text": " Con lo cual, esto me parece una"
		},
		{
			"timestamps": {
				"from": "00:03:16,920",
				"to": "00:03:16,920"
			},
			"offsets": {
				"from": 196920,
				"to": 196920
			},
			"text": " buena iniciativa"
		},
		{
			"timestamps": {
				"from": "00:03:16,920",
				"to": "00:03:18,170"
			},
			"offsets": {
				"from": 196920,
				"to": 198170
			},
			"text": " para los casos de uso que se vea"
		},
		{
			"timestamps": {
				"from": "00:03:18,170",
				"to": "00:03:20,360"
			},
			"offsets": {
				"from": 198170,
				"to": 200360
			},
			"text": " que la inmutable o la atómica"
		},
		{
			"timestamps": {
				"from": "00:03:20,360",
				"to": "00:03:23,260"
			},
			"offsets": {
				"from": 200360,
				"to": 203260
			},
			"text": " viene mejor. Hablando de KDE Neon,"
		},
		{
			"timestamps": {
				"from": "00:03:23,260",
				"to": "00:03:25,150"
			},
			"offsets": {
				"from": 203260,
				"to": 205150
			},
			"text": " esta vez la versión normal y"
		},
		{
			"timestamps": {
				"from": "00:03:25,150",
				"to": "00:03:25,160"
			},
			"offsets": {
				"from": 205150,
				"to": 205160
			},
			"text": " corriente"
		},
		{
			"timestamps": {
				"from": "00:03:25,160",
				"to": "00:03:27,160"
			},
			"offsets": {
				"from": 205160,
				"to": 207160
			},
			"text": " pues tras salir Ubuntu 24-04"
		},
		{
			"timestamps": {
				"from": "00:03:27,160",
				"to": "00:03:31,400"
			},
			"offsets": {
				"from": 207160,
				"to": 211400
			},
			"text": " estuvieron trabajando como locos"
		},
		{
			"timestamps": {
				"from": "00:03:31,400",
				"to": "00:03:33,400"
			},
			"offsets": {
				"from": 211400,
				"to": 213400
			},
			"text": " y ya la tenemos disponible."
		},
		{
			"timestamps": {
				"from": "00:03:33,400",
				"to": "00:03:35,160"
			},
			"offsets": {
				"from": 213400,
				"to": 215160
			},
			"text": " Ya sabéis que son los repos"
		},
		{
			"timestamps": {
				"from": "00:03:35,160",
				"to": "00:03:38,060"
			},
			"offsets": {
				"from": 215160,
				"to": 218060
			},
			"text": " oficiales de Ubuntu 24-04, pero"
		},
		{
			"timestamps": {
				"from": "00:03:38,060",
				"to": "00:03:39,400"
			},
			"offsets": {
				"from": 218060,
				"to": 219400
			},
			"text": " con la paquetería por encima"
		},
		{
			"timestamps": {
				"from": "00:03:39,400",
				"to": "00:03:41,080"
			},
			"offsets": {
				"from": 219400,
				"to": 221080
			},
			"text": " de todo lo necesario para tener"
		},
		{
			"timestamps": {
				"from": "00:03:41,080",
				"to": "00:03:43,160"
			},
			"offsets": {
				"from": 221080,
				"to": 223160
			},
			"text": " Plasma a la última."
		},
		{
			"timestamps": {
				"from": "00:03:43,160",
				"to": "00:03:44,420"
			},
			"offsets": {
				"from": 223160,
				"to": 224420
			},
			"text": " Otro otro que también se han"
		},
		{
			"timestamps": {
				"from": "00:03:44,420",
				"to": "00:03:46,410"
			},
			"offsets": {
				"from": 224420,
				"to": 226410
			},
			"text": " subido al carro de Plasma 6 es"
		},
		{
			"timestamps": {
				"from": "00:03:46,410",
				"to": "00:03:49,160"
			},
			"offsets": {
				"from": 226410,
				"to": 229160
			},
			"text": " Ubuntu Studio, que le ha costado"
		},
		{
			"timestamps": {
				"from": "00:03:49,160",
				"to": "00:03:51,600"
			},
			"offsets": {
				"from": 229160,
				"to": 231600
			},
			"text": " llegar a la 24-10, pero bueno"
		},
		{
			"timestamps": {
				"from": "00:03:51,600",
				"to": "00:03:53,600"
			},
			"offsets": {
				"from": 231600,
				"to": 233600
			},
			"text": " ya sabemos que Ubuntu a partir"
		},
		{
			"timestamps": {
				"from": "00:03:53,600",
				"to": "00:03:55,460"
			},
			"offsets": {
				"from": 233600,
				"to": 235460
			},
			"text": " de la 24-10 por fin tendrá"
		},
		{
			"timestamps": {
				"from": "00:03:55,460",
				"to": "00:03:57,570"
			},
			"offsets": {
				"from": 235460,
				"to": 237570
			},
			"text": " nuestro querido Plasma 6, que"
		},
		{
			"timestamps": {
				"from": "00:03:57,570",
				"to": "00:04:00,440"
			},
			"offsets": {
				"from": 237570,
				"to": 240440
			},
			"text": " es un salto sustancial y que yo"
		},
		{
			"timestamps": {
				"from": "00:04:00,440",
				"to": "00:04:02,190"
			},
			"offsets": {
				"from": 240440,
				"to": 242190
			},
			"text": " aunque valoro mucho las distribuciones"
		},
		{
			"timestamps": {
				"from": "00:04:02,190",
				"to": "00:04:06,360"
			},
			"offsets": {
				"from": 242190,
				"to": 246360
			},
			"text": " estables, me parece un viaje en"
		},
		{
			"timestamps": {
				"from": "00:04:06,360",
				"to": "00:04:08,120"
			},
			"offsets": {
				"from": 246360,
				"to": 248120
			},
			"text": " el tiempo eso de tener que"
		},
		{
			"timestamps": {
				"from": "00:04:08,120",
				"to": "00:04:09,560"
			},
			"offsets": {
				"from": 248120,
				"to": 249560
			},
			"text": " estar esperando tanto tanto"
		},
		{
			"timestamps": {
				"from": "00:04:09,560",
				"to": "00:04:11,160"
			},
			"offsets": {
				"from": 249560,
				"to": 251160
			},
			"text": " tiempo para tener las mejoras"
		},
		{
			"timestamps": {
				"from": "00:04:11,160",
				"to": "00:04:12,510"
			},
			"offsets": {
				"from": 251160,
				"to": 252510
			},
			"text": " que ya están publicadas hoy en"
		},
		{
			"timestamps": {
				"from": "00:04:12,510",
				"to": "00:04:13,020"
			},
			"offsets": {
				"from": 252510,
				"to": 253020
			},
			"text": " día."
		},
		{
			"timestamps": {
				"from": "00:04:13,020",
				"to": "00:04:15,130"
			},
			"offsets": {
				"from": 253020,
				"to": 255130
			},
			"text": " Yo lo llamo que tengo versionitis"
		},
		{
			"timestamps": {
				"from": "00:04:15,130",
				"to": "00:04:17,340"
			},
			"offsets": {
				"from": 255130,
				"to": 257340
			},
			"text": " y para eso tenemos distribuciones"
		},
		{
			"timestamps": {
				"from": "00:04:17,340",
				"to": "00:04:19,420"
			},
			"offsets": {
				"from": 257340,
				"to": 259420
			},
			"text": " adecuadas y luego está quien"
		},
		{
			"timestamps": {
				"from": "00:04:19,420",
				"to": "00:04:21,320"
			},
			"offsets": {
				"from": 259420,
				"to": 261320
			},
			"text": " no quiere tanta filigrana y"
		},
		{
			"timestamps": {
				"from": "00:04:21,320",
				"to": "00:04:24,100"
			},
			"offsets": {
				"from": 261320,
				"to": 264100
			},
			"text": " quiere que le funcione tranquilamente"
		},
		{
			"timestamps": {
				"from": "00:04:24,100",
				"to": "00:04:26,050"
			},
			"offsets": {
				"from": 264100,
				"to": 266050
			},
			"text": " y se queda con versiones más"
		},
		{
			"timestamps": {
				"from": "00:04:26,050",
				"to": "00:04:26,880"
			},
			"offsets": {
				"from": 266050,
				"to": 266880
			},
			"text": " estables."
		},
		{
			"timestamps": {
				"from": "00:04:26,880",
				"to": "00:04:28,510"
			},
			"offsets": {
				"from": 266880,
				"to": 268510
			},
			"text": " Aunque yo tengo que decir que"
		},
		{
			"timestamps": {
				"from": "00:04:28,510",
				"to": "00:04:30,310"
			},
			"offsets": {
				"from": 268510,
				"to": 270310
			},
			"text": " yo casi nunca tengo problemas y"
		},
		{
			"timestamps": {
				"from": "00:04:30,310",
				"to": "00:04:31,870"
			},
			"offsets": {
				"from": 270310,
				"to": 271870
			},
			"text": " estoy a la última, así que"
		},
		{
			"timestamps": {
				"from": "00:04:31,870",
				"to": "00:04:33,490"
			},
			"offsets": {
				"from": 271870,
				"to": 273490
			},
			"text": " ahí hay un buen debate sobre"
		},
		{
			"timestamps": {
				"from": "00:04:33,490",
				"to": "00:04:35,100"
			},
			"offsets": {
				"from": 273490,
				"to": 275100
			},
			"text": " si que es más estable, algo"
		},
		{
			"timestamps": {
				"from": "00:04:35,100",
				"to": "00:04:36,570"
			},
			"offsets": {
				"from": 275100,
				"to": 276570
			},
			"text": " muy antiguo que tienen que"
		},
		{
			"timestamps": {
				"from": "00:04:36,570",
				"to": "00:04:38,300"
			},
			"offsets": {
				"from": 276570,
				"to": 278300
			},
			"text": " mantener los voluntarios o lo"
		},
		{
			"timestamps": {
				"from": "00:04:38,300",
				"to": "00:04:39,990"
			},
			"offsets": {
				"from": 278300,
				"to": 279990
			},
			"text": " que va sacando el Upstream, el"
		},
		{
			"timestamps": {
				"from": "00:04:39,990",
				"to": "00:04:41,500"
			},
			"offsets": {
				"from": 279990,
				"to": 281500
			},
			"text": " proyecto madre."
		},
		{
			"timestamps": {
				"from": "00:04:41,820",
				"to": "00:04:43,160"
			},
			"offsets": {
				"from": 281820,
				"to": 283160
			},
			"text": " Eso lo dejamos para otra ocasión."
		},
		{
			"timestamps": {
				"from": "00:04:43,160",
				"to": "00:04:44,600"
			},
			"offsets": {
				"from": 283160,
				"to": 284600
			},
			"text": " Una de las novedades que se me"
		},
		{
			"timestamps": {
				"from": "00:04:44,600",
				"to": "00:04:46,700"
			},
			"offsets": {
				"from": 284600,
				"to": 286700
			},
			"text": " olvidó adelantar de Plasma 6.2,"
		},
		{
			"timestamps": {
				"from": "00:04:46,700",
				"to": "00:04:48,140"
			},
			"offsets": {
				"from": 286700,
				"to": 288140
			},
			"text": " yo os fui comentando que iba a"
		},
		{
			"timestamps": {
				"from": "00:04:48,140",
				"to": "00:04:49,880"
			},
			"offsets": {
				"from": 288140,
				"to": 289880
			},
			"text": " venir en Plasma 6.2 antes de"
		},
		{
			"timestamps": {
				"from": "00:04:49,880",
				"to": "00:04:51,630"
			},
			"offsets": {
				"from": 289880,
				"to": 291630
			},
			"text": " que viniera, porque normalmente"
		},
		{
			"timestamps": {
				"from": "00:04:51,630",
				"to": "00:04:52,890"
			},
			"offsets": {
				"from": 291630,
				"to": 292890
			},
			"text": " los desarrolladores van"
		},
		{
			"timestamps": {
				"from": "00:04:52,890",
				"to": "00:04:54,450"
			},
			"offsets": {
				"from": 292890,
				"to": 294450
			},
			"text": " diciendo ya hemos hecho esto,"
		},
		{
			"timestamps": {
				"from": "00:04:54,450",
				"to": "00:04:56,350"
			},
			"offsets": {
				"from": 294450,
				"to": 296350
			},
			"text": " ya hemos hecho lo otro, y hay"
		},
		{
			"timestamps": {
				"from": "00:04:56,350",
				"to": "00:04:58,180"
			},
			"offsets": {
				"from": 296350,
				"to": 298180
			},
			"text": " una que se me olvidó y gracias"
		},
		{
			"timestamps": {
				"from": "00:04:58,180",
				"to": "00:05:00,180"
			},
			"offsets": {
				"from": 298180,
				"to": 300180
			},
			"text": " a cada blog la tenemos siempre"
		},
		{
			"timestamps": {
				"from": "00:05:00,180",
				"to": "00:05:02,700"
			},
			"offsets": {
				"from": 300180,
				"to": 302700
			},
			"text": " todas en mente, que es que han"
		},
		{
			"timestamps": {
				"from": "00:05:02,700",
				"to": "00:05:04,620"
			},
			"offsets": {
				"from": 302700,
				"to": 304620
			},
			"text": " mejorado el manejo del brillo"
		},
		{
			"timestamps": {
				"from": "00:05:04,620",
				"to": "00:05:06,740"
			},
			"offsets": {
				"from": 304620,
				"to": 306740
			},
			"text": " para los perfiles HDR e ICC,"
		},
		{
			"timestamps": {
				"from": "00:05:06,740",
				"to": "00:05:09,280"
			},
			"offsets": {
				"from": 306740,
				"to": 309280
			},
			"text": " así como el rendimiento HDR."
		},
		{
			"timestamps": {
				"from": "00:05:09,280",
				"to": "00:05:11,070"
			},
			"offsets": {
				"from": 309280,
				"to": 311070
			},
			"text": " Lo cual a mí me viene de Perla"
		},
		{
			"timestamps": {
				"from": "00:05:11,070",
				"to": "00:05:12,870"
			},
			"offsets": {
				"from": 311070,
				"to": 312870
			},
			"text": " porque tenía dos monitores,"
		},
		{
			"timestamps": {
				"from": "00:05:12,870",
				"to": "00:05:14,290"
			},
			"offsets": {
				"from": 312870,
				"to": 314290
			},
			"text": " uno se lo he regalado a mi"
		},
		{
			"timestamps": {
				"from": "00:05:14,290",
				"to": "00:05:15,640"
			},
			"offsets": {
				"from": 314290,
				"to": 315640
			},
			"text": " madre y estoy a punto de"
		},
		{
			"timestamps": {
				"from": "00:05:15,640",
				"to": "00:05:17,520"
			},
			"offsets": {
				"from": 315640,
				"to": 317520
			},
			"text": " comprarme otro, y el que me voy"
		},
		{
			"timestamps": {
				"from": "00:05:17,520",
				"to": "00:05:19,180"
			},
			"offsets": {
				"from": 317520,
				"to": 319180
			},
			"text": " a comprar creo que va a tener"
		},
		{
			"timestamps": {
				"from": "00:05:19,180",
				"to": "00:05:20,990"
			},
			"offsets": {
				"from": 319180,
				"to": 320990
			},
			"text": " soporte HDR y estoy deseando"
		},
		{
			"timestamps": {
				"from": "00:05:20,990",
				"to": "00:05:22,340"
			},
			"offsets": {
				"from": 320990,
				"to": 322340
			},
			"text": " empezar a jugar."
		},
		{
			"timestamps": {
				"from": "00:05:22,700",
				"to": "00:05:24,130"
			},
			"offsets": {
				"from": 322700,
				"to": 324130
			},
			"text": " Con suerte para cuando me lo"
		},
		{
			"timestamps": {
				"from": "00:05:24,130",
				"to": "00:05:25,950"
			},
			"offsets": {
				"from": 324130,
				"to": 325950
			},
			"text": " compre estará Plasma 6.3 y"
		},
		{
			"timestamps": {
				"from": "00:05:25,950",
				"to": "00:05:27,510"
			},
			"offsets": {
				"from": 325950,
				"to": 327510
			},
			"text": " seguro que estará todavía"
		},
		{
			"timestamps": {
				"from": "00:05:27,510",
				"to": "00:05:29,370"
			},
			"offsets": {
				"from": 327510,
				"to": 329370
			},
			"text": " mejor implementado, pero bueno,"
		},
		{
			"timestamps": {
				"from": "00:05:29,370",
				"to": "00:05:30,790"
			},
			"offsets": {
				"from": 329370,
				"to": 330790
			},
			"text": " la cosa es que ya en Linux hay"
		},
		{
			"timestamps": {
				"from": "00:05:30,790",
				"to": "00:05:32,350"
			},
			"offsets": {
				"from": 330790,
				"to": 332350
			},
			"text": " soporte para HDR, que es algo"
		},
		{
			"timestamps": {
				"from": "00:05:32,350",
				"to": "00:05:34,180"
			},
			"offsets": {
				"from": 332350,
				"to": 334180
			},
			"text": " que nos ha costado llegar."
		},
		{
			"timestamps": {
				"from": "00:05:34,580",
				"to": "00:05:36,390"
			},
			"offsets": {
				"from": 334580,
				"to": 336390
			},
			"text": " Por supuesto, esto será en Wayland,"
		},
		{
			"timestamps": {
				"from": "00:05:36,390",
				"to": "00:05:37,800"
			},
			"offsets": {
				"from": 336390,
				"to": 337800
			},
			"text": " en X11 no creo que eso vaya a"
		},
		{
			"timestamps": {
				"from": "00:05:37,800",
				"to": "00:05:38,400"
			},
			"offsets": {
				"from": 337800,
				"to": 338400
			},
			"text": " llegar."
		},
		{
			"timestamps": {
				"from": "00:05:38,400",
				"to": "00:05:39,980"
			},
			"offsets": {
				"from": 338400,
				"to": 339980
			},
			"text": " Una de las cosas de futuro, y"
		},
		{
			"timestamps": {
				"from": "00:05:39,980",
				"to": "00:05:42,180"
			},
			"offsets": {
				"from": 339980,
				"to": 342180
			},
			"text": " ya dejamos Plasma 6.2, que esto"
		},
		{
			"timestamps": {
				"from": "00:05:42,180",
				"to": "00:05:43,550"
			},
			"offsets": {
				"from": 342180,
				"to": 343550
			},
			"text": " ya lo tenemos aquí en las"
		},
		{
			"timestamps": {
				"from": "00:05:43,550",
				"to": "00:05:45,420"
			},
			"offsets": {
				"from": 343550,
				"to": 345420
			},
			"text": " manos, es que Dolphin mejorará"
		},
		{
			"timestamps": {
				"from": "00:05:45,420",
				"to": "00:05:47,360"
			},
			"offsets": {
				"from": 345420,
				"to": 347360
			},
			"text": " la búsqueda dentro de los ficheros"
		},
		{
			"timestamps": {
				"from": "00:05:47,360",
				"to": "00:05:49,010"
			},
			"offsets": {
				"from": 347360,
				"to": 349010
			},
			"text": " en la próxima versión, que"
		},
		{
			"timestamps": {
				"from": "00:05:49,010",
				"to": "00:05:50,870"
			},
			"offsets": {
				"from": 349010,
				"to": 350870
			},
			"text": " sea seguramente por diciembre,"
		},
		{
			"timestamps": {
				"from": "00:05:50,870",
				"to": "00:05:52,880"
			},
			"offsets": {
				"from": 350870,
				"to": 352880
			},
			"text": " en la 2412 de Gears."
		},
		{
			"timestamps": {
				"from": "00:05:53,260",
				"to": "00:05:55,740"
			},
			"offsets": {
				"from": 353260,
				"to": 355740
			},
			"text": " Y la cosa es que quien conozcáis"
		},
		{
			"timestamps": {
				"from": "00:05:55,740",
				"to": "00:05:58,400"
			},
			"offsets": {
				"from": 355740,
				"to": 358400
			},
			"text": " RipGrep, que no es una variante,"
		},
		{
			"timestamps": {
				"from": "00:05:58,400",
				"to": "00:06:00,690"
			},
			"offsets": {
				"from": 358400,
				"to": 360690
			},
			"text": " es una alternativa a Grep, lo"
		},
		{
			"timestamps": {
				"from": "00:06:00,690",
				"to": "00:06:02,540"
			},
			"offsets": {
				"from": 360690,
				"to": 362540
			},
			"text": " que pasa es que es súper"
		},
		{
			"timestamps": {
				"from": "00:06:02,540",
				"to": "00:06:04,840"
			},
			"offsets": {
				"from": 362540,
				"to": 364840
			},
			"text": " rápido y es capaz de buscar en"
		},
		{
			"timestamps": {
				"from": "00:06:04,840",
				"to": "00:06:06,160"
			},
			"offsets": {
				"from": 364840,
				"to": 366160
			},
			"text": " proyectos."
		},
		{
			"timestamps": {
				"from": "00:06:07,080",
				"to": "00:06:08,360"
			},
			"offsets": {
				"from": 367080,
				"to": 368360
			},
			"text": " Tiene mucha más funcionalidad"
		},
		{
			"timestamps": {
				"from": "00:06:08,360",
				"to": "00:06:09,560"
			},
			"offsets": {
				"from": 368360,
				"to": 369560
			},
			"text": " y mucho más rendimiento."
		},
		{
			"timestamps": {
				"from": "00:06:09,560",
				"to": "00:06:10,860"
			},
			"offsets": {
				"from": 369560,
				"to": 370860
			},
			"text": " Bueno, pues Dolphin va a ser"
		},
		{
			"timestamps": {
				"from": "00:06:10,860",
				"to": "00:06:12,280"
			},
			"offsets": {
				"from": 370860,
				"to": 372280
			},
			"text": " capaz de usarlo, si lo tenéis"
		},
		{
			"timestamps": {
				"from": "00:06:12,280",
				"to": "00:06:13,710"
			},
			"offsets": {
				"from": 372280,
				"to": 373710
			},
			"text": " instalado en el sistema, para"
		},
		{
			"timestamps": {
				"from": "00:06:13,710",
				"to": "00:06:15,060"
			},
			"offsets": {
				"from": 373710,
				"to": 375060
			},
			"text": " que las búsquedas sean mucho"
		},
		{
			"timestamps": {
				"from": "00:06:15,060",
				"to": "00:06:16,040"
			},
			"offsets": {
				"from": 375060,
				"to": 376040
			},
			"text": " más rápidas."
		},
		{
			"timestamps": {
				"from": "00:06:16,040",
				"to": "00:06:17,720"
			},
			"offsets": {
				"from": 376040,
				"to": 377720
			},
			"text": " Esto creo que solo va a funcionar"
		},
		{
			"timestamps": {
				"from": "00:06:17,720",
				"to": "00:06:19,340"
			},
			"offsets": {
				"from": 377720,
				"to": 379340
			},
			"text": " dentro de los ficheros, que es"
		},
		{
			"timestamps": {
				"from": "00:06:19,340",
				"to": "00:06:20,780"
			},
			"offsets": {
				"from": 379340,
				"to": 380780
			},
			"text": " lo que hace RipGrep, busca"
		},
		{
			"timestamps": {
				"from": "00:06:20,780",
				"to": "00:06:22,210"
			},
			"offsets": {
				"from": 380780,
				"to": 382210
			},
			"text": " contenido, y si lo tenéis"
		},
		{
			"timestamps": {
				"from": "00:06:22,210",
				"to": "00:06:23,100"
			},
			"offsets": {
				"from": 382210,
				"to": 383100
			},
			"text": " activado."
		},
		{
			"timestamps": {
				"from": "00:06:23,100",
				"to": "00:06:24,930"
			},
			"offsets": {
				"from": 383100,
				"to": 384930
			},
			"text": " Lo que es el nombre de fichero"
		},
		{
			"timestamps": {
				"from": "00:06:24,930",
				"to": "00:06:27,010"
			},
			"offsets": {
				"from": 384930,
				"to": 387010
			},
			"text": " va a seguir funcionando igual,"
		},
		{
			"timestamps": {
				"from": "00:06:27,010",
				"to": "00:06:29,190"
			},
			"offsets": {
				"from": 387010,
				"to": 389190
			},
			"text": " y también vais a seguir teniendo"
		},
		{
			"timestamps": {
				"from": "00:06:29,190",
				"to": "00:06:31,180"
			},
			"offsets": {
				"from": 389190,
				"to": 391180
			},
			"text": " la funcionalidad de Akonadi,"
		},
		{
			"timestamps": {
				"from": "00:06:31,180",
				"to": "00:06:32,540"
			},
			"offsets": {
				"from": 391180,
				"to": 392540
			},
			"text": " eso no cambia."
		},
		{
			"timestamps": {
				"from": "00:06:33,100",
				"to": "00:06:35,190"
			},
			"offsets": {
				"from": 393100,
				"to": 395190
			},
			"text": " Una pequeña noticia de accesibilidad"
		},
		{
			"timestamps": {
				"from": "00:06:35,190",
				"to": "00:06:36,380"
			},
			"offsets": {
				"from": 395190,
				"to": 396380
			},
			"text": " tangencialmente."
		},
		{
			"timestamps": {
				"from": "00:06:36,380",
				"to": "00:06:38,970"
			},
			"offsets": {
				"from": 396380,
				"to": 398970
			},
			"text": " Ya es posible crear y usar cursores"
		},
		{
			"timestamps": {
				"from": "00:06:38,970",
				"to": "00:06:40,060"
			},
			"offsets": {
				"from": 398970,
				"to": 400060
			},
			"text": " SVG en Plasma."
		},
		{
			"timestamps": {
				"from": "00:06:40,060",
				"to": "00:06:41,750"
			},
			"offsets": {
				"from": 400060,
				"to": 401750
			},
			"text": " Esto, por ejemplo, si os acordáis,"
		},
		{
			"timestamps": {
				"from": "00:06:41,750",
				"to": "00:06:42,980"
			},
			"offsets": {
				"from": 401750,
				"to": 402980
			},
			"text": " el efecto que ahora viene por"
		},
		{
			"timestamps": {
				"from": "00:06:42,980",
				"to": "00:06:44,240"
			},
			"offsets": {
				"from": 402980,
				"to": 404240
			},
			"text": " defecto, de que sin meneer el"
		},
		{
			"timestamps": {
				"from": "00:06:44,240",
				"to": "00:06:45,800"
			},
			"offsets": {
				"from": 404240,
				"to": 405800
			},
			"text": " ratón se va haciendo grande."
		},
		{
			"timestamps": {
				"from": "00:06:45,800",
				"to": "00:06:47,690"
			},
			"offsets": {
				"from": 405800,
				"to": 407690
			},
			"text": " La primera implementación, el"
		},
		{
			"timestamps": {
				"from": "00:06:47,690",
				"to": "00:06:49,490"
			},
			"offsets": {
				"from": 407690,
				"to": 409490
			},
			"text": " ratón se hacía, el puntero se"
		},
		{
			"timestamps": {
				"from": "00:06:49,490",
				"to": "00:06:51,050"
			},
			"offsets": {
				"from": 409490,
				"to": 411050
			},
			"text": " hacía grande, pero se hacía"
		},
		{
			"timestamps": {
				"from": "00:06:51,050",
				"to": "00:06:52,660"
			},
			"offsets": {
				"from": 411050,
				"to": 412660
			},
			"text": " borroso y era un poco feo."
		},
		{
			"timestamps": {
				"from": "00:06:52,660",
				"to": "00:06:53,860"
			},
			"offsets": {
				"from": 412660,
				"to": 413860
			},
			"text": " Eso es porque estaba escalando"
		},
		{
			"timestamps": {
				"from": "00:06:53,860",
				"to": "00:06:54,460"
			},
			"offsets": {
				"from": 413860,
				"to": 414460
			},
			"text": " una imagen."
		},
		{
			"timestamps": {
				"from": "00:06:54,460",
				"to": "00:06:57,010"
			},
			"offsets": {
				"from": 414460,
				"to": 417010
			},
			"text": " Ahora que tenemos iconos SVG"
		},
		{
			"timestamps": {
				"from": "00:06:57,010",
				"to": "00:06:59,970"
			},
			"offsets": {
				"from": 417010,
				"to": 419970
			},
			"text": " que se escalan perfectamente,"
		},
		{
			"timestamps": {
				"from": "00:06:59,970",
				"to": "00:07:02,530"
			},
			"offsets": {
				"from": 419970,
				"to": 422530
			},
			"text": " pues el ratón va a poder tener"
		},
		{
			"timestamps": {
				"from": "00:07:02,530",
				"to": "00:07:04,260"
			},
			"offsets": {
				"from": 422530,
				"to": 424260
			},
			"text": " un puntero SVG."
		},
		{
			"timestamps": {
				"from": "00:07:04,260",
				"to": "00:07:05,720"
			},
			"offsets": {
				"from": 424260,
				"to": 425720
			},
			"text": " Ahora mismo no están todos"
		},
		{
			"timestamps": {
				"from": "00:07:05,720",
				"to": "00:07:07,100"
			},
			"offsets": {
				"from": 425720,
				"to": 427100
			},
			"text": " disponibles, pero ya hay"
		},
		{
			"timestamps": {
				"from": "00:07:07,100",
				"to": "00:07:08,680"
			},
			"offsets": {
				"from": 427100,
				"to": 428680
			},
			"text": " algunos dentro del Plasma, y"
		},
		{
			"timestamps": {
				"from": "00:07:08,680",
				"to": "00:07:10,320"
			},
			"offsets": {
				"from": 428680,
				"to": 430320
			},
			"text": " luego se podrán ir añadiendo"
		},
		{
			"timestamps": {
				"from": "00:07:10,320",
				"to": "00:07:11,800"
			},
			"offsets": {
				"from": 430320,
				"to": 431800
			},
			"text": " más, que escalen bien."
		},
		{
			"timestamps": {
				"from": "00:07:11,800",
				"to": "00:07:12,800"
			},
			"offsets": {
				"from": 431800,
				"to": 432800
			},
			"text": " Y esto viene muy bien a la"
		},
		{
			"timestamps": {
				"from": "00:07:12,800",
				"to": "00:07:14,300"
			},
			"offsets": {
				"from": 432800,
				"to": 434300
			},
			"text": " accesibilidad, porque hay gente"
		},
		{
			"timestamps": {
				"from": "00:07:14,300",
				"to": "00:07:15,740"
			},
			"offsets": {
				"from": 434300,
				"to": 435740
			},
			"text": " que necesita el ratón muy gordo,"
		},
		{
			"timestamps": {
				"from": "00:07:15,740",
				"to": "00:07:17,880"
			},
			"offsets": {
				"from": 435740,
				"to": 437880
			},
			"text": " y está bien que sea fino y con"
		},
		{
			"timestamps": {
				"from": "00:07:17,880",
				"to": "00:07:20,100"
			},
			"offsets": {
				"from": 437880,
				"to": 440100
			},
			"text": " líneas y no emborronado."
		},
		{
			"timestamps": {
				"from": "00:07:20,300",
				"to": "00:07:22,310"
			},
			"offsets": {
				"from": 440300,
				"to": 442310
			},
			"text": " Luego, dentro de noticias de la"
		},
		{
			"timestamps": {
				"from": "00:07:22,310",
				"to": "00:07:24,370"
			},
			"offsets": {
				"from": 442310,
				"to": 444370
			},
			"text": " Asociación de KDE, pues esto"
		},
		{
			"timestamps": {
				"from": "00:07:24,370",
				"to": "00:07:25,970"
			},
			"offsets": {
				"from": 444370,
				"to": 445970
			},
			"text": " ha pasado volando desde el"
		},
		{
			"timestamps": {
				"from": "00:07:25,970",
				"to": "00:07:27,910"
			},
			"offsets": {
				"from": 445970,
				"to": 447910
			},
			"text": " episodio anterior, pero hemos"
		},
		{
			"timestamps": {
				"from": "00:07:27,910",
				"to": "00:07:29,560"
			},
			"offsets": {
				"from": 447910,
				"to": 449560
			},
			"text": " hecho unas elecciones que las"
		},
		{
			"timestamps": {
				"from": "00:07:29,560",
				"to": "00:07:32,440"
			},
			"offsets": {
				"from": 449560,
				"to": 452440
			},
			"text": " teníamos pendientes de la Akademy,"
		},
		{
			"timestamps": {
				"from": "00:07:32,440",
				"to": "00:07:33,720"
			},
			"offsets": {
				"from": 452440,
				"to": 453720
			},
			"text": " porque a nuestro querido"
		},
		{
			"timestamps": {
				"from": "00:07:33,720",
				"to": "00:07:35,420"
			},
			"offsets": {
				"from": 453720,
				"to": 455420
			},
			"text": " presidente Adrián se le acababa"
		},
		{
			"timestamps": {
				"from": "00:07:35,420",
				"to": "00:07:36,930"
			},
			"offsets": {
				"from": 455420,
				"to": 456930
			},
			"text": " el plazo de mandato, son los"
		},
		{
			"timestamps": {
				"from": "00:07:36,930",
				"to": "00:07:39,140"
			},
			"offsets": {
				"from": 456930,
				"to": 459140
			},
			"text": " estatutos, y entonces decidimos"
		},
		{
			"timestamps": {
				"from": "00:07:39,140",
				"to": "00:07:41,240"
			},
			"offsets": {
				"from": 459140,
				"to": 461240
			},
			"text": " que para hacer unas elecciones"
		},
		{
			"timestamps": {
				"from": "00:07:41,240",
				"to": "00:07:42,520"
			},
			"offsets": {
				"from": 461240,
				"to": 462520
			},
			"text": " solo a presidente,"
		},
		{
			"timestamps": {
				"from": "00:07:42,860",
				"to": "00:07:44,210"
			},
			"offsets": {
				"from": 462860,
				"to": 464210
			},
			"text": " y al poco tener que hacer otras"
		},
		{
			"timestamps": {
				"from": "00:07:44,210",
				"to": "00:07:45,510"
			},
			"offsets": {
				"from": 464210,
				"to": 465510
			},
			"text": " para la Junta, dijimos, mira,"
		},
		{
			"timestamps": {
				"from": "00:07:45,510",
				"to": "00:07:47,110"
			},
			"offsets": {
				"from": 465510,
				"to": 467110
			},
			"text": " lo hacemos todo de golpe, dimitimos"
		},
		{
			"timestamps": {
				"from": "00:07:47,110",
				"to": "00:07:48,600"
			},
			"offsets": {
				"from": 467110,
				"to": 468600
			},
			"text": " y renovamos Junta y Presidente."
		},
		{
			"timestamps": {
				"from": "00:07:48,600",
				"to": "00:07:50,040"
			},
			"offsets": {
				"from": 468600,
				"to": 470040
			},
			"text": " Y hemos cambiado un poco la"
		},
		{
			"timestamps": {
				"from": "00:07:50,040",
				"to": "00:07:51,720"
			},
			"offsets": {
				"from": 470040,
				"to": 471720
			},
			"text": " distribución, aunque no tanto,"
		},
		{
			"timestamps": {
				"from": "00:07:51,720",
				"to": "00:07:53,100"
			},
			"offsets": {
				"from": 471720,
				"to": 473100
			},
			"text": " porque lo que hemos hecho es"
		},
		{
			"timestamps": {
				"from": "00:07:53,100",
				"to": "00:07:55,040"
			},
			"offsets": {
				"from": 473100,
				"to": 475040
			},
			"text": " que Adrián, que era presidente,"
		},
		{
			"timestamps": {
				"from": "00:07:55,040",
				"to": "00:07:56,500"
			},
			"offsets": {
				"from": 475040,
				"to": 476500
			},
			"text": " desde aquí gracias por tu"
		},
		{
			"timestamps": {
				"from": "00:07:56,500",
				"to": "00:07:58,720"
			},
			"offsets": {
				"from": 476500,
				"to": 478720
			},
			"text": " trabajo, pasa a vicepresidente."
		},
		{
			"timestamps": {
				"from": "00:07:58,720",
				"to": "00:08:00,740"
			},
			"offsets": {
				"from": 478720,
				"to": 480740
			},
			"text": " Rubén, que era vicepresidente,"
		},
		{
			"timestamps": {
				"from": "00:08:00,740",
				"to": "00:08:02,380"
			},
			"offsets": {
				"from": 480740,
				"to": 482380
			},
			"text": " ahora pasa a presidente."
		},
		{
			"timestamps": {
				"from": "00:08:02,380",
				"to": "00:08:03,820"
			},
			"offsets": {
				"from": 482380,
				"to": 483820
			},
			"text": " Mucho ánimo, presidente, con"
		},
		{
			"timestamps": {
				"from": "00:08:03,820",
				"to": "00:08:05,520"
			},
			"offsets": {
				"from": 483820,
				"to": 485520
			},
			"text": " el trabajo que tienes por delante."
		},
		{
			"timestamps": {
				"from": "00:08:06,020",
				"to": "00:08:07,890"
			},
			"offsets": {
				"from": 486020,
				"to": 487890
			},
			"text": " Repite el tesorero, José Millán,"
		},
		{
			"timestamps": {
				"from": "00:08:07,890",
				"to": "00:08:09,830"
			},
			"offsets": {
				"from": 487890,
				"to": 489830
			},
			"text": " repite nuestro inigualable"
		},
		{
			"timestamps": {
				"from": "00:08:09,830",
				"to": "00:08:12,140"
			},
			"offsets": {
				"from": 489830,
				"to": 492140
			},
			"text": " secretario, Baltasar Ortega,"
		},
		{
			"timestamps": {
				"from": "00:08:12,140",
				"to": "00:08:13,640"
			},
			"offsets": {
				"from": 492140,
				"to": 493640
			},
			"text": " repetimos de vocales,"
		},
		{
			"timestamps": {
				"from": "00:08:13,640",
				"to": "00:08:16,240"
			},
			"offsets": {
				"from": 493640,
				"to": 496240
			},
			"text": " Rosy Matthews y yo, y tenemos"
		},
		{
			"timestamps": {
				"from": "00:08:16,240",
				"to": "00:08:18,410"
			},
			"offsets": {
				"from": 496240,
				"to": 498410
			},
			"text": " una nueva incorporación, que"
		},
		{
			"timestamps": {
				"from": "00:08:18,410",
				"to": "00:08:20,660"
			},
			"offsets": {
				"from": 498410,
				"to": 500660
			},
			"text": " es Iván G.J., ya lo conocéis"
		},
		{
			"timestamps": {
				"from": "00:08:20,660",
				"to": "00:08:21,620"
			},
			"offsets": {
				"from": 500660,
				"to": 501620
			},
			"text": " porque ha estado por aquí"
		},
		{
			"timestamps": {
				"from": "00:08:21,620",
				"to": "00:08:23,650"
			},
			"offsets": {
				"from": 501620,
				"to": 503650
			},
			"text": " y también está divulgando por"
		},
		{
			"timestamps": {
				"from": "00:08:23,650",
				"to": "00:08:25,350"
			},
			"offsets": {
				"from": 503650,
				"to": 505350
			},
			"text": " PeerTube y por YouTube, que"
		},
		{
			"timestamps": {
				"from": "00:08:25,350",
				"to": "00:08:27,310"
			},
			"offsets": {
				"from": 505350,
				"to": 507310
			},
			"text": " entra en sustitución de José"
		},
		{
			"timestamps": {
				"from": "00:08:27,310",
				"to": "00:08:30,140"
			},
			"offsets": {
				"from": 507310,
				"to": 510140
			},
			"text": " Picón, que fue el padre espiritual"
		},
		{
			"timestamps": {
				"from": "00:08:30,140",
				"to": "00:08:30,960"
			},
			"offsets": {
				"from": 510140,
				"to": 510960
			},
			"text": " de este podcast,"
		},
		{
			"timestamps": {
				"from": "00:08:30,960",
				"to": "00:08:33,810"
			},
			"offsets": {
				"from": 510960,
				"to": 513810
			},
			"text": " al que le debemos muchas iniciativas"
		},
		{
			"timestamps": {
				"from": "00:08:33,810",
				"to": "00:08:36,110"
			},
			"offsets": {
				"from": 513810,
				"to": 516110
			},
			"text": " y mucho tiempo que ha echado de"
		},
		{
			"timestamps": {
				"from": "00:08:36,110",
				"to": "00:08:37,940"
			},
			"offsets": {
				"from": 516110,
				"to": 517940
			},
			"text": " su vida personal en este"
		},
		{
			"timestamps": {
				"from": "00:08:37,940",
				"to": "00:08:39,460"
			},
			"offsets": {
				"from": 517940,
				"to": 519460
			},
			"text": " proyecto y que ahora mismo"
		},
		{
			"timestamps": {
				"from": "00:08:39,460",
				"to": "00:08:40,970"
			},
			"offsets": {
				"from": 519460,
				"to": 520970
			},
			"text": " necesita tomarse un pequeño"
		},
		{
			"timestamps": {
				"from": "00:08:40,970",
				"to": "00:08:41,640"
			},
			"offsets": {
				"from": 520970,
				"to": 521640
			},
			"text": " descanso,"
		},
		{
			"timestamps": {
				"from": "00:08:41,640",
				"to": "00:08:43,010"
			},
			"offsets": {
				"from": 521640,
				"to": 523010
			},
			"text": " pero que sigue con nosotros en"
		},
		{
			"timestamps": {
				"from": "00:08:43,010",
				"to": "00:08:44,490"
			},
			"offsets": {
				"from": 523010,
				"to": 524490
			},
			"text": " la comunidad y al que le deseamos"
		},
		{
			"timestamps": {
				"from": "00:08:44,490",
				"to": "00:08:45,120"
			},
			"offsets": {
				"from": 524490,
				"to": 525120
			},
			"text": " lo mejor."
		},
		{
			"timestamps": {
				"from": "00:08:45,120",
				"to": "00:08:47,140"
			},
			"offsets": {
				"from": 525120,
				"to": 527140
			},
			"text": " Y luego, una noticia fuera ya"
		},
		{
			"timestamps": {
				"from": "00:08:47,140",
				"to": "00:08:48,900"
			},
			"offsets": {
				"from": 527140,
				"to": 528900
			},
			"text": " del entorno KDE, pero que"
		},
		{
			"timestamps": {
				"from": "00:08:48,900",
				"to": "00:08:51,120"
			},
			"offsets": {
				"from": 528900,
				"to": 531120
			},
			"text": " nosotros lo usamos, es que hay"
		},
		{
			"timestamps": {
				"from": "00:08:51,120",
				"to": "00:08:52,560"
			},
			"offsets": {
				"from": 531120,
				"to": 532560
			},
			"text": " una nueva versión de PeerTube,"
		},
		{
			"timestamps": {
				"from": "00:08:52,560",
				"to": "00:08:54,270"
			},
			"offsets": {
				"from": 532560,
				"to": 534270
			},
			"text": " en la que tenemos ya audio y"
		},
		{
			"timestamps": {
				"from": "00:08:54,270",
				"to": "00:08:55,360"
			},
			"offsets": {
				"from": 534270,
				"to": 535360
			},
			"text": " vídeo separado."
		},
		{
			"timestamps": {
				"from": "00:08:55,360",
				"to": "00:08:56,830"
			},
			"offsets": {
				"from": 535360,
				"to": 536830
			},
			"text": " Esto es de que puedes tener,"
		},
		{
			"timestamps": {
				"from": "00:08:56,830",
				"to": "00:08:58,860"
			},
			"offsets": {
				"from": 536830,
				"to": 538860
			},
			"text": " aparte de que quiero ver a 1080"
		},
		{
			"timestamps": {
				"from": "00:08:58,860",
				"to": "00:09:01,000"
			},
			"offsets": {
				"from": 538860,
				"to": 541000
			},
			"text": " el vídeo, quiero verlo a 720,"
		},
		{
			"timestamps": {
				"from": "00:09:01,000",
				"to": "00:09:03,680"
			},
			"offsets": {
				"from": 541000,
				"to": 543680
			},
			"text": " pues ahora quiero ver solo una"
		},
		{
			"timestamps": {
				"from": "00:09:03,680",
				"to": "00:09:06,620"
			},
			"offsets": {
				"from": 543680,
				"to": 546620
			},
			"text": " pantalla negra y tener el audio,"
		},
		{
			"timestamps": {
				"from": "00:09:06,620",
				"to": "00:09:08,520"
			},
			"offsets": {
				"from": 546620,
				"to": 548520
			},
			"text": " porque a lo mejor tengo el móvil"
		},
		{
			"timestamps": {
				"from": "00:09:08,520",
				"to": "00:09:10,270"
			},
			"offsets": {
				"from": 548520,
				"to": 550270
			},
			"text": " apagado o no me interesa y así"
		},
		{
			"timestamps": {
				"from": "00:09:10,270",
				"to": "00:09:11,440"
			},
			"offsets": {
				"from": 550270,
				"to": 551440
			},
			"text": " ahorras datos."
		},
		{
			"timestamps": {
				"from": "00:09:11,680",
				"to": "00:09:13,300"
			},
			"offsets": {
				"from": 551680,
				"to": 553300
			},
			"text": " Esto además viene bien porque"
		},
		{
			"timestamps": {
				"from": "00:09:13,300",
				"to": "00:09:14,620"
			},
			"offsets": {
				"from": 553300,
				"to": 554620
			},
			"text": " es una primera parte que hará"
		},
		{
			"timestamps": {
				"from": "00:09:14,620",
				"to": "00:09:16,310"
			},
			"offsets": {
				"from": 554620,
				"to": 556310
			},
			"text": " falta para conseguir implementar"
		},
		{
			"timestamps": {
				"from": "00:09:16,310",
				"to": "00:09:18,280"
			},
			"offsets": {
				"from": 556310,
				"to": 558280
			},
			"text": " que se puedan tener varios audios."
		},
		{
			"timestamps": {
				"from": "00:09:18,280",
				"to": "00:09:19,910"
			},
			"offsets": {
				"from": 558280,
				"to": 559910
			},
			"text": " Ahora mismo no lo puedes tener,"
		},
		{
			"timestamps": {
				"from": "00:09:19,910",
				"to": "00:09:21,600"
			},
			"offsets": {
				"from": 559910,
				"to": 561600
			},
			"text": " pero es una petición que hay"
		},
		{
			"timestamps": {
				"from": "00:09:21,600",
				"to": "00:09:23,580"
			},
			"offsets": {
				"from": 561600,
				"to": 563580
			},
			"text": " para poder tener o varios idiomas"
		},
		{
			"timestamps": {
				"from": "00:09:23,580",
				"to": "00:09:25,100"
			},
			"offsets": {
				"from": 563580,
				"to": 565100
			},
			"text": " o audios con comentarios"
		},
		{
			"timestamps": {
				"from": "00:09:25,100",
				"to": "00:09:27,060"
			},
			"offsets": {
				"from": 565100,
				"to": 567060
			},
			"text": " descriptivos para personas con"
		},
		{
			"timestamps": {
				"from": "00:09:27,060",
				"to": "00:09:28,780"
			},
			"offsets": {
				"from": 567060,
				"to": 568780
			},
			"text": " deficiencias visuales."
		},
		{
			"timestamps": {
				"from": "00:09:28,780",
				"to": "00:09:30,390"
			},
			"offsets": {
				"from": 568780,
				"to": 570390
			},
			"text": " Pues es una primera piedra en"
		},
		{
			"timestamps": {
				"from": "00:09:30,390",
				"to": "00:09:31,200"
			},
			"offsets": {
				"from": 570390,
				"to": 571200
			},
			"text": " el camino."
		},
		{
			"timestamps": {
				"from": "00:09:31,200",
				"to": "00:09:33,530"
			},
			"offsets": {
				"from": 571200,
				"to": 573530
			},
			"text": " Luego también trae un buscador"
		},
		{
			"timestamps": {
				"from": "00:09:33,530",
				"to": "00:09:35,860"
			},
			"offsets": {
				"from": 573530,
				"to": 575860
			},
			"text": " en el widget de subtítulos."
		},
		{
			"timestamps": {
				"from": "00:09:35,860",
				"to": "00:09:37,270"
			},
			"offsets": {
				"from": 575860,
				"to": 577270
			},
			"text": " Tú puedes tener subtítulos en"
		},
		{
			"timestamps": {
				"from": "00:09:37,270",
				"to": "00:09:38,200"
			},
			"offsets": {
				"from": 577270,
				"to": 578200
			},
			"text": " PeerTube, que los ves"
		},
		{
			"timestamps": {
				"from": "00:09:38,200",
				"to": "00:09:39,600"
			},
			"offsets": {
				"from": 578200,
				"to": 579600
			},
			"text": " directamente en el vídeo."
		},
		{
			"timestamps": {
				"from": "00:09:39,680",
				"to": "00:09:41,430"
			},
			"offsets": {
				"from": 579680,
				"to": 581430
			},
			"text": " Ahora hay un widget que se pone"
		},
		{
			"timestamps": {
				"from": "00:09:41,430",
				"to": "00:09:43,040"
			},
			"offsets": {
				"from": 581430,
				"to": 583040
			},
			"text": " en el panel lateral derecho"
		},
		{
			"timestamps": {
				"from": "00:09:43,040",
				"to": "00:09:44,770"
			},
			"offsets": {
				"from": 583040,
				"to": 584770
			},
			"text": " abajo y entonces vas viendo"
		},
		{
			"timestamps": {
				"from": "00:09:44,770",
				"to": "00:09:45,640"
			},
			"offsets": {
				"from": 584770,
				"to": 585640
			},
			"text": " todo el texto"
		},
		{
			"timestamps": {
				"from": "00:09:45,640",
				"to": "00:09:46,780"
			},
			"offsets": {
				"from": 585640,
				"to": 586780
			},
			"text": " y ahora ahí es donde han"
		},
		{
			"timestamps": {
				"from": "00:09:46,780",
				"to": "00:09:48,000"
			},
			"offsets": {
				"from": 586780,
				"to": 588000
			},
			"text": " puesto que puedes buscar"
		},
		{
			"timestamps": {
				"from": "00:09:48,000",
				"to": "00:09:48,720"
			},
			"offsets": {
				"from": 588000,
				"to": 588720
			},
			"text": " palabras."
		},
		{
			"timestamps": {
				"from": "00:09:48,720",
				"to": "00:09:50,190"
			},
			"offsets": {
				"from": 588720,
				"to": 590190
			},
			"text": " Es una funcionalidad que muchas"
		},
		{
			"timestamps": {
				"from": "00:09:50,190",
				"to": "00:09:51,700"
			},
			"offsets": {
				"from": 590190,
				"to": 591700
			},
			"text": " aplicaciones de podcast tienen"
		},
		{
			"timestamps": {
				"from": "00:09:51,700",
				"to": "00:09:52,940"
			},
			"offsets": {
				"from": 591700,
				"to": 592940
			},
			"text": " y que viene muy bien cuando"
		},
		{
			"timestamps": {
				"from": "00:09:52,940",
				"to": "00:09:54,220"
			},
			"offsets": {
				"from": 592940,
				"to": 594220
			},
			"text": " quieres saber algo en concreto"
		},
		{
			"timestamps": {
				"from": "00:09:54,220",
				"to": "00:09:55,000"
			},
			"offsets": {
				"from": 594220,
				"to": 595000
			},
			"text": " que se ha dicho."
		},
		{
			"timestamps": {
				"from": "00:09:55,000",
				"to": "00:09:56,300"
			},
			"offsets": {
				"from": 595000,
				"to": 596300
			},
			"text": " Y luego hay una tercera novedad"
		},
		{
			"timestamps": {
				"from": "00:09:56,300",
				"to": "00:09:57,400"
			},
			"offsets": {
				"from": 596300,
				"to": 597400
			},
			"text": " que a mí me sorprendió un"
		},
		{
			"timestamps": {
				"from": "00:09:57,400",
				"to": "00:09:57,760"
			},
			"offsets": {
				"from": 597400,
				"to": 597760
			},
			"text": " poco,"
		},
		{
			"timestamps": {
				"from": "00:09:57,760",
				"to": "00:09:59,780"
			},
			"offsets": {
				"from": 597760,
				"to": 599780
			},
			"text": " que es que tienes la posibilidad"
		},
		{
			"timestamps": {
				"from": "00:09:59,780",
				"to": "00:10:01,660"
			},
			"offsets": {
				"from": 599780,
				"to": 601660
			},
			"text": " de configurar YouTube DL para"
		},
		{
			"timestamps": {
				"from": "00:10:01,660",
				"to": "00:10:02,960"
			},
			"offsets": {
				"from": 601660,
				"to": 602960
			},
			"text": " importaciones."
		},
		{
			"timestamps": {
				"from": "00:10:03,520",
				"to": "00:10:04,800"
			},
			"offsets": {
				"from": 603520,
				"to": 604800
			},
			"text": " Yo me pensaba que YouTube DL"
		},
		{
			"timestamps": {
				"from": "00:10:04,800",
				"to": "00:10:06,380"
			},
			"offsets": {
				"from": 604800,
				"to": 606380
			},
			"text": " estaba en mantenimiento flojo y"
		},
		{
			"timestamps": {
				"from": "00:10:06,380",
				"to": "00:10:07,480"
			},
			"offsets": {
				"from": 606380,
				"to": 607480
			},
			"text": " que había uno nuevo,"
		},
		{
			"timestamps": {
				"from": "00:10:07,480",
				"to": "00:10:09,020"
			},
			"offsets": {
				"from": 607480,
				"to": 609020
			},
			"text": " pero si lo han implementado"
		},
		{
			"timestamps": {
				"from": "00:10:09,020",
				"to": "00:10:10,920"
			},
			"offsets": {
				"from": 609020,
				"to": 610920
			},
			"text": " ahora debe ser que les va bien."
		},
		{
			"timestamps": {
				"from": "00:10:10,920",
				"to": "00:10:12,480"
			},
			"offsets": {
				"from": 610920,
				"to": 612480
			},
			"text": " PeerTube tiene la opción de que"
		},
		{
			"timestamps": {
				"from": "00:10:12,480",
				"to": "00:10:14,130"
			},
			"offsets": {
				"from": 612480,
				"to": 614130
			},
			"text": " tú puedes sincronizar un canal"
		},
		{
			"timestamps": {
				"from": "00:10:14,130",
				"to": "00:10:15,320"
			},
			"offsets": {
				"from": 614130,
				"to": 615320
			},
			"text": " de YouTube con PeerTube"
		},
		{
			"timestamps": {
				"from": "00:10:15,320",
				"to": "00:10:16,580"
			},
			"offsets": {
				"from": 615320,
				"to": 616580
			},
			"text": " y entonces te hace un espejo."
		},
		{
			"timestamps": {
				"from": "00:10:16,580",
				"to": "00:10:18,700"
			},
			"offsets": {
				"from": 616580,
				"to": 618700
			},
			"text": " Si borras, te lo vuelve a poner."
		},
		{
			"timestamps": {
				"from": "00:10:18,700",
				"to": "00:10:20,580"
			},
			"offsets": {
				"from": 618700,
				"to": 620580
			},
			"text": " Si lo que hay en YouTube se"
		},
		{
			"timestamps": {
				"from": "00:10:20,580",
				"to": "00:10:23,200"
			},
			"offsets": {
				"from": 620580,
				"to": 623200
			},
			"text": " asegura de que esté en PeerTube."
		},
		{
			"timestamps": {
				"from": "00:10:23,560",
				"to": "00:10:25,300"
			},
			"offsets": {
				"from": 623560,
				"to": 625300
			},
			"text": " Pero como YouTube está siempre"
		},
		{
			"timestamps": {
				"from": "00:10:25,300",
				"to": "00:10:27,050"
			},
			"offsets": {
				"from": 625300,
				"to": 627050
			},
			"text": " así haciendo un poco la puñeta"
		},
		{
			"timestamps": {
				"from": "00:10:27,050",
				"to": "00:10:28,740"
			},
			"offsets": {
				"from": 627050,
				"to": 628740
			},
			"text": " en que esto no sea tan fácil,"
		},
		{
			"timestamps": {
				"from": "00:10:28,740",
				"to": "00:10:30,380"
			},
			"offsets": {
				"from": 628740,
				"to": 630380
			},
			"text": " se ve que no es suficiente con"
		},
		{
			"timestamps": {
				"from": "00:10:30,380",
				"to": "00:10:31,860"
			},
			"offsets": {
				"from": 630380,
				"to": 631860
			},
			"text": " tener una implementación"
		},
		{
			"timestamps": {
				"from": "00:10:31,860",
				"to": "00:10:33,940"
			},
			"offsets": {
				"from": 631860,
				"to": 633940
			},
			"text": " directamente en PeerTube ahí"
		},
		{
			"timestamps": {
				"from": "00:10:33,940",
				"to": "00:10:34,940"
			},
			"offsets": {
				"from": 633940,
				"to": 634940
			},
			"text": " escrita de golpe,"
		},
		{
			"timestamps": {
				"from": "00:10:34,940",
				"to": "00:10:36,620"
			},
			"offsets": {
				"from": 634940,
				"to": 636620
			},
			"text": " sino que han hecho como dependencia"
		},
		{
			"timestamps": {
				"from": "00:10:36,620",
				"to": "00:10:38,020"
			},
			"offsets": {
				"from": 636620,
				"to": 638020
			},
			"text": " un programa que se encargue de"
		},
		{
			"timestamps": {
				"from": "00:10:38,020",
				"to": "00:10:39,250"
			},
			"offsets": {
				"from": 638020,
				"to": 639250
			},
			"text": " actualizarse cada vez que"
		},
		{
			"timestamps": {
				"from": "00:10:39,250",
				"to": "00:10:39,620"
			},
			"offsets": {
				"from": 639250,
				"to": 639620
			},
			"text": " YouTube"
		},
		{
			"timestamps": {
				"from": "00:10:39,620",
				"to": "00:10:41,490"
			},
			"offsets": {
				"from": 639620,
				"to": 641490
			},
			"text": " haga alguna de sus triquiñuelas"
		},
		{
			"timestamps": {
				"from": "00:10:41,490",
				"to": "00:10:43,520"
			},
			"offsets": {
				"from": 641490,
				"to": 643520
			},
			"text": " para que esto deje de funcionar."
		},
		{
			"timestamps": {
				"from": "00:10:44,480",
				"to": "00:10:46,280"
			},
			"offsets": {
				"from": 644480,
				"to": 646280
			},
			"text": " Y ya sí que fuera de lo que es"
		},
		{
			"timestamps": {
				"from": "00:10:46,280",
				"to": "00:10:48,070"
			},
			"offsets": {
				"from": 646280,
				"to": 648070
			},
			"text": " el Entorno KDE y casi el Show"
		},
		{
			"timestamps": {
				"from": "00:10:48,070",
				"to": "00:10:48,800"
			},
			"offsets": {
				"from": 648070,
				"to": 648800
			},
			"text": " Art Libre,"
		},
		{
			"timestamps": {
				"from": "00:10:48,800",
				"to": "00:10:50,740"
			},
			"offsets": {
				"from": 648800,
				"to": 650740
			},
			"text": " quería dar las gracias a los"
		},
		{
			"timestamps": {
				"from": "00:10:50,740",
				"to": "00:10:53,100"
			},
			"offsets": {
				"from": 650740,
				"to": 653100
			},
			"text": " compañeros de Cañas y Poscas,"
		},
		{
			"timestamps": {
				"from": "00:10:53,100",
				"to": "00:10:54,780"
			},
			"offsets": {
				"from": 653100,
				"to": 654780
			},
			"text": " que es un evento que hicieron"
		},
		{
			"timestamps": {
				"from": "00:10:54,780",
				"to": "00:10:56,440"
			},
			"offsets": {
				"from": 654780,
				"to": 656440
			},
			"text": " los últimos de Feedlipinas y"
		},
		{
			"timestamps": {
				"from": "00:10:56,440",
				"to": "00:10:58,680"
			},
			"offsets": {
				"from": 656440,
				"to": 658680
			},
			"text": " otros Poscas de Madrid,"
		},
		{
			"timestamps": {
				"from": "00:10:58,680",
				"to": "00:11:00,360"
			},
			"offsets": {
				"from": 658680,
				"to": 660360
			},
			"text": " por ejemplo Borrachuzo y Elena."
		},
		{
			"timestamps": {
				"from": "00:11:00,360",
				"to": "00:11:01,930"
			},
			"offsets": {
				"from": 660360,
				"to": 661930
			},
			"text": " Es un evento de podcasting"
		},
		{
			"timestamps": {
				"from": "00:11:01,930",
				"to": "00:11:03,900"
			},
			"offsets": {
				"from": 661930,
				"to": 663900
			},
			"text": " amateur, de la antigua usanza,"
		},
		{
			"timestamps": {
				"from": "00:11:03,900",
				"to": "00:11:05,580"
			},
			"offsets": {
				"from": 663900,
				"to": 665580
			},
			"text": " de juntarse gente, escuchar"
		},
		{
			"timestamps": {
				"from": "00:11:05,580",
				"to": "00:11:07,280"
			},
			"offsets": {
				"from": 665580,
				"to": 667280
			},
			"text": " directos, hablar de las cosas"
		},
		{
			"timestamps": {
				"from": "00:11:07,280",
				"to": "00:11:07,900"
			},
			"offsets": {
				"from": 667280,
				"to": 667900
			},
			"text": " que les gustan."
		},
		{
			"timestamps": {
				"from": "00:11:07,900",
				"to": "00:11:09,870"
			},
			"offsets": {
				"from": 667900,
				"to": 669870
			},
			"text": " Y tiene un poco de parecido con"
		},
		{
			"timestamps": {
				"from": "00:11:09,870",
				"to": "00:11:11,810"
			},
			"offsets": {
				"from": 669870,
				"to": 671810
			},
			"text": " el Show Art Libre porque esta"
		},
		{
			"timestamps": {
				"from": "00:11:11,810",
				"to": "00:11:13,780"
			},
			"offsets": {
				"from": 671810,
				"to": 673780
			},
			"text": " gente defiende el feed libre."
		},
		{
			"timestamps": {
				"from": "00:11:13,780",
				"to": "00:11:15,920"
			},
			"offsets": {
				"from": 673780,
				"to": 675920
			},
			"text": " O esta gente y yo, que tengo"
		},
		{
			"timestamps": {
				"from": "00:11:15,920",
				"to": "00:11:18,480"
			},
			"offsets": {
				"from": 675920,
				"to": 678480
			},
			"text": " ahí también una sección en"
		},
		{
			"timestamps": {
				"from": "00:11:18,480",
				"to": "00:11:20,800"
			},
			"offsets": {
				"from": 678480,
				"to": 680800
			},
			"text": " los últimos de Feedlipinas"
		},
		{
			"timestamps": {
				"from": "00:11:20,800",
				"to": "00:11:22,700"
			},
			"offsets": {
				"from": 680800,
				"to": 682700
			},
			"text": " con Roberto Ruizán, al que le"
		},
		{
			"timestamps": {
				"from": "00:11:22,700",
				"to": "00:11:24,710"
			},
			"offsets": {
				"from": 682700,
				"to": 684710
			},
			"text": " mando un saludo, que fue un placer"
		},
		{
			"timestamps": {
				"from": "00:11:24,710",
				"to": "00:11:25,940"
			},
			"offsets": {
				"from": 684710,
				"to": 685940
			},
			"text": " de virtualizar."
		},
		{
			"timestamps": {
				"from": "00:11:25,940",
				"to": "00:11:27,480"
			},
			"offsets": {
				"from": 685940,
				"to": 687480
			},
			"text": " Y la cosa es que tú puedes"
		},
		{
			"timestamps": {
				"from": "00:11:27,480",
				"to": "00:11:29,370"
			},
			"offsets": {
				"from": 687480,
				"to": 689370
			},
			"text": " tener un podcast en Spotify sin"
		},
		{
			"timestamps": {
				"from": "00:11:29,370",
				"to": "00:11:31,060"
			},
			"offsets": {
				"from": 689370,
				"to": 691060
			},
			"text": " RSS con aplicaciones propietarias"
		},
		{
			"timestamps": {
				"from": "00:11:31,060",
				"to": "00:11:33,710"
			},
			"offsets": {
				"from": 691060,
				"to": 693710
			},
			"text": " o tú puedes usar el estándar"
		},
		{
			"timestamps": {
				"from": "00:11:33,710",
				"to": "00:11:36,660"
			},
			"offsets": {
				"from": 693710,
				"to": 696660
			},
			"text": " RSS con un feed que esté colgado"
		},
		{
			"timestamps": {
				"from": "00:11:36,660",
				"to": "00:11:39,620"
			},
			"offsets": {
				"from": 696660,
				"to": 699620
			},
			"text": " en un servicio codificado"
		},
		{
			"timestamps": {
				"from": "00:11:39,620",
				"to": "00:11:40,900"
			},
			"offsets": {
				"from": 699620,
				"to": 700900
			},
			"text": " con aplicaciones libres, como"
		},
		{
			"timestamps": {
				"from": "00:11:40,900",
				"to": "00:11:41,920"
			},
			"offsets": {
				"from": 700900,
				"to": 701920
			},
			"text": " se hace este podcast."
		},
		{
			"timestamps": {
				"from": "00:11:41,920",
				"to": "00:11:43,490"
			},
			"offsets": {
				"from": 701920,
				"to": 703490
			},
			"text": " Entonces son diferentes maneras"
		},
		{
			"timestamps": {
				"from": "00:11:43,490",
				"to": "00:11:44,890"
			},
			"offsets": {
				"from": 703490,
				"to": 704890
			},
			"text": " de entender cómo publicar el"
		},
		{
			"timestamps": {
				"from": "00:11:44,890",
				"to": "00:11:47,200"
			},
			"offsets": {
				"from": 704890,
				"to": 707200
			},
			"text": " contenido y cómo distribuirlo."
		},
		{
			"timestamps": {
				"from": "00:11:47,200",
				"to": "00:11:49,320"
			},
			"offsets": {
				"from": 707200,
				"to": 709320
			},
			"text": " Pues este grupo de gente defiende"
		},
		{
			"timestamps": {
				"from": "00:11:49,320",
				"to": "00:11:51,280"
			},
			"offsets": {
				"from": 709320,
				"to": 711280
			},
			"text": " que no todo es el industrial,"
		},
		{
			"timestamps": {
				"from": "00:11:51,280",
				"to": "00:11:54,320"
			},
			"offsets": {
				"from": 711280,
				"to": 714320
			},
			"text": " el comercial y el monetizar"
		},
		{
			"timestamps": {
				"from": "00:11:54,320",
				"to": "00:11:57,720"
			},
			"offsets": {
				"from": 714320,
				"to": 717720
			},
			"text": " y el usar herramientas propietarias."
		},
		{
			"timestamps": {
				"from": "00:11:57,720",
				"to": "00:11:59,210"
			},
			"offsets": {
				"from": 717720,
				"to": 719210
			},
			"text": " Con lo cual es un evento que la"
		},
		{
			"timestamps": {
				"from": "00:11:59,210",
				"to": "00:12:01,440"
			},
			"offsets": {
				"from": 719210,
				"to": 721440
			},
			"text": " verdad es que estuvo muy entretenido."
		},
		{
			"timestamps": {
				"from": "00:12:01,440",
				"to": "00:12:03,540"
			},
			"offsets": {
				"from": 721440,
				"to": 723540
			},
			"text": " Aparte me sirvió para desvirtualizar,"
		},
		{
			"timestamps": {
				"from": "00:12:03,540",
				"to": "00:12:05,100"
			},
			"offsets": {
				"from": 723540,
				"to": 725100
			},
			"text": " que también le mando un saludo"
		},
		{
			"timestamps": {
				"from": "00:12:05,100",
				"to": "00:12:05,520"
			},
			"offsets": {
				"from": 725100,
				"to": 725520
			},
			"text": " a Iván."
		},
		{
			"timestamps": {
				"from": "00:12:05,520",
				"to": "00:12:07,360"
			},
			"offsets": {
				"from": 725520,
				"to": 727360
			},
			"text": " Y ojalá pudiera ir a más."
		},
		{
			"timestamps": {
				"from": "00:12:07,360",
				"to": "00:12:09,290"
			},
			"offsets": {
				"from": 727360,
				"to": 729290
			},
			"text": " El problema es que el tiempo y"
		},
		{
			"timestamps": {
				"from": "00:12:09,290",
				"to": "00:12:11,680"
			},
			"offsets": {
				"from": 729290,
				"to": 731680
			},
			"text": " la vida 1.0 no lo permite."
		},
		{
			"timestamps": {
				"from": "00:12:11,680",
				"to": "00:12:13,700"
			},
			"offsets": {
				"from": 731680,
				"to": 733700
			},
			"text": " También le voy a mandar un saludo,"
		},
		{
			"timestamps": {
				"from": "00:12:13,700",
				"to": "00:12:14,990"
			},
			"offsets": {
				"from": 733700,
				"to": 734990
			},
			"text": " aunque en el evento lo vi muy"
		},
		{
			"timestamps": {
				"from": "00:12:14,990",
				"to": "00:12:15,460"
			},
			"offsets": {
				"from": 734990,
				"to": 735460
			},
			"text": " poco,"
		},
		{
			"timestamps": {
				"from": "00:12:15,460",
				"to": "00:12:17,530"
			},
			"offsets": {
				"from": 735460,
				"to": 737530
			},
			"text": " pero bueno, lo conseguí saludar"
		},
		{
			"timestamps": {
				"from": "00:12:17,530",
				"to": "00:12:19,960"
			},
			"offsets": {
				"from": 737530,
				"to": 739960
			},
			"text": " antes de tener que irme a Papafriquei."
		},
		{
			"timestamps": {
				"from": "00:12:20,280",
				"to": "00:12:21,860"
			},
			"offsets": {
				"from": 740280,
				"to": 741860
			},
			"text": " Y de leer enhorabuena porque"
		},
		{
			"timestamps": {
				"from": "00:12:21,860",
				"to": "00:12:24,180"
			},
			"offsets": {
				"from": 741860,
				"to": 744180
			},
			"text": " por la caída de Archive.org se"
		},
		{
			"timestamps": {
				"from": "00:12:24,180",
				"to": "00:12:26,740"
			},
			"offsets": {
				"from": 744180,
				"to": 746740
			},
			"text": " ha cogido ahí los machos"
		},
		{
			"timestamps": {
				"from": "00:12:26,740",
				"to": "00:12:29,010"
			},
			"offsets": {
				"from": 746740,
				"to": 749010
			},
			"text": " y ha decidido pasarse a Castopod"
		},
		{
			"timestamps": {
				"from": "00:12:29,010",
				"to": "00:12:31,040"
			},
			"offsets": {
				"from": 749010,
				"to": 751040
			},
			"text": " y ha migrado todo su podcast"
		},
		{
			"timestamps": {
				"from": "00:12:31,040",
				"to": "00:12:32,640"
			},
			"offsets": {
				"from": 751040,
				"to": 752640
			},
			"text": " con mucho trabajo y esfuerzo"
		},
		{
			"timestamps": {
				"from": "00:12:32,640",
				"to": "00:12:34,130"
			},
			"offsets": {
				"from": 752640,
				"to": 754130
			},
			"text": " y trabajo manual a manopla de"
		},
		{
			"timestamps": {
				"from": "00:12:34,130",
				"to": "00:12:35,340"
			},
			"offsets": {
				"from": 754130,
				"to": 755340
			},
			"text": " ir arreglando el feed."
		},
		{
			"timestamps": {
				"from": "00:12:35,340",
				"to": "00:12:37,280"
			},
			"offsets": {
				"from": 755340,
				"to": 757280
			},
			"text": " Y ahora autoaloja y lo hace en"
		},
		{
			"timestamps": {
				"from": "00:12:37,280",
				"to": "00:12:38,910"
			},
			"offsets": {
				"from": 757280,
				"to": 758910
			},
			"text": " una plataforma hecha en"
		},
		{
			"timestamps": {
				"from": "00:12:38,910",
				"to": "00:12:40,320"
			},
			"offsets": {
				"from": 758910,
				"to": 760320
			},
			"text": " software libre."
		},
		{
			"timestamps": {
				"from": "00:12:40,720",
				"to": "00:12:42,460"
			},
			"offsets": {
				"from": 760720,
				"to": 762460
			},
			"text": " Así que enhorabuena."
		},
		{
			"timestamps": {
				"from": "00:12:42,460",
				"to": "00:12:43,840"
			},
			"offsets": {
				"from": 762460,
				"to": 763840
			},
			"text": " Con esto me despido."
		},
		{
			"timestamps": {
				"from": "00:12:43,840",
				"to": "00:12:45,830"
			},
			"offsets": {
				"from": 763840,
				"to": 765830
			},
			"text": " Por supuesto, gracias a vosotros"
		},
		{
			"timestamps": {
				"from": "00:12:45,830",
				"to": "00:12:47,480"
			},
			"offsets": {
				"from": 765830,
				"to": 767480
			},
			"text": " que estáis escuchando."
		},
		{
			"timestamps": {
				"from": "00:12:47,480",
				"to": "00:12:50,190"
			},
			"offsets": {
				"from": 767480,
				"to": 770190
			},
			"text": " A Jorge, que suele editar esto"
		},
		{
			"timestamps": {
				"from": "00:12:50,190",
				"to": "00:12:52,320"
			},
			"offsets": {
				"from": 770190,
				"to": 772320
			},
			"text": " con mucha paciencia."
		},
		{
			"timestamps": {
				"from": "00:12:52,320",
				"to": "00:12:54,080"
			},
			"offsets": {
				"from": 772320,
				"to": 774080
			},
			"text": " Y a todas las personas amantes"
		},
		{
			"timestamps": {
				"from": "00:12:54,080",
				"to": "00:12:56,190"
			},
			"offsets": {
				"from": 774080,
				"to": 776190
			},
			"text": " del software libre, si se lo hacéis"
		},
		{
			"timestamps": {
				"from": "00:12:56,190",
				"to": "00:12:56,820"
			},
			"offsets": {
				"from": 776190,
				"to": 776820
			},
			"text": " llegar."
		},
		{
			"timestamps": {
				"from": "00:12:56,820",
				"to": "00:12:58,440"
			},
			"offsets": {
				"from": 776820,
				"to": 778440
			},
			"text": " Un saludo y nos vemos pronto."
		},
		{
			"timestamps": {
				"from": "00:12:58,440",
				"to": "00:12:58,820"
			},
			"offsets": {
				"from": 778440,
				"to": 778820
			},
			"text": " entonces"
		}
	]
}
