EuropeanUnion,NGIZero@mastodon.xyz
EuropeanUnion,openfuture@eupolicy.social
EuropeanUnion,edri@eupolicy.social
EuropeanUnion,EUClimateAction@respublicae.eu
EuropeanUnion,noybeu@mastodon.social
EuropeanUnion,OpenForumEurope@mastodon.cloud
EuropeanUnion,ngisargasso@fosstodon.org
EuropeanUnion,NGICommons@eupolicy.social
EuropeanUnion,train4esg@euproject.info
EuropeanUnion,NGI_Taler@s10y.eu
EuropeanUnion,EC_OSPO@ec.social-network.europa.eu
EuropeanUnion,EUCommission@ec.social-network.europa.eu
EuropeanUnion,REA@ec.social-network.europa.eu
EuropeanUnion,EC_NGI@ec.social-network.europa.eu
EuropeanUnion,Curia@curia.social-network.europa.eu
EuropeanUnion,ngi@social.ngi.eu
EuropeanUnion,ngitrustchain@social.ngi.eu
EuropeanUnion,ngisearch@social.ngi.eu
EuropeanUnion,eu_os@eupolicy.social
EuropeanUnion,europeanOSacademy@fosstodon.org
EuropeanUnion,orcwg@fosstodon.org
