Accesibilidad,cdoaweb@mastodon.social
Accesibilidad,nvda@comunidad.nvda.es
Accesibilidad,evarela@comunidad.nvda.es
Accesibilidad,Iniestasfun@comunidad.nvda.es
Accesibilidad,terecodina@comunidad.nvda.es
Accesibilidad,javido@tiflo.social
Accesibilidad,jmortizsilva@comunidad.nvda.es
Accesibilidad,iataccess@comunidad.nvda.es
Accesibilidad,jonathanchacon@comunidad.nvda.es
Accesibilidad,eva_m@fosstodon.org
Accesibilidad,A11yAwareness@disabled.social
Accesibilidad,sdomenechmiguel@mastodon.social
Accesibilidad,tifloaudio@mastodon.social
Accesibilidad,cti_once@fedifeed.net
Accesibilidad,podcast@tffp.masto.host
Accesibilidad,tiflonet@masto.es
Accesibilidad,arturofernandez@comunidad.nvda.es
Accesibilidad,acciumred@paquita.masto.host
Accesibilidad,abate@comunidad.nvda.es
Accesibilidad,dragonmoon1522@comunidad.nvda.es
Accesibilidad,loquetucuentas@mastodon.social
Accesibilidad,WeirdWriter@caneandable.social
Accesibilidad,Victorrodal@masto.es
Accesibilidad,DavidMarzalC@masto.es
