BetterPlanet,CorioPsicologia@mastodon.social
BetterPlanet,PostApocalipsisNau@todon.nl
BetterPlanet,gominolasdepetroleo@paquita.masto.host
BetterPlanet,ferfollos@mas.to
BetterPlanet,gretathunberg@mastodon.nu
BetterPlanet,ochodoscuatroediciones@mastodon.social
BetterPlanet,be4foss@floss.social
BetterPlanet,ScientistRebellion@social.rebellion.global
BetterPlanet,ecologistas@mastodon.social
BetterPlanet,gnusolidario@mastodon.social
BetterPlanet,accionclima@xarxa.cloud
BetterPlanet,Troposfera@mastodon.online
BetterPlanet,greenpeace@mastodon.social
BetterPlanet,miriamleiros@mastodon.social
BetterPlanet,escepticos@mastodon.escepticos.es
BetterPlanet,blogsostenible@social.politicaconciencia.org
BetterPlanet,apicoypaula@mastodon.green
BetterPlanet,WHO@mstdn.social
BetterPlanet,lacoop57@mastodont.cat
BetterPlanet,LaTiendaComprometida@mastodon.social
BetterPlanet,wwfespana@bird.makeup
BetterPlanet,tunubesecamirio@masto.es
BetterPlanet,algorights@mastodon.social
BetterPlanet,saludhumanidad@mastodon.social
BetterPlanet,SomEnergia@mastodon.economiasocial.org
BetterPlanet,Vivirsinplastico@masto.es
BetterPlanet,euklidiadas@masto.es
BetterPlanet,REAS_Red@mastodon.economiasocial.org
BetterPlanet,yayoherrero@mastodon.social
BetterPlanet,MeryCarreras@mastodon.social
BetterPlanet,ConsumoQueSuma@mastodon.social
BetterPlanet,EconomiaJusta@mastodon.social
BetterPlanet,alvizlo@masto.es
BetterPlanet,metbeni.bsky.social@bsky.brid.gy
BetterPlanet,luisglezreyes@mastodon.social
BetterPlanet,iFixit@mastodon.social
BetterPlanet,afb@mstdn.social
BetterPlanet,vamonosjuntas@masto.es
BetterPlanet,sobreviviraldescalabro@mastodon.social
BetterPlanet,climatica_coop@mastodon.social
BetterPlanet,niboe@fediscience.org
BetterPlanet,LocurasLogicas@mastodon.social
BetterPlanet,CaboclaBarcelona@mastodon.social
BetterPlanet,carrocombate@mastodon.social
BetterPlanet,hacialosalvaje@mastodon.economiasocial.org
BetterPlanet,rezerocat@mastodon.social
BetterPlanet,rebelionoextincion@social.rebellion.global
BetterPlanet,aeea@mastodon.social
BetterPlanet,EsRebelCientif@social.rebellion.global
BetterPlanet,accioncontraelodio@mastodon.social
BetterPlanet,DavidMarzalC@masto.es
