Komunidad,victorhck@mastodon.social
Komunidad,fisherroot@mastodon.social
Komunidad,vanvege@mastodon.social
Komunidad,rikylinux_ar@mastodon.social
Komunidad,tsdgeos@fosstodon.org
Komunidad,toscalix@mastodon.social
Komunidad,podcastlinux@mastodon.social
Komunidad,AleixPol@fosstodon.org
Komunidad,Konqi@mastodon.social
Komunidad,baltollkien@mastodon.social
Komunidad,mnemonix@mastodon.social
Komunidad,antlarr@mastodon.social
Komunidad,yoyo308@mastodon.online
Komunidad,braisarias@mastodon.gal
Komunidad,themosemeister@mastodon.social
Komunidad,Benja@mstdn.social
Komunidad,tecnoysoft@mastodon.online
Komunidad,AgarimOS@mastodon.online
Komunidad,galegogeek@mastodon.gal
Komunidad,aperalesf@masto.es
Komunidad,yorus@mstdn.social
Komunidad,iam@ernestoacosta.org
Komunidad,hellarghon@masto.es
Komunidad,kyva@meetiko.org
Komunidad,sdomenechmiguel@mastodon.social
Komunidad,sergiofdezsaez@masto.es
Komunidad,fid_jose@mastodon.social
Komunidad,ivangj@mastodon.social
Komunidad,5970771@ap.podcastindex.org
Komunidad,HicSuntDracones@masto.es
Komunidad,aforner@mastodon.social
Komunidad,DavidMarzalC@masto.es
Komunidad,Hache@masto.es
Komunidad,gvisoc@veedeo.org
Komunidad,cegrosa@tkz.one
Komunidad,kde_espana@floss.social
