Podcast,CorioPsicologia@mastodon.social
Podcast,fanta@mastodon.green
Podcast,t3rr0rz0n3@xarxa.cloud
Podcast,spectrumgirl@xarxa.cloud
Podcast,PostApocalipsisNau@todon.nl
Podcast,lauracaorsi@paquita.masto.host
Podcast,24h24l@mastodon.online
Podcast,gominolasdepetroleo@paquita.masto.host
Podcast,VictorGabriel@podcastindex.social
Podcast,yoyo308@mastodon.online
Podcast,arkachofas@masto.es
Podcast,doctorgenoma@mastodon.social
Podcast,atareao@mastodon.social
Podcast,eove@mastodon.social
Podcast,verdugo789@mastodon.social
Podcast,gabriel@fedi.gvisoc.com
Podcast,AlexPodcast@tkz.one
Podcast,Castopod@podlibre.social
Podcast,Barredo@mastodon.social
Podcast,ugeek@mastodon.social
Podcast,davidochobits@mastodon.social
Podcast,podcastlinux@mastodon.social
Podcast,rafalagoon@mastodon.social
Podcast,alien@mastodon.green
Podcast,davidhooper@podcastindex.social
Podcast,AntennaPod@fosstodon.org
Podcast,transistor@podcastindex.social
Podcast,evarela@comunidad.nvda.es
Podcast,Mancomun_gal@mastodon.social
Podcast,victorgabriel@oye.social
Podcast,Cgdoval@mastodon.social
Podcast,geekstv@mastodon.world
Podcast,gnulinuxvalencia@floss.social
Podcast,Marta@todon.eu
Podcast,lluviacontruenosradio@hostux.social
Podcast,iam@ernestoacosta.org
Podcast,apicoypaula@mastodon.green
Podcast,disperso@oye.social
Podcast,comopiensodigo@comopiensodigo.com
Podcast,raivenra@mastodon.social
Podcast,jmortizsilva@comunidad.nvda.es
Podcast,Mujeresconhistoria@mas.to
Podcast,jagelado@mas.to
Podcast,balaextra@podcasts.social
Podcast,jonathanchacon@comunidad.nvda.es
Podcast,Podnews@social.podnews.net
Podcast,eva_m@fosstodon.org
Podcast,novadelinux@xarxa.cloud
Podcast,cisene@podcastindex.social
Podcast,volunteertechnologist@podcastindex.social
Podcast,PapaFriki@mas.to
Podcast,antoniomanfredi@andalucia.social
Podcast,hellarghon@masto.es
Podcast,frentealcliente@oye.social
Podcast,maratonlinuxero@mastodon.social
Podcast,james@bne.social
Podcast,alibluebox@mastodon.social
Podcast,jeanbedel@masto.es
Podcast,ultimosfeed@masto.es
Podcast,barbarapgs@mast.lat
Podcast,tifloaudio@mastodon.social
Podcast,ruisan@masto.es
Podcast,podcast@tffp.masto.host
Podcast,enochmm@mastodon.social
Podcast,arturofernandez@comunidad.nvda.es
Podcast,podcastidae@mastodon.social
Podcast,compiladopodcast@mastodon.social
Podcast,gmag11@mastodon.social
Podcast,daily@emilcar.social
Podcast,colegas@emilcar.social
Podcast,emilcar@emilcar.social
Podcast,elojoqueves@emilcar.social
Podcast,romanoslocos@emilcar.social
Podcast,diegoujaldon@emilcar.social
Podcast,arsmvsica@emilcar.social
Podcast,soyantonio@masto.es
Podcast,abate@comunidad.nvda.es
Podcast,sobrelamarcha@podcast.gvisoc.com
Podcast,g4lile0@mastodon.social
Podcast,loquetucuentas@mastodon.social
Podcast,nolegaltech@mastodon.social
Podcast,PapaFriki@papafrikifeed.duckdns.org
Podcast,ChuSGC@xarxa.cloud
Podcast,manchapod@oye.social
Podcast,creativityfound@mastodon.social
Podcast,sobreviviraldescalabro@mastodon.social
Podcast,andrewwet@masto.brunasocial.blog
Podcast,mixxio@cuonda.social
Podcast,emilcar@pixelfed.social
Podcast,hacialosalvaje@mastodon.economiasocial.org
Podcast,salvadasporelfeminismo@mastodon.social
Podcast,Victorrodal@masto.es
Podcast,edu@social.collado.eu
Podcast,comopiensodigo@www.tupodcast.com
Podcast,reset@www.tupodcast.com
Podcast,angelescustodios@papafrikifeed.duckdns.org
Podcast,cavalleto@masto.es
Podcast,djkibou@mastodon.social
Podcast,entreletraspod@bookstodon.es
Podcast,hermesgabriel@todon.nl
Podcast,Jonybcn@mastodon.social
Podcast,lynze@mastodon.social
Podcast,martatrivi@mastodon.social
Podcast,mirindo@mastodon.social
Podcast,ocularis@mastodon.nu
Podcast,palangano_media@oye.social
Podcast,proteusbcn@mastodon.nu
Podcast,Rocquito@social.linux.pizza
Podcast,tucafeprivado@podcast.theprivatecoffee.nohost.me
Podcast,desdeelreloj@mas.to
Podcast,DavidMarzalC@masto.es
