KDE_int,Krita@mastodon.art
KDE_int,tetris4@mastodon.cloud
KDE_int,JRepin@mstdn.io
KDE_int,bshah@fosstodon.org
KDE_int,AleixPol@fosstodon.org
KDE_int,kaidan@fosstodon.org
KDE_int,plasmamobile@fosstodon.org
KDE_int,gcompris@mastodon.social
KDE_int,redstrate@mastodon.art
KDE_int,veggero@tube.kockatoo.org
KDE_int,kde_community@tube.kockatoo.org
KDE_int,kasts@fosstodon.org
KDE_int,kde@floss.social
KDE_int,kdenlive@floss.social
KDE_int,kubuntu@fosstodon.org
KDE_int,be4foss@floss.social
KDE_int,VolkerKrause@floss.social
KDE_int,akademy@floss.social
KDE_int,mauiproject@floss.social
KDE_int,LabPlot@floss.social
KDE_int,KEXI@floss.social
KDE_int,thisweekinkde@social.opendesktop.org
KDE_int,LAS@floss.social
KDE_int,kubuntufocus@mastodon.social
KDE_int,tokodon@kde.social
KDE_int,neochat@kde.social
KDE_int,arianna@kde.social
KDE_int,nicofee@floss.social
KDE_int,merkuro@kde.social
KDE_int,kalpa@fosstodon.org
KDE_int,krita@tube.kockatoo.org
KDE_int,apps@kde.social
KDE_int,alcarazzam@kde.social
KDE_int,carl@kde.social
KDE_int,thisweekinkde_apps@social.opendesktop.org
